e;19318;'alouette';1;62
e;1912394;'nom d'oiseau>142152';1;0;'nom d'oiseau>nom'
e;13369;'être';1;808
e;58768;'organisme';1;248
e;157007;'être>146885';1;50;'être>Nom:Mas+SG'
e;183383;'nom d'oiseau';1;54
e;123745;'véhicule';1;2068
e;90758;'aéronef';1;170
e;6243;'hélicoptère';1;508
e;152778;'moyen de transport';1;428
e;101689;'être animé';1;50
e;14049831;'organisme vivant pluricellulaire hétérotrophe';1;0
e;14049840;'organisme vivant pluricellulaire';1;0
e;14049844;'organisme vivant hétérotrophe';1;0
e;436570;'entité biologique';1;50
e;261528;'hélicoptère>90758';1;10;'hélicoptère>aéronef'
e;87789;'coelomate';1;50
e;391009;'célomate';1;50
e;189981;'ingrédient de cuisine';1;66
e;391010;'coelomé';1;50
e;225847;'organisme>71624';1;66;'organisme>être vivant'
e;260820;'entité vivante';1;64
e;316850;'entité physique';1;50
e;71624;'être vivant';1;1852
e;267642;'organisme animal';1;4
e;65081;'organisme vivant';1;116
e;234036;'être vivant>123933';1;248;'être vivant>entité'
e;237445;'être>68439';1;28;'être>individu'
e;1483990;'être vivant non humain';1;4
e;396042;'tétrapode>86640';1;50;'tétrapode>vertébré'
e;246198;'petit oiseau';1;102
e;262332;'petit oiseau>140176';1;14;'petit oiseau>oiseau'
e;265838;'archosaurien';1;50
e;331036;'néognathe';1;50
e;54794;'eucaryote';1;188
e;325728;'uniconte';1;40
e;325736;'holozoaire';1;58
e;325731;'opisthoconte';1;74
e;325738;'filozoaire';1;72
e;329657;'choano-organisme';1;62
e;17559;'animal';1;13357
e;325741;'choanobionte';1;74
e;233133;'animal>117095';1;658;'animal>zoologie'
e;55823;'métazoaire';1;154
e;264908;'eumétazoaire';1;60
e;264880;'bilatérien';1;68
e;115304;'deutérostomien';1;110
e;265220;'épineurien';1;20
e;330964;'cordé>117095';1;36;'cordé>zoologie'
e;248081;'chordé';1;222
e;142602;'cordé';1;100
e;317929;'olfactorien';1;32
e;264881;'crânié';1;48
e;265277;'crâniate';1;52
e;86640;'vertébré';1;840
e;101018;'gnathostome';1;74
e;91794;'tétrapode';1;88
e;110773;'amniote';1;82
e;265837;'sauropsidé';1;6
e;326373;'sauropsidien';1;52
e;283634;'sauropside';777;30
e;315565;'oiseau terrestre';1;50
e;40733;'diapside';1;74
e;220337;'oiseau>17559';1;674;'oiseau>animal'
e;140176;'oiseau';1;7116
e;55488;'passériforme';1;58
e;143277;'passeriforme';1;50
e;72025;'passereau';1;310
e;221566;'alaudidé';1;50
e;233073;'alouette sans tête';1;52
e;2507946;'cochevis huppé';1;0
e;192558;'cochevis de Thékla';1;50
e;2465113;'alouette de Cobourg';1;0
e;2475077;'alouette des sables';1;0
e;2926988;'Cochevis de Thékla';777;0
e;12077013;'alouette de Razo';1;0
e;12077012;'alouette de Raso';1;0
e;334935;'alouette huppée';1;50
e;2365910;'alouette bretonne';1;0
e;2399762;'alouette de Nuremberg';1;0
e;2821779;'Galerida cristata';777;0
e;1716440;'Galerida theklae';777;0
e;2373577;'alouette des saules';1;0
e;2568504;'alouette brachydactyle';1;0
e;2518901;'alouette folle';1;0
e;2507920;'alouette leucoptère';1;0
e;2387508;'alouette courte';1;0
e;309344;'alouette du Dekkan';777;50
e;3160034;'Alouette du Dekkan';777;0
e;306035;'Eremophila alpestris';777;50
e;3570828;'Cochevis huppé';777;0
e;2473937;'alouette pispolette';1;0
e;2477077;'alouette nègre';1;0
e;4904011;'alouette monticole';1;0
e;4904010;'alouette gulgule';1;0
e;4904004;'alouette bilophe';1;0
e;4904006;'alouette de Blandford';1;0
e;4904007;'alouette de Dunn';1;0
e;4904005;'alouette chanteuse';1;0
e;4924491;'Alouette chanteuse';777;0
e;4904012;'alouette raytal';1;0
e;4904009;'alouette de Swinhoe';1;0
e;4904008;'alouette de Hume';1;0
e;9167715;'=eremophila alpestris=';1;0
e;5668202;'Alouette de Sclater';777;0
e;191995;'alouette calandre';1;50
e;191996;'alouette calandrelle';1;50
e;191998;'alouette d'Obbia';1;50
e;56988;'alouette des champs';1;84
e;192005;'alouette lulu';1;50
e;192006;'alouette masquée';1;50
e;3160280;'Alouette masquée';777;0
e;3160030;'Alouette d'Obbia';777;0
e;3560146;'Alouette calandrelle';777;0
e;192001;'alouette de Clot-Bey';1;50
e;3160049;'Alouette de Clot-Bey';777;0
e;192002;'alouette de Java';1;50
e;180837;'alouette hausse-col';1;50
e;2515998;'alouette haussecol';1;0
e;3160076;'Alouette de Java';777;0
e;3661995;'Alouette hausse-col';777;0
e;191997;'alouette d'Erlanger';1;50
e;191999;'alouette de Ash';1;50
e;192000;'alouette de Botha';1;50
e;192003;'alouette de Jerdon';1;50
e;192004;'alouette de Sclater';1;50
e;36156;'alouette de mer';1;50
e;3160036;'Alouette d'Erlanger';777;0
e;3160054;'Alouette de Botha';777;0
e;3160056;'Alouette de Ash';777;0
e;192007;'alouette à bec rose';1;50
e;3160077;'Alouette à bec rose';777;0