
r;13021833;19318;220338;999;1
r;13021863;19318;225706;999;1
r;34213965;19318;234035;999;1
r;29661185;19318;225846;999;2
r;29704399;19318;225849;999;2
r;29682793;19318;225848;999;4
r;31895141;19318;237441;999;4
r;31966656;19318;237443;999;4
r;30406167;19318;330963;999;5
r;284845767;19318;237444;999;8
r;284264365;19318;2586588;999;15
r;284264395;19318;2586589;999;15
r;284264419;19318;2586590;999;15