
r;13730189;19318;102934;17;26
r;78257689;19318;99220;17;26
r;2704722;19318;1384;17;27
r;254431160;19318;10314012;17;29
r;2749650;19318;82844;17;30
r;11831693;19318;330215;17;32
r;2883062;19318;122864;17;34