e;19318;'alouette';1;62
e;115352;'griffe';1;1044
e;52119;'langue';1;3952
e;174176;'spine';1;50
e;6797262;'=vertebral column=';1;0
e;1816244;'colonne rachidienne';1;0
e;8535678;'=spine=';1;0
e;6797233;'=vertebra=';1;0
e;2077;'réservoir';1;352
e;4658;'moteur';1;2072
e;225215;'moteur>5425';1;116;'moteur>machine'
e;187626;'réservoir de carburant';1;18
e;124687;'rotor';1;78
e;145247;'train d'atterrissage';1;80
e;143550;'pale';1;78
e;81298;'habitacle';1;110
e;40184;'siège';1;1328
e;8990;'patte';1;1760
e;139779;'ADN';1;664
e;126285;'dos';1;958
e;47319;'colonne vertébrale';1;272
e;109785;'peau';1;3134
e;219363;'corps>112609';1;148;'corps>anatomie'
e;240720;'squelette>112609';1;110;'squelette>anatomie'
e;103311;'système nerveux';1;246
e;83944;'nerf';1;812
e;152844;'sang chaud';1;80
e;126388;'articulation';1;610
e;57875;'tube digestif';1;108
e;74558;'os';1;2580
e;213644;'os>116980';1;296;'os>squelette'
e;95422;'cou';1;994
e;43853;'aile';1;2042
e;144846;'tête';1;5464
e;92955;'plumes';1;488
e;141814;'vertèbre';1;322
e;241352;'ventre>112609';1;46;'ventre>anatomie'
e;326146;'système nerveux en position dorsale';1;56
e;213792;'coeur>213791';1;92;'coeur>organe musculaire'
e;1636805;'oeil>44335';1;50;'oeil>organe'
e;215896;'aile>117095>140176';1;80;'aile>zoologie>oiseau'
e;116980;'squelette';1;1076
e;108463;'ventre';1;964
e;213545;'plume>140176';1;48;'plume>oiseau'
e;148105;'ailes';1;1230
e;225934;'oeil>330323';1;108;'oeil>organe de la vue'
e;233008;'bec>140176';1;44;'bec>oiseau'
e;124919;'bec';1;1956
e;219993;'pale>87714';1;50;'pale>hélice'
e;237765;'patte>141795';1;50;'patte>membre'
e;62726;'plume';1;2512
e;95256;'queue';1;2454
e;3508;'plumage';1;188
e;114327;'acide désoxyribonucléique';1;136
e;141258;'pales';1;56
e;77008;'yeux';1;4020
e;77424;'oeil';1;2984
e;233138;'tête>390963';1;42;'tête>extrémité supérieure du corps'
e;74846;'corps';1;4634
e;96211;'coeur';1;2132
e;151867;'pattes';1;1102
e;390927;'tête>112609';1;60;'tête>anatomie'
e;16747;'adn';1;158
e;214603;'queue>214624>140176';1;50;'queue>queue d'animal>oiseau'
e;36886;'faune';1;384
e;120157;'règne animal';1;78