
r;346636508;19318;12077013;8;1
r;346636509;19318;12077012;8;1
r;294724151;19318;306035;8;18
r;297325196;19318;9167715;8;23
r;53699374;19318;2399762;8;24
r;243477005;19318;3160034;8;25
r;243508056;19318;2465113;8;25
r;243509636;19318;2475077;8;25
r;243700482;19318;3160280;8;25
r;243713900;19318;2477077;8;25
r;243723138;19318;3160030;8;25
r;243743380;19318;3160076;8;25
r;243743387;19318;3160036;8;25
r;243743390;19318;3160054;8;25
r;243743392;19318;3160056;8;25
r;243744555;19318;3160077;8;25
r;246358467;19318;3560146;8;25
r;246610812;19318;2926988;8;25
r;246610814;19318;1716440;8;25
r;247113546;19318;2821779;8;25
r;247146581;19318;3570828;8;25
r;248178225;19318;5668202;8;25
r;250385846;19318;4904005;8;25
r;250386197;19318;4904007;8;25
r;250386907;19318;4904010;8;25
r;250387436;19318;4904006;8;25
r;250387623;19318;4904004;8;25
r;250387626;19318;4904011;8;25
r;250387750;19318;4904008;8;25
r;250387897;19318;4904009;8;25
r;250387954;19318;4904012;8;25
r;251700520;19318;3661995;8;25
r;252106799;19318;4924491;8;25
r;252503265;19318;3160049;8;25
r;333255169;19318;216120;8;25
r;26023011;19318;309344;8;27
r;52682144;19318;2518901;8;30
r;52681566;19318;2507920;8;32
r;52684769;19318;2568504;8;34
r;9669275;19318;192002;8;35
r;33195855;19318;334935;8;35
r;53054448;19318;2387508;8;35
r;52685845;19318;2373577;8;40
r;50476631;19318;2365910;8;41
r;9677533;19318;191997;8;43
r;9677534;19318;191998;8;43
r;9677535;19318;191999;8;43
r;9677536;19318;192000;8;43
r;9677537;19318;192001;8;43
r;9677538;19318;192003;8;43
r;9677539;19318;192004;8;43
r;9677540;19318;36156;8;43
r;9677542;19318;180837;8;43
r;9677543;19318;192005;8;43
r;9677544;19318;192006;8;43
r;9677545;19318;192007;8;43
r;9677531;19318;191995;8;44
r;9677532;19318;191996;8;44
r;9677541;19318;56988;8;44
r;52681992;19318;2515998;8;44