
r;190709668;17559;115369;26;-35
r;190709631;17559;1968001;26;-25
r;190709740;17559;227757;26;-25
r;3196459;17559;127257;26;30
r;3197806;17559;14338;26;30
r;3197809;17559;106016;26;30
r;15046043;17559;396240;26;30
r;15046090;17559;84676;26;30
r;15046257;17559;165487;26;30
r;15047361;17559;328081;26;30
r;15047399;17559;328136;26;30
r;15048162;17559;162516;26;30
r;15048256;17559;62786;26;30
r;15048299;17559;38772;26;30
r;15048526;17559;162787;26;30
r;15048710;17559;2666;26;30
r;15048871;17559;85163;26;30
r;15049130;17559;19017;26;30
r;15049634;17559;329309;26;30
r;15049776;17559;264745;26;30
r;15049834;17559;81378;26;30
r;15049986;17559;326999;26;30
r;15050111;17559;327435;26;30
r;15050240;17559;327568;26;30
r;15050731;17559;157598;26;30
r;15051186;17559;159739;26;30
r;15051553;17559;158942;26;30
r;15052031;17559;56689;26;30
r;15052315;17559;44228;26;30
r;15052477;17559;104307;26;30
r;15052619;17559;329245;26;30
r;15052663;17559;329210;26;30
r;15052861;17559;329104;26;30
r;15052888;17559;327611;26;30
r;15053092;17559;328397;26;30
r;15053160;17559;328954;26;30
r;15053561;17559;328747;26;30
r;15053716;17559;326828;26;30
r;15053896;17559;328208;26;30
r;15053919;17559;328579;26;30
r;15054264;17559;328442;26;30
r;15054336;17559;327622;26;30
r;15054466;17559;328367;26;30
r;15054621;17559;328297;26;30
r;15054762;17559;328252;26;30
r;15055069;17559;328112;26;30
r;15055142;17559;328084;26;30
r;15055310;17559;327841;26;30
r;15055320;17559;328008;26;30
r;15055397;17559;327994;26;30
r;15055439;17559;327984;26;30
r;15055553;17559;327948;26;30
r;15055640;17559;327785;26;30
r;15055670;17559;327892;26;30
r;15055690;17559;327886;26;30
r;15055880;17559;326611;26;30
r;15056042;17559;327741;26;30
r;15056055;17559;327736;26;30
r;15056085;17559;327376;26;30
r;15056130;17559;327688;26;30
r;15056465;17559;327219;26;30
r;15056518;17559;327549;26;30
r;15056865;17559;327458;26;30
r;15057022;17559;327388;26;30
r;15057090;17559;327353;26;30
r;15057106;17559;327339;26;30
r;15057120;17559;327336;26;30
r;15057126;17559;327329;26;30
r;15057328;17559;327257;26;30
r;15057493;17559;327193;26;30
r;15057713;17559;327092;26;30
r;15057833;17559;327039;26;30
r;15057977;17559;326985;26;30
r;15058027;17559;326968;26;30
r;15058064;17559;326961;26;30
r;15058072;17559;326960;26;30
r;15058242;17559;326895;26;30
r;15058247;17559;326892;26;30
r;15058248;17559;326890;26;30
r;15058337;17559;326852;26;30
r;15058350;17559;326848;26;30
r;15058595;17559;326706;26;30
r;15058617;17559;326704;26;30
r;15058756;17559;326634;26;30
r;15058779;17559;326629;26;30
r;15058886;17559;326589;26;30
r;15058937;17559;41684;26;30
r;15059116;17559;165608;26;30
r;15059341;17559;159532;26;30
r;15060031;17559;235938;26;30
r;15060192;17559;84983;26;30
r;15060621;17559;157712;26;30
r;15060713;17559;160481;26;30
r;15061803;17559;249545;26;30
r;15062672;17559;29105;26;30
r;15062697;17559;219822;26;30
r;15062829;17559;45620;26;30
r;15064789;17559;34284;26;30
r;15065168;17559;231279;26;30
r;15065346;17559;234151;26;30
r;15065434;17559;157513;26;30
r;15065456;17559;165640;26;30
r;15065757;17559;112579;26;30
r;15066015;17559;50739;26;30
r;15066144;17559;21149;26;30
r;15066334;17559;118970;26;30
r;15066349;17559;161453;26;30
r;15066702;17559;26142;26;30
r;15066962;17559;129587;26;30
r;15066974;17559;162528;26;30
r;15066976;17559;72706;26;30
r;15067061;17559;160840;26;30
r;15067116;17559;5627;26;30
r;15067167;17559;163703;26;30
r;15067467;17559;160451;26;30
r;15067619;17559;163455;26;30
r;15067864;17559;166152;26;30
r;15068180;17559;164208;26;30
r;15068292;17559;162251;26;30
r;15068387;17559;157528;26;30
r;15068481;17559;50835;26;30
r;15068611;17559;99270;26;30
r;15068640;17559;164782;26;30
r;15068698;17559;121235;26;30
r;15068716;17559;122904;26;30
r;15068822;17559;156693;26;30
r;15068824;17559;162649;26;30
r;15068921;17559;71585;26;30
r;15069053;17559;159715;26;30
r;15069097;17559;102547;26;30
r;15069137;17559;19133;26;30
r;15069195;17559;162141;26;30
r;15069497;17559;159037;26;30
r;15069532;17559;161280;26;30
r;15069585;17559;87633;26;30
r;15069612;17559;158203;26;30
r;15069629;17559;162233;26;30
r;15069832;17559;160505;26;30
r;15069938;17559;157209;26;30
r;15070509;17559;101894;26;30
r;15070600;17559;125896;26;30
r;15070663;17559;14610;26;30
r;15070680;17559;157197;26;30
r;15070827;17559;156700;26;30
r;15070828;17559;157561;26;30
r;15070856;17559;158734;26;30
r;15071035;17559;25239;26;30
r;15071316;17559;12134;26;30
r;15071365;17559;13368;26;30
r;15071621;17559;157835;26;30
r;15071753;17559;156816;26;30
r;15071789;17559;7348;26;30
r;15071897;17559;76083;26;30
r;15071958;17559;120001;26;30
r;15072102;17559;74325;26;30
r;15072142;17559;157514;26;30
r;15072160;17559;156812;26;30
r;15072170;17559;113071;26;30
r;15072308;17559;107383;26;30
r;15072353;17559;16167;26;30
r;15072467;17559;82900;26;30
r;15072484;17559;14850;26;30
r;15072488;17559;72449;26;30
r;15072719;17559;47123;26;30
r;15072753;17559;121247;26;30
r;15072838;17559;78328;26;30
r;15072952;17559;80655;26;30
r;15073117;17559;36729;26;30
r;15073192;17559;56716;26;30
r;15073578;17559;4144;26;30
r;15073623;17559;45225;26;30
r;15073863;17559;5070;26;30
r;15073904;17559;117557;26;30
r;15074017;17559;47278;26;30
r;15074080;17559;101456;26;30
r;15074120;17559;39107;26;30
r;15074138;17559;117101;26;30
r;15074285;17559;44798;26;30
r;15074345;17559;56224;26;30
r;15074371;17559;20537;26;30
r;15074383;17559;12620;26;30
r;15074506;17559;105814;26;30
r;15074586;17559;91544;26;30
r;15074625;17559;78823;26;30
r;15074819;17559;125260;26;30
r;15074881;17559;153114;26;30
r;15074994;17559;105482;26;30
r;15075027;17559;80619;26;30
r;15470585;17559;396244;26;30
r;25675828;17559;328685;26;30
r;25675835;17559;190863;26;30
r;25675891;17559;57644;26;30
r;70629413;17559;2862656;26;30
r;72771540;17559;234281;26;30
r;72771561;17559;234280;26;30
r;96709876;17559;250373;26;30
r;98424743;17559;52760;26;30
r;98424884;17559;599637;26;30
r;98655848;17559;49427;26;30
r;98655863;17559;589457;26;30
r;106023379;17559;127803;26;30
r;125507519;17559;124550;26;30
r;205418791;17559;166237;26;30
r;205960317;17559;328695;26;30
r;282779102;17559;1870640;26;30
r;297318387;17559;234354;26;30
r;297348707;17559;71069;26;30
r;297529039;17559;237228;26;30
r;298880773;17559;2362967;26;30
r;310194055;17559;98337;26;30
r;352117952;17559;260032;26;30
r;329699734;17559;119786;26;30
r;333862485;17559;1476355;26;30
r;359085686;17559;120839;26;30
r;15048430;17559;101502;26;31
r;15059136;17559;323911;26;31
r;190709632;17559;1967998;26;31
r;216637974;17559;320486;26;31
r;282779112;17559;52004;26;31
r;297318385;17559;29926;26;31
r;97739235;17559;63831;26;32
r;3196453;17559;139386;26;35
r;15063264;17559;78768;26;35
r;15065969;17559;43485;26;35
r;195410966;17559;241667;26;35
r;97412766;17559;53344;26;36
r;333770740;17559;42628;26;36
r;97412778;17559;97571;26;38
r;97412708;17559;114414;26;39
r;97412856;17559;130196;26;39
r;15060353;17559;261762;26;40
r;97412790;17559;847;26;40
r;195410968;17559;247728;26;40
r;288792784;17559;114006;26;45
r;97412705;17559;7943;26;55
r;195410958;17559;30875;26;55
r;15074878;17559;47466;26;65