e;17559;'animal';1;13357
e;132358;'dissocier';1;68
e;257677;'régler par chèque';1;16
e;15392;'lier';1;562
e;81963;'se déshabiller';1;160
e;132529;'recoudre';1;290
e;239214;'se mettre en pyjama';1;50
e;160305;'::>14:120603>29:130164>34';9;50;'De quelle manière pourrait-on manger une légume ?'
e;157119;'::>14:26363>29:87221>16';9;50;'Avec quoi pourrait-on griffer des bras ?'
e;11824;'révéler';1;154
e;161908;'faire du cheval';1;58
e;158459;'::>13:74860>29:35999>34';9;50;'De quelle manière un homme pourrait fumer ?'
e;160670;'::>14:74736>29:66983>34';9;50;'De quelle manière pourrait-on ingurgiter des repas ?'
e;252380;'cuire à la vapeur';1;14
e;225943;'lire>96312';1;212;'lire>lecture'
e;91829;'serrer';1;750
e;163643;'::>14:61490>29:4914>15';9;50;'Où pourrait-on plaquer une femme ?'
e;59241;'revenir';1;276
e;88091;'kasher';1;66
e;245414;'se rouler dans l'herbe';1;50
e;163372;'::>13:74860>29:30092>16';9;50;'Avec quoi un homme pourrait combattre ?'
e;162395;'::>13:61490>29:130164>34';9;50;'De quelle manière une femme pourrait manger ?'
e;27584;'gâtifier';1;54
e;176955;'cachère';1;50
e;146958;'cascher';1;50
e;111059;'casher';1;60
e;146974;'cawcher';1;50
e;148791;'kascher';1;66
e;157580;'::>14:74736>29:66983>16';9;50;'Avec quoi pourrait-on ingurgiter des repas ?'
e;109426;'galoper';1;172
e;117557;'piquer';1;1064
e;18405;'obéir';1;216
e;39576;'se cabrer';1;52
e;166075;'prendre un bain';1;164
e;234281;'piquer>30265';1;4;'piquer>darder'
e;106132;'se lécher';1;78
e;81191;'lécher';1;358
e;251694;'mourir>126720';1;160;'mourir>cesser de vivre'
e;2045;'uriner';1;314
e;117639;'se masturber';1;140
e;86872;'se désaltérer';1;88
e;239264;'brouter>58913';1;2;'brouter>paître'
e;239950;'mordre>135544';1;36;'mordre>morsure'
e;240196;'creuser>153961';1;12;'creuser>faire un trou'
e;79489;'avoir froid';1;216
e;239683;'s'allonger>46045';1;8;'s'allonger>se coucher'
e;96885;'se lever';1;234
e;239279;'sortir>125143';1;14;'sortir>aller dehors'
e;242275;'semer la terreur';1;52
e;206919;'remuer la queue';1;50
e;245960;'se faire discret';1;2
e;13847;'faire semblant';1;230
e;265522;'s'évanouir>20601';1;50;'s'évanouir>disparaître'
e;80936;'faire peur';1;232
e;245869;'dévorer>130164';1;28;'dévorer>manger'
e;90294;'se donner la mort';1;78
e;5435;'ronfler';1;294
e;12134;'provoquer';1;454
e;267254;'transmettre ses gènes';1;2
e;123094;'laper';1;130
e;161905;'manger comme un cochon';1;60
e;264062;'traverser la route';1;2
e;326993;'::>14:74736>29:66983';8;50;'ingurgiter [objet] repas'
e;328044;'::>13:61490>29:130164';8;50;'manger [sujet] femme'
e;328245;'::>13:74860>29:30092';8;50;'combattre [sujet] homme'
e;186438;'manger comme un porc';1;4
e;261605;'manger salement';1;50
e;136266;'braire';1;54
e;251695;'mourir>20601';1;50;'mourir>disparaître'
e;47123;'suivre';1;446
e;238974;'faire le beau>4455';1;50;'faire le beau>chien'
e;152920;'serrer la main';1;96
e;1653509;'fouiller dans les poubelles';1;2
e;1653575;'faire les poubelles';1;2
e;244184;'taper sur le système';1;54
e;320218;'attaquer>104242';1;64;'attaquer>agresser'
e;129264;'creuser';1;1468
e;232736;'faire le beau';1;34
e;95009;'brouter';1;116
e;136807;'s'allonger';1;206
e;115440;'couver';1;148
e;126720;'cesser de vivre';1;70
e;160316;'être malade';1;270
e;313631;'se reproduire>15455';1;26;'se reproduire>procréer'
e;52906;'apparaître';1;202
e;85728;'exister';1;108
e;258953;'être chassé';1;52
e;5714;'sortir';1;516
e;9220953;'mourir de maladie';1;0
e;73135;'naître';1;704
e;8569156;'émettre un bruit';1;0
e;313390;'être sur le dos';1;50
e;24388;'régurgiter';1;110
e;53455;'déféquer';1;134
e;113530;'se carapater';1;56
e;27636;'salir';1;302
e;97571;'consommer';1;154
e;138843;'s'évanouir';1;100
e;204873;'ouvrir la bouche';1;50
e;207988;'se tordre de douleur';1;84
e;59303;'se déplacer';1;590
e;15455;'procréer';1;168
e;139396;'s'assoupir';1;72
e;113071;'saigner';1;328
e;75526;'dépérir';1;86
e;265097;'ne pas être sage';1;50
e;128806;'pourrir';1;118
e;253449;'s'y frotter';1;50
e;9220950;'mourir de vieillesse';1;0
e;43601;'se reproduire';1;478
e;266239;'marquer son territoire';1;50
e;129502;'faire caca';1;136
e;87681;'se reposer';1;1204
e;125556;'remuer';1;396
e;30316;'cacher';1;890
e;17230;'empâter';1;94
e;128209;'jouer';1;3648
e;246391;'::>16:79853>29:105814>13';9;50;'Qui pourrait regarder avec un regard ?'
e;327299;'::>16:79853>29:105814';8;50;'regarder [avec] regard'
e;165452;'::>14:34624>29:87633>13';9;50;'Qui pourrait abattre un chêne ?'
e;124836;'croquer';1;420
e;164016;'::>14:140583>29:23654>13';9;50;'Qui pourrait perdre un parent ?'
e;109883;'arracher';1;290
e;77872;'se disputer';1;98
e;328344;'::>14:34624>29:87633';8;50;'abattre [objet] chêne'
e;328345;'::>14:140583>29:23654';8;50;'perdre [objet] parent'
e;47540;'miauler';1;416
e;33871;'bouger';1;600
e;128535;'japper';1;62
e;126123;'prélasser';1;52
e;54764;'grogner';1;210
e;5051;'gêner';1;132
e;156803;'::>14:8994>29:101484>13';9;50;'Qui pourrait renifler une piste ?'
e;195157;'::>16:20965>29:5070>13';9;50;'Qui pourrait grossir avec une nourriture ?'
e;163361;'::>14:74860>29:47123>13';9;50;'Qui pourrait suivre un homme ?'
e;326697;'::>14:8994>29:101484';8;50;'renifler [objet] piste'
e;328243;'::>14:74860>29:47123';8;50;'suivre [objet] homme'
e;34939;'emmener';1;212
e;19288;'gratter';1;560
e;120839;'entendre';1;588
e;45225;'effrayer';1;234
e;158020;'::>14:55249>29:101484>13';9;50;'Qui pourrait renifler un parfum ?'
e;189863;'::>14:139578>29:47869>13';9;50;'Qui pourrait contracter un muscle ?'
e;327172;'::>14:55249>29:101484';8;50;'renifler [objet] parfum'
e;106307;'dégueuler';1;188
e;31641;'avoir';1;697
e;138923;'râler';1;296
e;138670;'s'énerver';1;156
e;105814;'regarder';1;3456
e;9503;'hésiter';1;204
e;73827;'voler';1;2714
e;162301;'::>14:62735>29:81191>13';9;50;'Qui pourrait lécher une assiette ?'
e;134874;'abîmer';1;174
e;6681658;'manger>113902';1;14;'manger>alimentation'
e;55001;'ronronner';1;352
e;64513;'mordre';1;544
e;159048;'::>14:74860>29:56716>13';9;50;'Qui pourrait approcher un homme ?'
e;327462;'::>14:74860>29:56716';8;50;'approcher [objet] homme'
e;327924;'::>16:20965>29:5070';8;50;'grossir [avec] nourriture'
e;57370;'accaparer';1;60
e;89602;'terrer';1;90
e;160098;'::>14:116477>29:87221>13';9;50;'Qui pourrait griffer une personne ?'
e;90199;'aboyer';1;276
e;327581;'::>14:116477>29:87221';8;50;'griffer [objet] personne'
e;25479;'frémir';1;122
e;45177;'trotter';1;182
e;20264;'faire sa toilette';1;120
e;327432;'::>14:139578>29:47869';8;50;'contracter [objet] muscle'
e;68094;'se débrouiller';1;70
e;24553;'baigner';1;158
e;158858;'::>14:137506>29:14338>13';9;50;'Qui pourrait attaquer quelqu'un ?'
e;162041;'::>14:62706>29:59941>13';9;50;'Qui pourrait suçoter un doigt ?'
e;113801;'ramper';1;200
e;160135;'::>14:77306>29:105814>13';9;50;'Qui pourrait regarder un ciel ?'
e;327414;'::>14:137506>29:14338';8;50;'attaquer [objet] quelqu'un'
e;326757;'::>14:77306>29:105814';8;50;'regarder [objet] ciel'
e;327985;'::>14:62706>29:59941';8;50;'suçoter [objet] doigt'
e;127241;'patauger';1;58
e;17530;'se laver';1;716
e;45999;'éternuer';1;228
e;53872;'frissonner';1;228
e;34629;'fier';1;308
e;7427;'frotter';1;448
e;106682;'digérer';1;304
e;131333;'comprendre';1;398
e;45616;'errer';1;212
e;47869;'contracter';1;118
e;157801;'::>14:74860>29:105814>13';9;50;'Qui pourrait regarder un homme ?'
e;160888;'::>14:87286>29:130164>13';9;50;'Qui pourrait manger un fruit ?'
e;69182;'partir';1;1436
e;161026;'::>14:20965>29:66983>13';9;50;'Qui pourrait ingurgiter une nourriture ?'
e;158245;'::>16:16110>29:41971>13';9;50;'Qui pourrait avaler avec une bouche ?'
e;163401;'::>14:65012>29:47918>13';9;50;'Qui pourrait boire une eau ?'
e;162059;'::>14:145941>29:9445>13';9;50;'Qui pourrait déraciner une plante ?'
e;123255;'se jucher';1;54
e;164279;'::>14:137506>29:84676>13';9;50;'Qui pourrait voir quelqu'un ?'
e;165637;'::>14:130400>29:47869>13';9;50;'Qui pourrait contracter une maladie ?'
e;212516;'::>14:116477>29:45225>13';9;50;'Qui pourrait effrayer une personne ?'
e;143986;'s'étirer';1;74
e;61265;'engraisser';1;362
e;191789;'::>14:12831>29:40241>13';9;50;'Qui pourrait descendre une montagne ?'
e;135887;'mordiller';1;78
e;33082;'crier';1;1420
e;195297;'::>14:140100>29:21149>13';9;50;'Qui pourrait dévorer une viande ?'
e;195078;'::>16:77424>29:105814>13';9;50;'Qui pourrait regarder avec un oeil ?'
e;327079;'::>14:74860>29:105814';8;50;'regarder [objet] homme'
e;327277;'::>16:16110>29:41971';8;50;'avaler [avec] bouche'
e;327820;'::>14:87286>29:130164';8;50;'manger [objet] fruit'
e;327355;'::>14:20965>29:66983';8;50;'ingurgiter [objet] nourriture'
e;327713;'::>14:145941>29:9445';8;50;'déraciner [objet] plante'
e;328024;'::>14:62735>29:81191';8;50;'lécher [objet] assiette'
e;328247;'::>14:65012>29:47918';8;50;'boire [objet] eau'
e;326788;'::>14:137506>29:84676';8;50;'voir [objet] quelqu'un'
e;327959;'::>14:130400>29:47869';8;50;'contracter [objet] maladie'
e;328698;'::>14:12831>29:40241';8;50;'descendre [objet] montagne'
e;328072;'::>16:77424>29:105814';8;50;'regarder [avec] oeil'
e;327073;'::>14:140100>29:21149';8;50;'dévorer [objet] viande'
e;326898;'::>14:116477>29:45225';8;50;'effrayer [objet] personne'
e;165604;'::>14:116477>29:56716>13';9;50;'Qui pourrait approcher une personne ?'
e;59595;'mimer';1;148
e;327060;'::>14:116477>29:56716';8;50;'approcher [objet] personne'
e;329004;'::>14:7928>29:101502';8;50;'tondre [objet] pelouse'
e;223228;'::>14:7928>29:101502>13';9;50;'Qui pourrait tondre une pelouse ?'
e;191869;'::>14:62706>29:81191>13';9;50;'Qui pourrait lécher un doigt ?'
e;328256;'::>14:62706>29:81191';8;50;'lécher [objet] doigt'
e;198824;'donner envie de vomir';1;52
e;394894;'::>14:124771>29:15016>13';9;50;'Qui pourrait interpréter une parole ?'
e;394936;'::>14:124771>29:15016';8;50;'interpréter [objet] parole'
e;136769;'faire mal';1;98
e;115385;'détendre';1;126
e;28838;'apprendre';1;1802
e;259820;'vivre>160251';1;50;'vivre>être en vie'
e;101484;'renifler';1;310
e;107768;'cicatriser';1;92
e;102610;'éviter';1;128
e;125708;'roupiller';1;96
e;32367;'se défendre';1;270
e;115223;'ressentir';1;238
e;47466;'nourrir';1;702
e;158074;'::>14:55077>29:94546>13';9;50;'Qui pourrait barrer un chemin ?'
e;158227;'::>14:74860>29:15562>13';9;50;'Qui pourrait blesser un homme ?'
e;158078;'::>14:17559>29:78823>13';9;50;'Qui pourrait flatter un animal ?'
e;162946;'::>14:74860>29:1633>13';9;50;'Qui pourrait apercevoir un homme ?'
e;161072;'::>14:237>29:105814>13';9;50;'Qui pourrait regarder un objet ?'
e;138261;'bâiller';1;70
e;327191;'::>14:55077>29:94546';8;50;'barrer [objet] chemin'
e;327193;'::>14:17559>29:78823';8;50;'flatter [objet] animal'
e;327268;'::>14:74860>29:15562';8;50;'blesser [objet] homme'
e;327859;'::>14:237>29:105814';8;50;'regarder [objet] objet'
e;327893;'::>14:74860>29:1633';8;50;'apercevoir [objet] homme'
e;161057;'::>14:42001>29:12620>13';9;50;'Qui pourrait adopter un bébé ?'
e;327855;'::>14:42001>29:12620';8;50;'adopter [objet] bébé'
e;47175;'terroriser';1;168
e;329984;'pourrir>16127';1;52;'pourrir>se décomposer'
e;14338;'attaquer';1;518
e;39895;'poursuivre';1;324
e;80010;'saisir';1;376
e;158455;'::>14:17559>29:47466>13';9;50;'Qui pourrait nourrir un animal ?'
e;157229;'::>14:73427>29:101484>13';9;50;'Qui pourrait renifler une odeur ?'
e;68979;'ronger';1;190
e;213370;'::>16:39031>29:47972>13';9;50;'Qui pourrait réfléchir avec un cerveau ?'
e;130782;'bouffer';1;134
e;141484;'entr'apercevoir';1;50
e;326862;'::>14:73427>29:101484';8;50;'renifler [objet] odeur'
e;327329;'::>14:17559>29:47466';8;50;'nourrir [objet] animal'
e;328869;'::>16:39031>29:47972';8;50;'réfléchir [avec] cerveau'
e;41668;'entrapercevoir';1;52
e;47918;'boire';1;4354
e;16964;'marcher';1;2266
e;26193;'sentir';1;1036
e;77822;'venir';1;178
e;127535;'engendrer';1;112
e;87221;'griffer';1;292
e;56105;'mâcher';1;300
e;158996;'::>14:77008>29:54271>13';9;50;'Qui pourrait ouvrir des yeux ?'
e;243742;'::>16:77008>29:84676>13';9;50;'Qui pourrait voir avec des yeux ?'
e;317038;'::>14:77008>29:54271';8;50;'ouvrir [objet] yeux'
e;327776;'::>16:77008>29:84676';8;50;'voir [avec] yeux'
e;165703;'::>14:138874>29:9445>13';9;50;'Qui pourrait déraciner une herbe ?'
e;162651;'::>16:146803>29:4653>13';9;50;'Qui pourrait courir avec des pieds ?'
e;327943;'::>14:138874>29:9445';8;50;'déraciner [objet] herbe'
e;328113;'::>16:146803>29:4653';8;50;'courir [avec] pieds'
e;326706;'::>13:17559>29:21149';8;50;'dévorer [sujet] animal'
e;326817;'::>13:17559>29:14338';8;50;'attaquer [sujet] animal'
e;326833;'::>13:17559>29:2442';8;50;'vivre [sujet] animal'
e;326844;'::>13:17559>29:36548';8;50;'rugir [sujet] animal'
e;327034;'::>13:17559>29:4653';8;50;'courir [sujet] animal'
e;327040;'::>13:17559>29:39895';8;50;'poursuivre [sujet] animal'
e;327295;'::>13:17559>29:101484';8;50;'renifler [sujet] animal'
e;327596;'::>13:17559>29:130164';8;50;'manger [sujet] animal'
e;328008;'::>13:17559>29:80010';8;50;'saisir [sujet] animal'
e;328435;'::>13:17559>29:56105';8;50;'mâcher [sujet] animal'
e;329150;'::>13:17559>29:47918';8;50;'boire [sujet] animal'
e;32550;'respirer';1;1118
e;158593;'::>14:77424>29:54271>13';9;50;'Qui pourrait ouvrir un oeil ?'
e;3403097;'souffrir de cécité';1;0
e;78768;'chasser';1;936
e;327352;'::>14:77424>29:54271';8;50;'ouvrir [objet] oeil'
e;36370;'sursauter';1;114
e;29690;'fuir';1;472
e;115473;'ouïr';1;128
e;164381;'::>14:20965>29:21149>13';9;50;'Qui pourrait dévorer une nourriture ?'
e;327021;'::>14:20965>29:21149';8;50;'dévorer [objet] nourriture'
e;219047;'::>14:87286>29:30146>13';9;50;'Qui pourrait dénoyauter un fruit ?'
e;328950;'::>14:87286>29:30146';8;50;'dénoyauter [objet] fruit'
e;38531;'hurler';1;592
e;12141;'communiquer';1;762
e;212230;'::>16:77008>29:105814>13';9;50;'Qui pourrait regarder avec des yeux ?'
e;86915;'se tapir';1;50
e;328841;'::>16:77008>29:105814';8;50;'regarder [avec] yeux'
e;36548;'rugir';1;312
e;158845;'::>14:122549>29:111795>13';9;50;'Qui pourrait exprimer un sentiment ?'
e;84676;'voir';1;2386
e;27157;'se réveiller';1;292
e;327407;'::>14:122549>29:111795';8;50;'exprimer [objet] sentiment'
e;8749650;'crier pour un animal';1;0
e;165025;'::>14:51528>29:115473>13';9;50;'Qui pourrait ouïr un son ?'
e;91463;'gambader';1;74
e;328477;'::>14:51528>29:115473';8;50;'ouïr [objet] son'
e;157899;'::>16:147184>29:130164>13';9;50;'Qui pourrait manger avec des dents ?'
e;327122;'::>16:147184>29:130164';8;50;'manger [avec] dents'
e;33882;'se nourrir';1;374
e;10270;'hiberner';1;70
e;233198;'boire>86872';1;50;'boire>se désaltérer'
e;195051;'creuser un trou';1;54
e;4653;'courir';1;1996
e;124600;'mourir';1;1776
e;7943;'tuer';1;3914
e;59014;'se cacher';1;496
e;2234;'copuler';1;176
e;2442;'vivre';1;2214
e;130164;'manger';1;9680
e;43253;'dormir';1;6062
e;224422;'manger>113902>119570';1;196;'manger>alimentation>absorber'
e;21149;'dévorer';1;636