
r;11360076;144812;17559;35;1
r;23303009;91274;17559;35;1
r;10712451;142791;17559;35;2
r;2239810;56457;17559;35;5
r;3200815;119973;17559;35;15
r;322607640;48855;17559;35;15
r;96740044;144846;17559;35;22
r;97430870;594657;17559;35;22
r;217931297;580848;17559;35;25
r;283001584;38531;17559;35;25
r;287694752;47073;17559;35;25
r;288418652;3273;17559;35;25
r;321040097;317213;17559;35;25
r;360933775;19720;17559;35;25
r;2229874;86756;17559;35;26
r;3116650;145360;17559;35;27
r;96715473;51520;17559;35;27
r;1871425;41946;17559;35;28
r;207188139;1890180;17559;35;28
r;2197361;42059;17559;35;29
r;91492783;214059;17559;35;29
r;190659823;3176916;17559;35;29
r;91492801;243670;17559;35;30
r;98282239;97236;17559;35;30
r;322604473;77424;17559;35;30
r;2107459;35789;17559;35;31
r;1934823;94958;17559;35;32
r;83363800;111185;17559;35;32
r;85931442;3352863;17559;35;32
r;97430833;75577;17559;35;32
r;1590722;57444;17559;35;35
r;1705637;54862;17559;35;35
r;3060007;28466;17559;35;35
r;9062538;145295;17559;35;35
r;75175371;2362967;17559;35;35
r;82266327;10506;17559;35;35
r;82805888;41022;17559;35;35
r;271881298;219363;17559;35;35
r;288860846;141796;17559;35;35
r;29437911;1796765;17559;35;37
r;13721814;233138;17559;35;40
r;25523962;936;17559;35;40
r;30351645;1873811;17559;35;40
r;30753032;1909315;17559;35;40
r;91495467;599613;17559;35;40
r;91498440;42001;17559;35;40
r;24733701;19017;17559;35;41
r;87257186;64385;17559;35;42
r;24815854;144792;17559;35;43
r;28977039;241993;17559;35;44
r;2487958;36548;17559;35;45
r;8898102;13035;17559;35;45
r;8850128;17974;17559;35;45
r;9059772;45269;17559;35;45
r;9292559;45320;17559;35;45
r;12074687;256988;17559;35;45
r;24793861;130540;17559;35;45
r;30391585;81106;17559;35;45
r;91492380;213675;17559;35;45
r;23159203;60259;17559;35;46
r;25184649;99645;17559;35;46
r;69646413;415811;17559;35;46
r;8915403;4407;17559;35;49
r;24980832;15295;17559;35;49
r;23155421;26806;17559;35;50
r;8819401;168216;17559;35;51
r;9065220;74036;17559;35;51
r;9195341;7643;17559;35;51
r;9334083;74846;17559;35;51
r;13018173;32459;17559;35;51
r;24516565;87551;17559;35;51
r;91492904;269365;17559;35;51
r;425956;82231;17559;35;52
r;2214320;13369;17559;35;52
r;25028095;86071;17559;35;52
r;2494575;35954;17559;35;53
r;3148211;37093;17559;35;54
r;2508905;84441;17559;35;55
r;3067340;106042;17559;35;55
r;8915241;49777;17559;35;55
r;9000869;54764;17559;35;55
r;9046555;187108;17559;35;55
r;24982405;98283;17559;35;55
r;95518097;2523693;17559;35;55
r;125507497;2382370;17559;35;55
r;1575906;13292;17559;35;56
r;23212365;125918;17559;35;56
r;1554799;92847;17559;35;57
r;1910466;46333;17559;35;57
r;3218680;43485;17559;35;58
r;91491519;601264;17559;35;58
r;1574384;39543;17559;35;59
r;236377;29207;17559;35;60
r;3069558;86559;17559;35;60
r;13010370;37194;17559;35;61
r;25120585;38713;17559;35;62
r;11647135;329523;17559;35;65
r;12129274;71221;17559;35;65
r;288847100;240855;17559;35;65
r;318326476;225934;17559;35;65
r;28843034;67093;17559;35;69
r;1586360;79073;17559;35;70
r;1690841;150;17559;35;75
r;2037113;19003;17559;35;80
r;13087173;47417;17559;35;85
r;22304098;71864;17559;35;85
r;31683903;71135;17559;35;85
r;108015203;43593;17559;35;85
r;2489548;117584;17559;35;90
r;1588107;648;17559;35;95
r;8853147;77118;17559;35;100
r;24698410;52943;17559;35;100
r;23159953;130898;17559;35;101
r;91493052;10078;17559;35;104
r;24366015;103028;17559;35;105
r;1625837;91311;17559;35;110
r;30554549;24743;17559;35;110
r;23004042;74804;17559;35;115
r;243394;116300;17559;35;120
r;391519;39101;17559;35;120
r;2499129;104275;17559;35;125
r;210661909;8999;17559;35;125
r;27716470;7705;17559;35;131
r;13713880;93872;17559;35;135
r;77533660;115106;17559;35;145
r;252757;97744;17559;35;150
r;23213814;146217;17559;35;150
r;72193065;143522;17559;35;151
r;1579336;18128;17559;35;160
r;3163113;29899;17559;35;165
r;14421323;92297;17559;35;165
r;13705205;13425;17559;35;175
r;11528000;55433;17559;35;180
r;94078972;84965;17559;35;185
r;1630038;31424;17559;35;190
r;1567384;142138;17559;35;200
r;19285677;98919;17559;35;205
r;3123706;23022;17559;35;210
r;1558313;13283;17559;35;218
r;1643617;8319;17559;35;220
r;1986622;128646;17559;35;224
r;11526567;105872;17559;35;225
r;11662512;145246;17559;35;260
r;1573418;138501;17559;35;280
r;11664786;71926;17559;35;280
r;12052273;116032;17559;35;285
r;25107905;145987;17559;35;291
r;84195895;122809;17559;35;320
r;401183;17206;17559;35;330
r;1758025;20164;17559;35;340
r;11811401;140176;17559;35;355
r;1566263;68467;17559;35;420
r;1582566;4455;17559;35;430
r;274554;1125;17559;35;1530