
r;97412917;80780;17559;99;32
r;97412922;2387081;17559;99;34
r;97412924;4312496;17559;99;34
r;97412919;107483;17559;99;35
r;97412920;10221;17559;99;35
r;97412921;2387199;17559;99;35
r;97412923;67563;17559;99;35
r;97412913;107165;17559;99;36
r;97412914;160293;17559;99;36
r;97412916;2456999;17559;99;37
r;97412915;5814;17559;99;38
r;97412918;35323;17559;99;43