
r;96709843;17559;226083;7;16
r;96709844;17559;331060;7;16
r;85325555;17559;133212;7;26
r;85325554;17559;144718;7;37
r;66974;17559;49293;7;51
r;74349;17559;11994;7;52
r;74348;17559;121157;7;58
r;74351;17559;3464;7;59
r;66976;17559;86490;7;60
r;66978;17559;136507;7;60