
r;136024;17559;71624;10;-170
r;241227;17559;13369;10;-120
r;248147;17559;83764;10;-109
r;151601;17559;17023;10;-80
r;224051;17559;4455;10;-67
r;193692984;17559;118908;10;-60
r;15780563;17559;219363;10;-5
r;15780876;17559;234574;10;-5
r;9982137;17559;143607;10;4
r;9983121;17559;90832;10;4
r;9982623;17559;96256;10;4
r;9979502;17559;146632;10;4
r;9998133;17559;213826;10;4
r;11007220;17559;312783;10;17
r;11026267;17559;266711;10;17
r;11026485;17559;263650;10;17
r;11026738;17559;267630;10;17
r;11028557;17559;37411;10;17
r;98655847;17559;29786;10;26
r;98655859;17559;156964;10;28
r;9994852;17559;38788;10;29
r;96709934;17559;217050;10;30
r;96709928;17559;214526;10;31
r;98655850;17559;83208;10;35
r;217803;17559;22243;10;52
r;222019;17559;22758;10;52
r;151598;17559;146331;10;53
r;137299;17559;20713;10;54
r;137300;17559;139892;10;54
r;151602;17559;5814;10;55
r;254358;17559;120157;10;55
r;222018;17559;25705;10;56
r;254359;17559;142563;10;60
r;217802;17559;36886;10;153
r;116574;17559;52611;10;162