
r;8800932;29786;17559;28;-5
r;72682395;93131;17559;28;2
r;104941213;120842;17559;28;3
r;104935629;137550;17559;28;3
r;104935624;4892827;17559;28;3
r;104937905;229403;17559;28;3
r;104941750;136786;17559;28;3
r;104941713;145636;17559;28;3
r;104941711;253178;17559;28;3
r;104941710;9664;17559;28;3
r;104941709;77306;17559;28;3
r;104941708;236221;17559;28;3
r;104941707;261384;17559;28;3
r;104941212;5955;17559;28;4
r;104942040;79444;17559;28;4
r;104937032;139575;17559;28;4
r;104941712;204377;17559;28;4
r;104941706;262485;17559;28;4
r;104941704;217050;17559;28;4
r;2298772;84344;17559;28;5
r;97324423;50306;17559;28;15
r;285998061;67170;17559;28;15
r;15781271;270438;17559;28;26
r;76965249;206087;17559;28;27
r;96662899;2077;17559;28;27
r;195391162;135190;17559;28;28
r;15781272;232540;17559;28;29
r;15780415;2422;17559;28;30
r;98303561;54620;17559;28;30
r;195391165;157283;17559;28;30
r;285618970;249129;17559;28;30
r;29058425;135737;17559;28;31
r;11344805;97335;17559;28;38
r;11345151;52255;17559;28;38
r;72527405;79239;17559;28;38
r;11344804;45179;17559;28;39
r;11344944;83208;17559;28;39
r;11315748;135704;17559;28;40
r;11315792;18412;17559;28;40
r;98287145;17936;17559;28;40
r;77775776;3227056;17559;28;43
r;13710301;30371;17559;28;51
r;25008905;61280;17559;28;51
r;25450002;90516;17559;28;51
r;76490714;21520;17559;28;51
r;13702901;113093;17559;28;52
r;1942863;240367;17559;28;54
r;3064285;233824;17559;28;54
r;2223719;10835;17559;28;59
r;13096804;228841;17559;28;59
r;26262563;158725;17559;28;59
r;26262603;164963;17559;28;59
r;26262797;163503;17559;28;59
r;27873133;254100;17559;28;60
r;71662764;2924747;17559;28;60
r;26238971;36026;17559;28;61
r;63294999;243185;17559;28;61
r;408446;133172;17559;28;79
r;1692265;55077;17559;28;79
r;13700451;80589;17559;28;81
r;2442980;17023;17559;28;83
r;259540;25705;17559;28;86
r;1916621;4920;17559;28;88
r;207687;121889;17559;28;89
r;241110;12831;17559;28;90
r;2211734;28716;17559;28;90
r;203178;40355;17559;28;99
r;209557;142563;17559;28;109
r;80654594;5814;17559;28;115
r;2181792;52611;17559;28;118
r;171118;139892;17559;28;119
r;262495;96256;17559;28;121
r;207704;143607;17559;28;138
r;167410;3685;17559;28;139
r;405864;146632;17559;28;139
r;1909027;26265;17559;28;149
r;217755256;9115210;17559;28;161
r;11315747;15210;17559;28;165
r;1833015;152404;17559;28;259