e;17559;'animal';1;13357
e;1125;'loup';1;1152
e;164259;'rat musqué';1;80
e;73893;'singe';1;864
e;168260;'lièvre sauteur';1;50
e;63309;'rat';1;1362
e;135474;'pélican';1;62
e;105872;'éléphant';1;842
e;145246;'cheval';1;3202
e;31864;'kiwi';1;232
e;54001;'ondatra';1;50
e;145816;'cochon d'Inde';1;86
e;4455;'chien';1;5302
e;48500;'boa';1;356
e;1643;'chien de prairie';1;50
e;74657;'pigeon';1;712
e;32193;'orang-outan';1;76
e;86756;'lion';1;2816
e;214059;'chien>17559';1;522;'chien>animal'
e;110750;'crocodile';1;276
e;153546;'argiope frelon';1;50
e;168221;'cabiaï';1;50
e;137333;'tigre';1;1420
e;215888;'boa>91153';1;58;'boa>serpent'
e;90869;'orang-outang';1;54
e;179837;'watusi';1;50
e;20164;'lapin';1;1192
e;433;'guanaco';1;54
e;15208;'corbeau';1;234
e;118434;'tamia';1;50
e;57455;'gerboise';1;76
e;150;'chat';1;5110
e;314137;'buf>17559';1;50;'buf>animal'
e;217945;'furet>17559';1;2;'furet>animal'
e;238066;'siffler>17559';1;50;'siffler>animal'
e;218873;'monture>17559';1;4;'monture>animal'
e;331247;'mise en fourrière>17559';1;50;'mise en fourrière>animal'
e;242608;'renard>63235';1;14;'renard>mammifère'
e;213400;'blaireau>17559';1;2;'blaireau>animal'
e;215718;'charognard>17559';1;10;'charognard>animal'
e;217435;'cobaye>17559';1;10;'cobaye>animal'
e;217407;'morse>17559';1;10;'morse>animal'
e;218474;'polype>17559';1;10;'polype>animal'
e;228148;'mule>17559';1;50;'mule>animal'
e;243979;'bongo>17559';1;50;'bongo>animal'
e;245253;'hermine>17559';1;2;'hermine>animal'
e;245977;'tête de cochon>17559';1;50;'tête de cochon>animal'
e;261486;'vison>17559';1;4;'vison>animal'
e;269365;'civette>17559';1;50;'civette>animal'
e;318500;'grogner>17559';1;8;'grogner>animal'
e;320826;'bâtard>17559';1;50;'bâtard>animal'
e;321243;'avorton>17559';1;50;'avorton>animal'
e;329564;'tenir en laisse>17559';1;58;'tenir en laisse>animal'
e;394791;'tête>390963>17559';1;50;'tête>extrémité supérieure du corps>animal'
e;436355;'putois>17559';1;50;'putois>animal'
e;1469649;'volatile>17559';1;0;'volatile>animal'
e;1763390;'gros porc>17559';1;0;'gros porc>animal'
e;1322435;'grimpeur>17559';1;0;'grimpeur>animal'
e;1796767;'capricieux>91664>17559';1;0;'capricieux>caractère>animal'
e;320486;'dresser>17559';1;52;'dresser>animal'
e;1876502;'être dressé>17559';1;0;'être dressé>animal'
e;1881073;'vagir>17559';1;0;'vagir>animal'
e;1909323;'plonger>1909314>17559';1;0;'plonger>aller sous l'eau>animal'
e;216165;'taupe>17559';1;60;'taupe>animal'
e;222409;'chienne>17559';1;20;'chienne>animal'
e;233738;'bélier>17559';1;62;'bélier>animal'
e;214021;'agneau>17559';1;58;'agneau>animal'
e;261246;'rugir>17559';1;54;'rugir>animal'
e;266168;'gazelle>17559';1;8;'gazelle>animal'
e;267782;'méduse>17559';1;52;'méduse>animal'
e;241856;'lièvre>17559';1;76;'lièvre>animal'
e;315809;'oursin>17559';1;2;'oursin>animal'
e;317276;'rampant>17559';1;50;'rampant>animal'
e;261305;'garrot>17559';1;52;'garrot>animal'
e;332223;'mangouste>17559';1;50;'mangouste>animal'
e;247024;'félin>17559';1;50;'félin>animal'
e;217190;'bouc>17559';1;22;'bouc>animal'
e;213458;'chèvre>17559';1;32;'chèvre>animal'
e;214837;'veau>17559';1;22;'veau>animal'
e;214848;'cochon>17559';1;76;'cochon>animal'
e;214304;'vache>17559';1;188;'vache>animal'
e;214853;'porc>17559';1;52;'porc>animal'
e;246119;'castor>17559';1;50;'castor>animal'
e;213809;'lapin>17559';1;92;'lapin>animal'
e;215036;'boeuf>17559';1;38;'boeuf>animal'
e;261663;'daim>17559';1;52;'daim>animal'
e;251764;'insecte>17559';1;232;'insecte>animal'
e;213675;'ours>17559';1;84;'ours>animal'
e;218940;'poisson>17559';1;564;'poisson>animal'
e;217452;'élan>17559';1;2;'élan>animal'
e;215049;'paresseux>17559';1;52;'paresseux>animal'
e;217937;'biche>17559';1;54;'biche>animal'
e;219597;'museau>17559';1;8;'museau>animal'
e;233278;'collier>17559';1;50;'collier>animal'
e;240175;'cabri>17559';1;50;'cabri>animal'
e;246173;'bébé>10935583';1;18;'bébé>jeune animal'
e;265229;'tapir>17559';1;54;'tapir>animal'
e;265198;'bovin>17559';1;8;'bovin>animal'
e;213873;'mollusque>17559';1;108;'mollusque>animal'
e;317284;'omnivore>17559';1;50;'omnivore>animal'
e;320113;'grrr>17559';1;50;'grrr>animal'
e;220337;'oiseau>17559';1;674;'oiseau>animal'
e;213538;'lama>17559';1;52;'lama>animal'
e;248370;'girafe>17559';1;12;'girafe>animal'
e;216643;'cheval>17559';1;248;'cheval>animal'
e;215800;'bête>17559';1;82;'bête>animal'
e;261769;'lionne>116032';1;10;'lionne>félin'
e;38599;'lionne';1;542
e;135021;'viscache';1;50
e;168301;'siciste';1;50
e;102408;'ragondin';1;100
e;168233;'coruro';1;50
e;91153;'serpent';1;1354
e;142195;'python';1;142
e;59781;'dromadaire';1;138
e;168216;'buf';1;8
e;249660;'alpaga>17559';1;50;'alpaga>animal'
e;150581;'spermophile';1;50
e;168238;'écureuil antilope';1;50
e;180416;'dègue du Chili';1;50
e;168222;'castor de montagne';1;50
e;146217;'castor';1;332
e;89801;'poney';1;220
e;56469;'manchot';1;160
e;35428;'flamant';1;56
e;106378;'éland';1;50
e;91274;'dauphin';1;312
e;117146;'coq';1;1062
e;240504;'autruche>140176';1;18;'autruche>oiseau'
e;168323;'tuco-tuco';1;50
e;114472;'pétauriste';1;50
e;168278;'octodon';1;50
e;24652;'loir';1;120
e;99645;'cobaye';1;148
e;168229;'chozchoz';1;50
e;95857;'perruche';1;118
e;113583;'panthère';1;894
e;51048;'panda';1;116
e;88746;'otarie';1;94
e;22842;'hyène';1;120
e;95145;'guépard';1;316
e;34410;'gorille';1;330
e;108643;'émeu';1;76
e;153078;'cochon d'inde';1;136
e;93025;'lérot';1;56
e;54823;'goundi';1;50
e;33611;'gerbille';1;94
e;38107;'gaufre';1;80
e;168235;'dègue';1;50
e;4351;'capybara';1;50
e;81372;'anomalure';1;50
e;137390;'zèbre';1;212
e;33665;'yak';1;50
e;138501;'vache';1;2234
e;37194;'poule';1;1772
e;136492;'nandou';1;76
e;7769;'canard';1;1310
e;48795;'âne';1;788
e;136624;'alligator';1;90
e;269430;'python>91153';1;54;'python>serpent'
e;106765;'paca';1;50
e;58741;'marmotte';1;108
e;49644;'lérotin';1;50
e;88013;'écureuil';1;396
e;129181;'campagnol';1;186
e;47615;'aulacode';1;50
e;168201;'alactaga';1;50
e;40428;'agouti';1;50
e;8319;'renard';1;624
e;71877;'porc-épic';1;70
e;124186;'marabout';1;80
e;101432;'cigogne';1;100
e;15295;'alpaga';1;60
e;1773612;'porc épic';1;0
e;257506;'coq>140176';1;80;'coq>oiseau'
e;168327;'zapode';1;50
e;40368;'mulot';1;274
e;57512;'sanglier';1;302
e;142384;'rhinocéros';1;108
e;17929;'puma';1;264
e;77118;'lama';1;72
e;55433;'girafe';1;268
e;93872;'chèvre';1;674
e;143540;'bison';1;82
e;85263;'babouin';1;64
e;29674;'cabiai';1;50
e;23315;'yack';1;50
e;243670;'éléphant>17559';1;22;'éléphant>animal'
e;14759;'suisse';1;118
e;168311;'souslik';1;50
e;69280;'hamster';1;456
e;127070;'chinchilla';1;68
e;50778;'wallaby';1;52
e;84412;'perroquet';1;330
e;84965;'kangourou';1;110
e;98919;'jaguar';1;232
e;104855;'hippopotame';1;148
e;109161;'ara';1;86
e;57553;'antilope';1;162
e;36523;'kakatoès';1;52
e;168293;'rat taupe';1;2
e;168294;'rat à crinière';1;50
e;48823;'pacarana';1;50
e;38336;'mara';1;50
e;51084;'lemming';1;52
e;72426;'vautour';1;136
e;142832;'souris';1;2154
e;117040;'serin';1;116
e;17206;'ours';1;904
e;79073;'oie';1;704
e;92847;'cochon';1;872
e;22714;'chimpanzé';1;170
e;99452;'cacatoès';1;58
e;233355;'serpent>99719';1;80;'serpent>reptile'
e;11846;'polatouche';1;50
e;168255;'jutia';1;50
e;168200;'acouchi';1;50
e;65061;'zébu';1;84
e;120733;'tourterelle';1;122
e;145295;'mouton';1;1554
e;32714;'léopard';1;338
e;131077;'gnou';1;70
e;145790;'colombe';1;244
e;45320;'chameau';1;248
e;72813;'cerf';1;166
e;94164;'buffle';1;72
e;144172;'aigle';1;540
e;1133475;'hippo';1;0
e;168253;'hutia';1;50
e;168245;'gauphre';1;50
e;117985;'renne';1;56
e;68038;'macaque';1;68
e;145987;'furet';1;102
e;168328;'zokor';1;50
e;81105;'écureuil volant';1;80
e;54835;'zyzomys';1;50
e;24758;'autruche';1;202
e;152385;'Boucherie';1;78
e;152397;'Elevage';1;84
e;152212;'Chimie';1;156
e;35798;'vin';1;4083
e;49615;'commerce';1;2844
e;18412;'élevage';1;830
e;151850;'Anatomie';1;292
e;76247;'vétérinaire';1;554
e;71539;'animaux';1;1382
e;104460;'chevaux';1;264
e;214275;'cuisine>143757';1;1678;'cuisine>art culinaire'
e;35143;'biologie';1;1810
e;117095;'zoologie';1;1544
e;83824;'équitation';1;454
e;152578;'Vétérinaire';1;198
e;140949;'équidés';1;60
e;152552;'Cuisine';1;156
e;112609;'anatomie';1;2738
e;73685;'sports';1;492
e;46728;'chimie';1;2552
e;151907;'Biologie';1;306
e;246797;'biologie>246796';1;76;'biologie>étude du vivant'
e;64437;'boucherie';1;974
e;60361;'loisirs';1;310
e;43729;'médecine vétérinaire';1;64
e;2554001;'chymie';1;0
e;16033;'cuisine';1;10678
e;73890;'religion';1;4197
e;56865;'sport';1;4584
e;152125;'Zoologie';1;208
e;28805;'oenologie';1;118