
r;3564994;104789;66699;777;6
r;3564995;104789;183629;777;6
r;3564996;104789;96032;777;6
r;3564997;104789;3394;777;6
r;3564998;104789;44929;777;6
r;3564999;104789;13001;777;6
r;3565000;104789;40056;777;6
r;3565001;104789;145395;777;6
r;3565002;104789;145159;777;6
r;3565003;104789;86711;777;6
r;6174574;104789;188210;777;8
r;6174579;104789;58301;777;8
r;6174580;104789;160357;777;8
r;6174583;104789;78606;777;8
r;6174586;104789;230216;777;8
r;6174589;104789;170754;777;8
r;6174592;104789;134690;777;8
r;6174595;104789;123012;777;8
r;6174598;104789;271141;777;8
r;6174603;104789;125876;777;8
r;6174604;104789;54046;777;8
r;6174607;104789;226931;777;8
r;6174610;104789;83256;777;8
r;6174613;104789;224086;777;8
r;6174616;104789;167066;777;8
r;7574974;104789;152208;777;8
r;7574978;104789;123696;777;8
r;7574979;104789;61281;777;8
r;7574982;104789;145951;777;8
r;7574984;104789;65942;777;8
r;7574986;104789;87987;777;8
r;7574988;104789;139011;777;8
r;7574990;104789;225274;777;8
r;7574991;104789;224968;777;8
r;7574994;104789;23803;777;8
r;7574996;104789;164656;777;8
r;7574997;104789;93416;777;8
r;7575000;104789;271783;777;8
r;7575001;104789;83919;777;8
r;7575004;104789;146832;777;8
r;7575007;104789;302691;777;8
r;7575009;104789;43409;777;8
r;7575011;104789;291396;777;8
r;7575013;104789;79250;777;8
r;7575015;104789;31388;777;8
r;7575017;104789;143431;777;8
r;7575019;104789;131451;777;8
r;7575021;104789;145417;777;8
r;7575023;104789;83522;777;8
r;7575025;104789;95709;777;8
r;7575027;104789;286719;777;8
r;7575029;104789;198070;777;8
r;7575031;104789;196384;777;8
r;7575035;104789;18409;777;8
r;7575039;104789;129044;777;8
r;7575048;104789;136766;777;8
r;7575051;104789;105028;777;8
r;7575053;104789;153644;777;8
r;7575055;104789;142143;777;8
r;7575057;104789;48042;777;8
r;7575062;104789;36511;777;8
r;7575069;104789;188343;777;8
r;7575073;104789;35139;777;8
r;7575075;104789;118333;777;8
r;7575078;104789;48782;777;8
r;7575080;104789;85139;777;8
r;7575082;104789;164961;777;8
r;7575084;104789;189082;777;8
r;7575094;104789;32229;777;8
r;7575106;104789;51542;777;8
r;7575109;104789;28406;777;8
r;7575111;104789;123884;777;8
r;7575118;104789;27940;777;8
r;7575121;104789;187498;777;8
r;7575130;104789;265578;777;8
r;7575137;104789;113651;777;8
r;7575143;104789;212719;777;8
r;7575151;104789;236438;777;8
r;7575155;104789;187499;777;8
r;7575158;104789;163159;777;8
r;7575160;104789;187506;777;8
r;7575164;104789;163235;777;8
r;7575166;104789;136774;777;8
r;16965548;104789;254809;777;8
r;16965546;104789;402129;777;8
r;16965541;104789;142939;777;8
r;16965540;104789;292126;777;8
r;16965537;104789;75884;777;8
r;16965534;104789;153106;777;8
r;16965532;104789;22478;777;8
r;16965529;104789;85736;777;8
r;16965527;104789;52815;777;8
r;16965524;104789;431261;777;8
r;16965522;104789;124373;777;8
r;16965520;104789;154884;777;8
r;16965515;104789;111204;777;8
r;16965514;104789;145192;777;8
r;16965509;104789;152333;777;8
r;16965508;104789;397687;777;8
r;16965504;104789;133107;777;8
r;16965502;104789;43310;777;8
r;16965500;104789;118975;777;8
r;16965498;104789;206296;777;8
r;16965492;104789;37765;777;8
r;16965491;104789;402492;777;8
r;16965488;104789;88368;777;8
r;16965487;104789;423646;777;8
r;16965484;104789;9124;777;8
r;16965482;104789;19044;777;8
r;16965479;104789;166334;777;8
r;16965475;104789;78725;777;8
r;16965474;104789;397604;777;8
r;19221534;104789;401321;777;8
r;19221535;104789;404746;777;8
r;19221536;104789;413261;777;8
r;19221537;104789;309328;777;8
r;19221538;104789;222483;777;8
r;19221539;104789;2697;777;8
r;19221540;104789;46228;777;8
r;19221541;104789;414019;777;8
r;19221542;104789;406088;777;8
r;19221543;104789;426411;777;8
r;19221544;104789;142659;777;8
r;21497671;104789;301364;777;8
r;21497673;104789;107811;777;8
r;25353002;104789;318958;777;8
r;25353005;104789;398959;777;8
r;33234623;104789;2156846;777;9
r;33234625;104789;425265;777;9
r;33234626;104789;407431;777;9
r;33234629;104789;152293;777;9
r;33234630;104789;8924;777;9
r;33234633;104789;2011056;777;9
r;33234635;104789;2226655;777;9
r;33234637;104789;2151769;777;9
r;33234642;104789;411204;777;9
r;34104570;104789;2286862;777;9
r;84274463;104789;3316878;777;9
r;98297355;104789;3731085;777;9
r;113703320;104789;3303689;777;9
r;113703321;104789;2383506;777;9
r;113703322;104789;65586;777;9
r;113703323;104789;2469257;777;9
r;113703324;104789;5742;777;9
r;113703326;104789;15704;777;9
r;113703327;104789;413079;777;9
r;113703328;104789;3161436;777;9
r;113703329;104789;15386;777;9
r;113703330;104789;694578;777;9
r;113703331;104789;133449;777;9
r;113703332;104789;407371;777;9
r;113703334;104789;2458010;777;9
r;113703337;104789;437131;777;9
r;113703339;104789;251789;777;9
r;113703341;104789;56302;777;9
r;113703342;104789;173235;777;9
r;113703343;104789;38557;777;9
r;113703344;104789;36344;777;9
r;113703345;104789;182173;777;9
r;113703346;104789;2375393;777;9
r;113703347;104789;72619;777;9
r;113703348;104789;10487;777;9
r;113703349;104789;302545;777;9
r;113703350;104789;115748;777;9
r;114775386;104789;5853063;777;9
r;116158278;104789;402223;777;9
r;116158281;104789;5945240;777;9
r;116158283;104789;153749;777;9
r;116158284;104789;133857;777;9
r;119212728;104789;5386798;777;9
r;119212729;104789;84242;777;9
r;119212730;104789;57008;777;9
r;119212731;104789;205085;777;9
r;119212732;104789;397441;777;9
r;119212733;104789;104138;777;9
r;119212734;104789;5933752;777;9
r;119212735;104789;3824754;777;9
r;119212736;104789;4890758;777;9
r;119212737;104789;5689166;777;9
r;119212738;104789;5688540;777;9
r;119367906;104789;6083318;777;9
r;119367907;104789;5965593;777;9
r;119367908;104789;6087831;777;9
r;219011527;104789;6100456;777;10
r;219011526;104789;6082743;777;10
r;219011525;104789;6088090;777;10
r;219011524;104789;6087297;777;10
r;195739216;104789;6260735;777;10
r;195739217;104789;6100696;777;10
r;254345469;104789;10346363;777;10
r;266749912;104789;10187879;777;10
r;273423016;104789;10869262;777;10
r;281028644;104789;65276;777;10
r;281028645;104789;319418;777;10
r;281028646;104789;38028;777;10
r;281028647;104789;121135;777;10
r;281028648;104789;330879;777;10
r;281028649;104789;5901092;777;10
r;281028650;104789;88274;777;10
r;281028651;104789;111807;777;10
r;287241457;104789;11182050;777;10
r;289432767;104789;256013;777;10
r;304034117;104789;83689;777;10
r;307378398;104789;5842066;777;10
r;307378399;104789;11756097;777;10
r;333815959;104789;285728;777;10
r;333815958;104789;9464428;777;10