
r;1761028;73126;104789;666;1
r;1894588;59058;104789;666;1
r;2034258;62225;104789;666;1
r;3212076;270874;104789;666;1
r;3235668;187506;104789;666;1
r;4965015;87286;104789;666;1
r;72786492;24814;104789;666;1
r;1765335;33744;104789;666;2
r;1887305;47232;104789;666;2
r;1524942;94190;104789;666;4
r;6208037;265578;104789;666;6