
r;3113570;165600;104789;13;5
r;15025265;33744;104789;13;13
r;97429062;439632;104789;13;15
r;14909177;68486;104789;13;17
r;14927682;43253;104789;13;17
r;14945170;259820;104789;13;17
r;14968693;251694;104789;13;17
r;15025122;131240;104789;13;18
r;1887845;127257;104789;13;30
r;1894592;59058;104789;13;30
r;1928314;200375;104789;13;30
r;9370203;257034;104789;13;30
r;11585152;328577;104789;13;30
r;14909711;64325;104789;13;30
r;14909715;103081;104789;13;30
r;14988371;124600;104789;13;30
r;14994113;2442;104789;13;30
r;15003568;43601;104789;13;30
r;15025121;225943;104789;13;30
r;15025266;97162;104789;13;30
r;15534986;185352;104789;13;30
r;18112563;141270;104789;13;30
r;97746401;33082;104789;13;30
r;97746658;329984;104789;13;30
r;97746659;128806;104789;13;30
r;98295013;130164;104789;13;30
r;98295015;4148;104789;13;30
r;98295016;36906;104789;13;30
r;98295017;42404;104789;13;30
r;98295018;50630;104789;13;30
r;98295019;156736;104789;13;30
r;98295020;198803;104789;13;30
r;98295021;14338;104789;13;30
r;98295022;104624;104789;13;30
r;98295163;69550;104789;13;30
r;232521491;6681658;104789;13;30
r;347731224;105814;104789;13;30
r;15025264;140318;104789;13;31
r;98295014;224422;104789;13;35
r;207169588;113424;104789;13;45
r;268237;133720;104789;13;51
r;3062467;117291;104789;13;51
r;13053047;76431;104789;13;51
r;18440913;69137;104789;13;51
r;2034154;160215;104789;13;56
r;11567822;327675;104789;13;56
r;431175;162686;104789;13;57
r;11576354;328119;104789;13;57
r;2212720;215604;104789;13;59
r;150993;76973;104789;13;60
r;239793;157507;104789;13;60
r;1374152;163779;104789;13;60
r;11554465;326957;104789;13;60
r;11580016;327753;104789;13;60
r;9152266;3911;104789;13;61
r;11590961;328918;104789;13;61
r;12118295;163767;104789;13;61
r;12142540;328308;104789;13;61
r;13993921;394894;104789;13;61
r;13994088;394936;104789;13;61
r;411461;163527;104789;13;70
r;11579175;328267;104789;13;70
r;12994546;157809;104789;13;71
r;13014982;327085;104789;13;71
r;11596867;329235;104789;13;100
r;236534;48623;104789;13;107
r;243805;46072;104789;13;110
r;1887307;47232;104789;13;177