e;104789;'avocat';1;1894
e;96154;'plaideur';1;52
e;9374;'greffier';1;138
e;74860;'homme';1;28264
e;153329;'avocat commis d'office';1;62
e;19670;'avoué';1;68
e;248444;'avocat stagiaire';1;6
e;157436;'avocat véreux';1;58
e;156002;'étudiant en droit';1;58
e;104408;'avocaillon';1;62
e;221156;'petit avocat';1;62
e;140856;'juge';1;1798