e;104789;'avocat';1;1894
e;66699;'juriste';1;96
e;183629;'personne physique';1;28
e;96032;'personne morale';1;84
e;3394;'représenter';1;196
e;44929;'avocatier';1;64
e;13001;'Mexique';1;294
e;40056;'couleur';1;4484
e;145395;'Vert';1;50
e;145159;'Jaune';1;50
e;86711;'jaune';1;2584
e;188210;'Charles Aznavour';1;56
e;58301;'Juifs';1;56
e;160357;'juive';1;130
e;78606;'Albert Cohen';1;56
e;230216;'Philip Roth';1;24
e;170754;'Sigmund Freud';1;12
e;134690;'yiddish';1;54
e;123012;'Marcel Proust';1;88
e;271141;'Marthe Villalonga';1;50
e;125876;'Pieds-Noirs';1;50
e;54046;'pied-noir';1;58
e;226931;'Guy Bedos';1;58
e;83256;'DVD';1;80
e;224086;'Kyle';1;50
e;167066;'South Park';1;50
e;152208;'Droit';1;94
e;123696;'Rome antique';1;216
e;61281;'Rome';1;1146
e;145951;'Solon';1;50
e;65942;'logographe';1;50
e;87987;'France';1;2588
e;139011;'Charlemagne';1;100
e;225274;'Royaume de France';1;4
e;224968;'royaume de France';1;64
e;23803;'ordonnance';1;460
e;164656;'Octobre';1;222
e;93416;'octobre';1;2384
e;271783;'Philippe VI de France';666;50
e;83919;'Philippe de Valois';1;50
e;146832;'Ordre des avocats';1;50
e;302691;'aide juridictionnelle';777;50
e;43409;'Canada';1;444
e;291396;'droit romano-civiliste';777;50
e;79250;'secret professionnel';1;60
e;31388;'États-Unis';1;560
e;143431;'Suisse';1;288
e;131451;'brevet';1;214
e;145417;'canton';1;296
e;83522;'Belgique';1;476
e;95709;'licencié';1;90
e;286719;'Cour constitutionnelle';777;50
e;198070;'Cour de cassation';1;52
e;196384;'auxiliaire de justice';1;50
e;18409;'CAPA';1;50
e;129044;'Roumanie';1;72
e;136766;'Royaume-Uni';1;284
e;105028;'Angleterre';1;1060
e;153644;'Pays de Galles';1;50
e;142143;'Écosse';1;74
e;48042;'Haute Cour de justice';1;52
e;36511;'Vincent Auriol';1;50
e;188343;'Aristide Briand';1;50
e;35139;'Georges Jacques Danton';1;60
e;118333;'Camille Desmoulins';1;50
e;48782;'Gaston Doumergue';1;50
e;85139;'Edgar Faure';1;50
e;164961;'Jules Ferry';1;88
e;189082;'Émile Loubet';1;50
e;32229;'Alexandre Millerand';1;50
e;51542;'Maximilien de Robespierre';1;102
e;28406;'Robert Schuman';1;50
e;123884;'Adolphe Thiers';1;50
e;27940;'Robert Badinter';1;64
e;187498;'Jean-Louis Borloo';1;4
e;265578;'Gilbert Collard';1;10
e;113651;'Roland Dumas';1;50
e;212719;'Georges Kiejman';1;50
e;236438;'Christine Lagarde';666;18
e;187499;'Corinne Lepage';1;20
e;163159;'Marine Le Pen';1;88
e;187506;'Arnaud Montebourg';1;50
e;163235;'Barack Obama';1;70
e;136774;'Nicolas Sarkozy';1;276
e;254809;'liquidateur judiciaire';1;50
e;402129;'Autres';1;50
e;142939;'ISBN';1;60
e;292126;'International Standard Book Number';777;54
e;75884;'mars';1;2872
e;153106;'tribunal de grande instance';1;94
e;22478;'magistrats';1;50
e;85736;'porte-jarretelles';1;78
e;52815;'corset';1;100
e;431261;'Caricature';1;50
e;124373;'arbitrage';1;104
e;154884;'contrat de travail';1;100
e;111204;'serment';1;114
e;145192;'Serment';1;50
e;152333;'master';1;144
e;397687;'Master';1;52
e;133107;'Haut-Rhin';1;60
e;43310;'Bas-Rhin';1;78
e;118975;'éloquence';1;96
e;206296;'prêter serment';1;58
e;37765;'office';1;162
e;402492;'Office';1;56
e;88368;'procureur';1;362
e;423646;'Procureur';1;50
e;9124;'toque';1;94
e;19044;'épitoge';1;54
e;166334;'saint patron';1;68
e;78725;'parties';1;70
e;397604;'Partie';1;50
e;401321;'morales';1;50
e;404746;'Tribunal';1;50
e;413261;'juridictions';1;50
e;309328;'Justinien';1;50
e;222483;'droit public';1;60
e;2697;'Lin Biao';1;50
e;46228;'Louisiane';1;86
e;414019;'Brevet';1;50
e;406088;'Licence';1;50
e;426411;'Profession';1;50
e;142659;'Femme';1;50
e;301364;'notaires';777;50
e;107811;'Conseil constitutionnel';1;78
e;318958;'humour juif';777;50
e;398959;'freudienne';1;50
e;2156846;'consultations';2;0
e;425265;'Contrat';1;50
e;407431;'contrats';1;50
e;152293;'Psychologie';1;118
e;8924;'psychologie';1;926
e;2011056;'caricatures';2;0
e;2226655;'misogynes';2;0
e;2151769;'commissaires-priseurs';2;0
e;411204;'Ordonnance';1;50
e;2286862;'solicitors';2;0
e;3316878;'Parti communiste chinois';1;0
e;3731085;'Fran Drescher';1;0
e;3303689;'Fruit';777;0
e;2383506;'Espagnol';1;0
e;65586;'espagnol';1;540
e;2469257;'Nahuatl';1;0
e;5742;'nahuatl';1;50
e;15704;'testicule';1;220
e;413079;'Baie';1;50
e;3161436;'Citron';1;0
e;15386;'citron';1;886
e;694578;'Éthylène';1;0
e;133449;'éthylène';1;58
e;407371;'Noyau';1;50
e;2458010;'Michoacan';1;0
e;437131;'Guacamole';1;50
e;251789;'cuisine mexicaine';1;46
e;56302;'Madagascar';1;110
e;173235;'Malgaches';1;50
e;38557;'dessert';1;2814
e;36344;'Maroc';1;230
e;182173;'eau de rose';1;2
e;2375393;'kcal';1;2
e;72619;'acide gras';1;116
e;10487;'allergies';1;52
e;302545;'International Standard Serial Number';777;50
e;115748;'ISSN';1;50
e;5853063;'Lauraceae';1;0
e;402223;'Couleur';1;50
e;5945240;'nom de couleur';777;0
e;153749;'Mode';1;54
e;133857;'mode';1;1108
e;5386798;'personnes physiques';1;0
e;84242;'actes';1;82
e;57008;'capitulaire';1;50
e;205085;'Parlement';1;58
e;397441;'Crime';1;50
e;104138;'criminelle';1;80
e;5933752;'Barreau';1;0
e;3824754;'common law';1;0
e;4890758;'Tribunal de grande instance';777;0
e;5689166;'Pierre-Antoine Berryer';777;0
e;5688540;'Louis Barthou';777;0
e;6083318;'Martine Luc-Thaler';777;0
e;5965593;'Magistrat';1;0
e;6087831;'Syndicat des avocats de France';777;0
e;6100456;'Jean Lemaire';777;0
e;6082743;'Jacques Isorni';777;0
e;6088090;'Nasser Zarafshan';777;0
e;6087297;'barrister';777;0
e;6260735;'Arbitrage';1;0
e;6100696;'Syndicat des avocats libres';777;0
e;10346363;'Parlement de Paris';777;0
e;10187879;'licence en droit';777;0
e;10869262;'Henri-Robert';1;0
e;65276;'peptone';1;50
e;319418;'acide abscissique';1;50
e;38028;'cellulose';1;78
e;121135;'cardiovasculaire';1;56
e;330879;'empreinte carbone';1;4
e;5901092;'empreinte eau';777;0
e;88274;'circulaire';1;158
e;111807;'PVC';1;68
e;11182050;'High Court of Justice';777;0
e;256013;'cuisine tex-mex';1;52
e;83689;'Bande des Quatre';1;50
e;5842066;'Notaire';1;0
e;11756097;'Bernard Barbiche';777;0
e;285728;'DOI';1;2
e;9464428;'avocat Hass';1;0
e;245381;'code vestimentaire';1;10
e;251561;'dress code';1;8
e;52515;'Simone de Beauvoir';1;136
e;151698;'Sarkozy';1;718
e;155830;'Sarko';1;100
e;52932;'Hollande';1;186
e;155805;'fraise des bois';1;106
e;85508;'Castor';1;60
e;34157;'chocolat';1;2898
e;84412;'perroquet';1;322
e;187489;'Noël Mamère';1;50
e;268936;'Edward Snowden';1;6
e;8628;'Gérard Philipe';1;54
e;61579;'Lénine';1;122
e;127961;'Apple';1;256
e;7995;'Bonaparte';1;86
e;87457;'Romy Schneider';1;60
e;189064;'Charles Lindbergh';1;52
e;188453;'Bill Clinton';1;66
e;188498;'Matt Damon';1;58
e;230581;'salade César';1;12
e;271803;'Îles Canaries';777;50
e;190987;'îles Canaries';1;34
e;100168;'Canaries';1;54
e;56799;'ethnologie';1;96
e;272372;'Georges Auguste Couthon';777;50
e;272373;'Aristide Couthon';777;50
e;214043;'Jean de La Fontaine';1;24
e;272495;'Nuits attiques';777;50
e;272914;'Delmer Daves';777;50
e;76007;'homonymie';1;52
e;272933;'Mia Farrow';666;4
e;272934;'Maria de Lourdes Villiers Farrow';777;50
e;98184;'endive';1;98
e;133524;'chicon';1;58
e;190662;'agent immobilier';1;8
e;273036;'Simone-Lucie-Ernestine-Marie Bertrand de Beauvoir';777;50
e;195072;'exploitant agricole';1;52
e;146188;'Cartier';1;60
e;273590;'Caroline Mécary';777;50
e;255906;'Jean-François Copé';1;16
e;273682;'Gilles Pargneaux';777;50
e;146774;'Ségolène Royal';1;148
e;273671;'Marie Ségolène Royal';777;50
e;72281;'étude';1;1040
e;7236;'études';1;522
e;50041;'honneur';1;310
e;227939;'fuite d'information';1;6
e;273953;'fuite de données';777;50
e;274202;'maison impériale de France';777;50
e;274203;'maison Bonaparte';777;50
e;144877;'bonaparte';1;50
e;43523;'slip';1;470
e;5587;'caleçon';1;204
e;274237;'bobette';777;50
e;11356;'cyan';1;86
e;230404;'Cyan';666;50
e;274361;'Rosemarie Magdalena Albach';777;52
e;201732;'haute trahison';1;50
e;49596;'doudou';1;278
e;274514;'vert oxyde de chrome';777;50
e;82655;'vert de chrome';1;50
e;274521;'Edward Joseph Snowden';777;50
e;274807;'Sex and the City';777;50
e;274808;'Sexe à New York';777;50
e;50920;'vert amande';1;56
e;28557;'amande';1;588
e;274916;'Yvon Bourges';777;50
e;163933;'legume';1;50
e;41413;'parents';1;618
e;24366;'Parent';1;50
e;275542;'météorisme abdominal';777;50
e;35018;'météorisme';1;56
e;276102;'Maximilien Marie Isidore de Robespierre';777;50
e;276103;'Maximilien Robespierre';777;50
e;155980;'robespierre';1;50
e;276131;'Nicolas Sarközy de Nagy-Bocsa';777;50
e;276154;'Charles Augustus Lindbergh';777;50
e;59748;'Lindbergh';1;54
e;276165;'William Jefferson Clinton';777;50
e;276166;'William Jefferson Blythe III';777;50
e;276167;'Barack Hussein Obama II';777;50
e;728;'homonyme';1;82
e;1648;'Septmoncel';1;50
e;2785;'manganèse';1;72
e;277449;'Armand Jacques Achille Leroy de Saint-Arnaud';777;50
e;3483;'Saint-Arnaud';1;50
e;278033;'Philippe-Antoine Merlin';777;50
e;5502;'Merlin de Douai';1;50
e;6208;'Reyes';1;50
e;6848;'Maximilien';1;66
e;278318;'régime Dukan';777;50
e;278319;'régime Protal';777;50
e;6990;'protal';1;50
e;8095;'tyrosine';1;54
e;8268;'Maximilien II';1;50
e;278706;'Gérard Philip';777;50
e;278762;'Matthew Paige Damon';777;50
e;10186;'Robin';1;66
e;106844;'allergie';1;402
e;44491;'Procès';1;50
e;66437;'Alessandro Pertini';1;50
e;280320;'Sandro Pertini';777;50
e;21521;'Pertini';1;50
e;280437;'Ignace Philippe Semmelweis';777;50
e;111559;'Semmelweis';1;50
e;140758;'Daniel O'Connell';1;50
e;280603;'actes sous seing privé';777;50
e;280604;'Les actes synallagmatiques';777;50
e;104763;'sanction';1;184
e;280605;'Les actes unilatéraux';777;50
e;190654;'acte sous seing privé';1;50
e;127689;'Lajos Kossuth';1;50
e;163086;'juge d'instruction';1;98
e;281101;'promoteur de la foi';777;50
e;32948;'Bourvil';1;60
e;154249;'André Robert Raimbourg';1;50
e;90389;'karité';1;52
e;281598;'karit';777;50
e;281807;'Martin Brian Mulroney';777;50
e;51608;'Brian Mulroney';1;50
e;232192;'réaction allergique';1;14
e;282044;'Teobaldus Orsus Felice Orsini';777;50
e;80575;'Felice Orsini';1;50
e;282083;'Pierre Eugène Jean Pflimlin';777;50
e;25232;'Pierre Pflimlin';1;50
e;25282;'défenseur';1;142
e;282213;'Manuel Luis Quezon y Molina';777;50
e;282651;'Gerhard Fritz Kurt Schröder';777;50
e;189564;'Gerhard Schröder';1;50
e;282702;'Avocat de la défense';777;50
e;153328;'avocat de la défense';1;56
e;55283;'Vladimir Ilitch Oulianov';1;50
e;153063;'lénine';1;52
e;105995;'légumes';1;940
e;116476;'Vogt';1;50
e;51604;'Élie';1;50
e;283524;'élias';777;50
e;96616;'Elia';1;50
e;283525;'Elijah';777;50
e;25491;'Elias';1;50
e;54257;'Auguste Beernaert';1;50
e;152987;'sarkozy';1;82
e;43802;'Marais';1;58
e;30586;'Maret';1;50
e;284157;'Gabriel-Jules Janin';777;50
e;115489;'Jules Janin';1;50
e;16462;'Meurtres';1;50
e;284319;'Marcel André Henri Félix Petiot';777;50
e;284320;'docteur Petiot';777;50
e;284321;'capitaine Valéry';777;50
e;266150;'Marcel Petiot';666;50
e;270416;'Jacques Vergès';1;50
e;270874;'Abdelkader Hassan El Assimi';666;50
e;108347;'ethnologique';1;50
e;14287;'Monroe';1;50
e;68291;'Genève';1;100
e;285074;'Simon-Nicolas-Henri Linguet';777;50
e;51191;'linguet';1;50
e;51546;'Ernest Picard';1;50
e;285122;'Ministres sans portefeuilles';777;50
e;53238;'Hotman';1;50
e;32206;'potassium';1;112
e;55857;'kalium';1;50
e;189988;'fruit tropical';1;20
e;160953;'légume frais';1;70
e;160954;'légume vert';1;144
e;96455;'Giovanni Leone';1;50
e;94667;'chérimolier';1;50
e;292230;'Annona cherimola';777;50
e;292231;'Cherimoya';777;50
e;292232;'Chirimoya';777;50
e;292233;'Churimoya';777;50
e;130871;'witloof';1;54
e;156108;'avocats';1;50
e;40199;'ballonnement';1;98
e;65126;'safou';1;50
e;68195;'excipient';1;60
e;79636;'attiéké';1;50
e;84180;'chérimole';1;50
e;84322;'antioxydant';1;76
e;100394;'Benjamin Disraeli';1;50
e;111254;'allergisant';1;70
e;302045;'Vitellaria';777;50
e;112494;'arbre à beurre';1;52
e;114299;'allergique';1;98
e;173312;'Nouveau Monde';1;4
e;152702;'nouveau monde';1;52
e;121813;'antioxygène';1;50
e;163573;'Dukan';1;50
e;158071;'chocolats';1;68
e;184211;'seing privé';1;50
e;188526;'Laurent Delahousse';1;50
e;190029;'huile d'avocat';1;50
e;310524;'salade Caesar';777;50
e;220994;'légumes verts';1;18
e;325726;'Marie-France Garaud';1;50
e;325727;'Marie-Françoise Quintard';777;50
e;287617;'Basankusu';777;50
e;333710;'acte sous signature privée';1;50
e;366654;'nouveau continent';1;50
e;427102;'Persea';1;50
e;398934;'homonymes';1;50
e;569453;'aliens de';777;50
e;569454;'Abo Cado';777;50
e;569455;'Amondo';777;50
e;569456;'Angira';777;50
e;413461;'Homonymies';1;50
e;414207;'Chocolat';1;50
e;433523;'perroquets';1;52
e;569859;'Abo';1;50
e;581694;'atanga';777;0
e;298852;'Roland Dorgelès';777;50
e;166472;'vitamine B';1;60
e;95983;'niacine';1;62
e;176225;'vitamine PP';1;12
e;1128580;'Hildegân';777;0
e;592061;'California maki';777;0
e;1573230;'antioxydants';1;0
e;58758;'endocarpe';1;52
e;437575;'cooler';1;50
e;1655192;'tapion';1;0
e;176065;'acide nicotinique';1;6
e;251973;'fajita';666;52
e;1906586;'fajitas';1;0
e;1963134;'ajiaco';1;0
e;2323412;'anti-oxydant';1;20
e;2208611;'homonymies';2;0
e;55772;'Tyr';1;52
e;2351089;'noix de macadam';777;0
e;2351036;'noix du Queensland';1;0
e;2519304;'oméga-9';1;0
e;1837624;'allergie au latex';1;14
e;2926772;'California roll';777;0
e;81120;'Danton';1;80
e;2950866;'d'Anton';777;0
e;68363;'cacao';1;714
e;3245852;'H220';777;0
e;3245853;'H336';777;0
e;288963;'D2B';777;50
e;272311;'Numéro index';777;50
e;272188;'Symboles';777;50
e;3296628;'Apool';777;0
e;26277;'Barbara';1;70
e;3173392;'Barbara Brodi';777;0
e;222744;'Monique Serf';1;50
e;3748043;'chirashizushi';777;0
e;2934569;'Claude Érignac';777;0
e;5534862;'Mise en garde médicale';777;0
e;5686968;'François-Guillaume-Jean-Stanislas Andrieux';777;0
e;5803451;'forever living products';777;0
e;2382781;'climactérique';1;0
e;100307;'hot-dog';1;140
e;5807701;'pozole';777;0
e;176218;'vitamine B3';1;56
e;97825;'carotène';1;54
e;5828643;'salade californienne';777;0
e;5828743;'sandwich au thon';777;0
e;405161;'Préparation';1;50
e;5828885;'salade Cobb';777;0
e;5830683;'cuisine des fleurs';777;0
e;5831503;'Jean Glavany';777;0
e;5831534;'Vitellaria paradoxa';777;0
e;108952;'baie';1;310
e;5894361;'Beït-Yéhoshoua';777;0
e;5913333;'la cuisine fusion';777;0
e;5918759;'brunissement enzymatique';777;0
e;5940033;'alambre';777;0
e;5945780;'vert avocat';777;0
e;5990317;'Quentin Crisp';777;0
e;5990318;'Denis Charles Pratt';777;0
e;6066087;'aliens de Dragon Ball';777;0
e;6083177;'Agénor Bardoux';777;0
e;6087668;'Alan Shore';777;0
e;6594547;'liste des périphrases désignant des villes';777;0
e;5535114;'améliorez-le !';777;0
e;3177249;'noix de macadamia';1;0
e;8571113;'Vulnérable';777;0
e;9005607;'Charles Strauss';777;0
e;242717;'Monique Andrée Serf';1;58
e;9211105;'Christian Dupuy';777;0
e;9985469;'famille Astor';777;0
e;91717;'éthène';1;50
e;311363;'Le Tribunal des flagrants délires';777;50
e;34874;'Tétouan';1;50
e;10160789;'William Schwenck Gilbert';777;0
e;10189515;'Eudoxie ou la Clef des champs';777;0
e;10189516;'Le Procès Filippi';777;0
e;162999;'tribunal administratif';1;78
e;265583;'Claude Guéant';1;28
e;10459412;'Laurent Hénart';777;0
e;10194504;'Antoine Durafour';777;0
e;10578370;'Antoine Joseph Durafour';777;0
e;10556120;'Perches';1;0
e;10617842;'Talbot Baines Reed';777;0
e;10621746;'cuisine aztèque';777;0
e;10838970;'théorie des deux nations';777;0
e;6088913;'Henry Sers';777;0
e;9505788;'Ericka Bareigts';777;0
e;9505789;'Nathalie Bassire';777;0
e;6088914;'Huguette Bello';777;0
e;9505790;'David Lorion';777;0
e;9505791;'Nadia Ramassamy';777;0
e;10868259;'Samuel Guichenon';777;0
e;73773;'Francisque Gay';1;50
e;10869850;'Antoine-François Pugliesi-Conti';777;0
e;10869923;'décret Crémieux';777;0
e;10930363;'Charles Ceccaldi-Raynaud';777;0
e;10934983;'piaroas';777;0
e;10937964;'Baie de l'Abondance';777;0
e;10937965;'Bay of Plenty';777;0
e;102444;'bop';1;50
e;10938045;'Wayne Barnes';777;0
e;10970488;'économie du Pérou';777;0
e;63317;'cotylédon';1;56
e;10996989;'préfeuilles';777;0
e;10996990;'éophylles';777;0
e;11070803;'Étienne-Gilbert de Drée';777;0
e;11070804;'de La Drée';777;0
e;11078376;'Erwan Le Morhedec';777;0
e;11078111;'koz';777;0
e;5536212;'Cette section ne cite pas suffisamment ses sources';777;0
e;11133752;'État de Michoacán';777;0
e;11133753;'État de Michoacán de Ocampo';777;0
e;409108;'Bassa';1;50
e;11198760;'Quimbayas';777;0
e;11208095;'Bergasse';1;0
e;11207822;'Antoine Claire Thibaudeau';777;0
e;11208251;'Louis Ernest Hamel';777;0
e;11237569;'Edvard Eilersen Hagerup';777;0
e;143219;'pépin';1;394
e;11305459;'Pierre Gonzalez de Gaspard';777;0
e;11315691;'agriculture du Cameroun';777;0
e;11316082;'cuisine de Sao Tomé-et-Principe';777;0
e;11342114;'Jean-Baptiste-Thomas-Victor Cochinat';777;0
e;11350785;'génétique forestière';777;0
e;11406829;'Comité consultatif pour la révision de la Constitution';777;0
e;6939;'commission';1;128
e;11406830;'comité Vedel';777;0
e;5534855;'citer vos sources';777;0
e;312170;'merci de ne pas mettre au passé les verbes qui sont actuellement au présent';777;50
e;11455671;'Jean-Yves Liénard';777;0
e;11553226;'Bactrocera xanthodes';777;0
e;11095906;'Broun';1;0
e;11553227;'mouche des fruits du Pacifique';777;0
e;11553236;'Bactrocera dorsalis';777;0
e;11553237;'mouche orientale des fruits';777;0
e;11770616;'Henri Michelin';777;0
e;11342518;'Georges Dayan';777;0
e;11779877;'Orville Lothrop Freeman';777;0
e;11785725;'Louis Marie François Franck';777;0
e;11901279;'attentat de Saint-Quentin-Fallavier';777;0
e;5624490;'AOX';777;0
e;12551753;'Klaus Volk';777;0
e;30472;'titres';1;62
e;66372;'texte';1;890
e;56362;'gras';1;1846
e;136284;'italique';1;56
e;191712;'citations';1;54
e;9634975;'listes à puces';777;0
e;146823;'tableaux';1;116
e;5827068;'Cichorium intybus var. foliosum';777;0
e;3319105;'chicorée de Bruxelles';1;0
e;3319103;'chicorée witloof';1;0
e;12726553;'Pierre Philippeaux';777;0
e;12977830;'Joseph Edmund Johnson';777;0
e;12985590;'affaire du Carlton de Lille';777;0
e;13339071;'Diana Ruth Johnson';777;0
e;13541707;'famille de Barrau';777;0
e;5813529;'Barrau';1;0
e;10847514;'Jean-Luc Poudroux';777;0
e;13615444;'Anilaza';777;0
e;13615445;'Anirazor';777;0
e;3319854;'pâte de cacao';1;0
e;155140;'beurre de cacao';1;104
e;155141;'poudre de cacao';1;68
e;2588131;'Homonymie';1;0
e;1852529;'tyramine';1;0
e;14027821;'Paul Marie Joseph Raymond Tschoffen';777;0
e;14027822;'Paul Tschoffen';777;0
e;14076798;'cuisine fusion';777;0
e;14080568;'Carmen Vidal';777;0