
r;8850026;104789;26940;42;-10
r;3202800;104789;263441;42;35
r;3130842;104789;44929;42;51
r;2348913;104789;7159;42;60
r;2348914;104789;139233;42;60
r;1660075;104789;108833;42;70
r;2348912;104789;71637;42;70
r;2348915;104789;117276;42;70
r;1660074;104789;142157;42;90