
r;1372747;71637;104789;8;-63
r;9641108;135190;104789;8;-16
r;9624662;61490;104789;8;-13
r;1826909;225763;104789;8;-11
r;8552696;160954;104789;8;-9
r;1795442;54862;104789;8;-1
r;274031644;221983;104789;8;5
r;310444428;1395235;104789;8;15
r;9621825;79727;104789;8;21
r;9623193;59893;104789;8;21
r;9623262;20965;104789;8;21
r;9623592;49293;104789;8;21
r;96757287;13369;104789;8;21
r;9622006;66699;104789;8;22
r;97475899;157007;104789;8;22
r;97154457;58768;104789;8;23
r;9623294;145941;104789;8;24
r;9623630;114637;104789;8;25
r;243245198;2339709;104789;8;25
r;243275995;196384;104789;8;25
r;243275996;225524;104789;8;25
r;243495248;316850;104789;8;25
r;246219477;436570;104789;8;25
r;246257818;245447;104789;8;25
r;246258366;238180;104789;8;25
r;246261695;253164;104789;8;25
r;246269064;219109;104789;8;25
r;246272002;26976;104789;8;25
r;246299829;136559;104789;8;25
r;246552485;3291029;104789;8;25
r;311921330;7223560;104789;8;25
r;9622066;74860;104789;8;26
r;348332961;2587823;104789;8;28
r;198484098;3762435;104789;8;29
r;9621866;116477;104789;8;32
r;76339781;672546;104789;8;34
r;13759905;234036;104789;8;35
r;13821506;260820;104789;8;35
r;13835021;225847;104789;8;35
r;13850385;65081;104789;8;35
r;13934377;237445;104789;8;35
r;13305607;68439;104789;8;39
r;2496896;189981;104789;8;41
r;9747800;71624;104789;8;54
r;9798555;136507;104789;8;56
r;9726195;225916;104789;8;59
r;9829751;24956;104789;8;59
r;9834200;244620;104789;8;59
r;28369196;396247;104789;8;59
r;9856307;40056;104789;8;63
r;9856918;225291;104789;8;63
r;228273;25282;104789;8;73
r;210468132;7012843;104789;8;75
r;207115;87286;104789;8;76
r;3170708;240948;104789;8;76
r;34500072;12876;104789;8;77
r;1705870;225762;104789;8;78
r;270900395;7351512;104789;8;80
r;644791;120603;104789;8;83
r;9819027;245450;104789;8;83
r;2496858;189989;104789;8;98
r;1707021;225792;104789;8;108
r;231336;126724;104789;8;123
r;129135;103465;104789;8;243