
r;248817;104789;61490;6;-88
r;131879;104789;71637;6;-81
r;96739043;104789;160954;6;-54
r;143373;104789;72501;6;-50
r;358937;104789;85296;6;-50
r;629751;104789;135190;6;-44
r;11946060;104789;157284;6;-25
r;8061477;104789;265845;6;-13
r;1707874;104789;140860;6;-5
r;8858530;104789;5425;6;-5
r;97729055;104789;13369;6;2
r;97793738;104789;58768;6;2
r;97885797;104789;157007;6;2
r;76342076;104789;672546;6;3
r;34500848;104789;12876;6;5
r;273147880;104789;7223560;6;15
r;96739018;104789;245447;6;16
r;96739030;104789;238180;6;21
r;96739017;104789;136559;6;22
r;315086934;104789;101689;6;25
r;84004239;104789;316850;6;26
r;348332960;104789;2587823;6;27
r;78484189;104789;225524;6;28
r;80902379;104789;3291029;6;35
r;83963248;104789;436570;6;37
r;2112906;104789;225792;6;38
r;74957164;104789;2339709;6;40
r;93960321;104789;3762435;6;41
r;96739041;104789;253164;6;45
r;28429146;104789;396247;6;52
r;97364470;104789;219109;6;52
r;97364469;104789;26976;6;55
r;187857;104789;20965;6;68
r;202536;104789;114637;6;78
r;183011;104789;59893;6;88
r;2950317;104789;245450;6;89
r;631818;104789;189981;6;90
r;2231908;104789;71624;6;91
r;13890465;104789;65081;6;92
r;13978401;104789;260820;6;94
r;13917266;104789;225847;6;95
r;13734487;104789;234036;6;96
r;14027394;104789;237445;6;97
r;2100719;104789;225916;6;98
r;1963655;104789;225762;6;103
r;3021509;104789;24956;6;106
r;2878025;104789;136507;6;107
r;188951;104789;145941;6;108
r;133190;104789;116477;6;116
r;3023738;104789;244620;6;119
r;127456;104789;103465;6;121
r;131876;104789;25282;6;121
r;201056;104789;49293;6;122
r;3158509;104789;40056;6;128
r;9926220;104789;240948;6;128
r;3158852;104789;225291;6;130
r;13261192;104789;68439;6;133
r;142986;104789;66699;6;134
r;129477;104789;120603;6;141
r;145429;104789;74860;6;173
r;130937;104789;79727;6;236
r;127458;104789;126724;6;251
r;9918552;104789;189989;6;325
r;132242;104789;87286;6;352
r;78484145;104789;196384;6;405