
r;299578272;11693124;140121;55;26
r;34678993;317450;140121;55;29
r;2398698;235094;140121;55;30
r;108634554;319403;140121;55;31
r;109022501;5518315;140121;55;31
r;109022542;592782;140121;55;31
r;112590722;5598557;140121;55;34
r;149284621;49645;140121;55;34
r;212080177;6896443;140121;55;34
r;83389520;3171812;140121;55;35
r;103280760;3672481;140121;55;35
r;170134908;8454530;140121;55;35
r;2398657;253956;140121;55;43
r;95741405;1909776;140121;55;43
r;109927728;319402;140121;55;43
r;87475552;3438355;140121;55;65
r;149292186;6797002;140121;55;254
r;149293830;8519500;140121;55;254
r;149273676;2348310;140121;55;255