
r;14799239;144480;140121;23;-20
r;17855213;11797;140121;23;1
r;86841184;43222;140121;23;21
r;97736227;67277;140121;23;21
r;14799542;123570;140121;23;22
r;14799567;153408;140121;23;23
r;98812825;1242560;140121;23;23
r;14748048;2312;140121;23;24
r;14795467;164367;140121;23;24
r;2058446;237710;140121;23;26
r;97736225;52138;140121;23;26
r;14795468;164366;140121;23;27
r;14797571;72731;140121;23;27
r;97736224;226110;140121;23;27
r;97736226;128790;140121;23;27
r;97865789;64707;140121;23;27
r;14795616;100717;140121;23;28
r;14795618;164068;140121;23;29
r;14797572;117828;140121;23;29
r;97365454;587499;140121;23;29
r;156818600;329925;140121;23;29
r;14795617;164069;140121;23;30
r;14796461;131125;140121;23;30
r;14798371;41704;140121;23;32
r;81908433;4652;140121;23;34
r;97424509;9488;140121;23;34
r;29256067;1782700;140121;23;45
r;2228601;89581;140121;23;51
r;2181764;10103;140121;23;63