e;150;'chat';1;5110
e;91691;'surprise';1;1068
e;103405;'indifférence';1;476
e;9683;'tendresse';1;1356
e;26173;'douceur';1;824
e;102345;'plaisir';1;3206
e;57221;'joie';1;3724
e;14330;'satisfaction';1;520
e;9864;'désir';1;1924
e;146357;'envie';1;1392
e;28453;'bonheur';1;2102
e;37298;'amour';1;6814
e;29737;'amitié';1;1910