
r;8894674;150;316437;1;38
r;61159466;150;2667666;1;40
r;61159560;150;2667669;1;40
r;12001214;150;330571;1;41
r;2448167;150;258956;1;45
r;61159552;150;2667668;1;45
r;12001212;150;330570;1;60
r;1533810;150;213468;1;70
r;1533793;150;213467;1;91
r;1533726;150;213466;1;288