
r;10712410;142791;150;21;2
r;2277333;229001;150;21;10
r;2162211;247483;150;21;30
r;388985;63235;150;21;60
r;2078123;4455;150;21;60
r;436890;86756;150;21;71
r;123988;137333;150;21;108
r;220236;116032;150;21;150