
r;308096418;150;224361;10;10
r;292759698;150;9160330;10;11
r;96698410;150;20713;10;15
r;98290101;150;225316;10;15
r;97364681;150;146105;10;16
r;213732126;150;175539;10;25
r;287865844;150;74846;10;25
r;2498506;150;36886;10;27
r;2303637;150;41476;10;28
r;2303639;150;81027;10;28
r;2482071;150;71539;10;28
r;29451535;150;142235;10;28
r;2303638;150;157132;10;32
r;207152906;150;6913330;10;33
r;2498505;150;5814;10;34
r;2303636;150;45179;10;35
r;2482072;150;120157;10;35