
r;1614483;181472;150;6;-211
r;193727420;4455;150;6;-80
r;82960983;2425150;150;6;-67
r;114275;142832;150;6;-60
r;370924;95256;150;6;-60
r;82960980;2360117;150;6;-60
r;291369561;218940;150;6;-35
r;103671424;168166;150;6;-30
r;315489665;12109610;150;6;-26
r;316543215;12201871;150;6;-26
r;31599379;944;150;6;-25
r;78506409;2396155;150;6;-25
r;217449578;9699604;150;6;-25
r;291369560;68467;150;6;-25
r;315632468;12092962;150;6;-25
r;315632490;12092960;150;6;-25
r;315632499;12092959;150;6;-25
r;315632553;12092953;150;6;-25
r;315632573;12092951;150;6;-25
r;315647056;12090295;150;6;-25
r;315647067;12090293;150;6;-25
r;316495359;12197204;150;6;-25
r;346294114;231575;150;6;-25
r;13185136;269371;150;6;-22
r;9898718;141168;150;6;-21
r;238171;116032;150;6;-20
r;9898553;68822;150;6;-11
r;9898581;143206;150;6;-11
r;1716867;129181;150;6;-6
r;1710509;217642;150;6;-5
r;14694862;156160;150;6;-5
r;15754217;81046;150;6;-5
r;97665210;595158;150;6;-5
r;1838468;214598;150;6;-2
r;1838510;214602;150;6;-2
r;1982599;214631;150;6;-1
r;2158542;213375;150;6;-1
r;29298768;60226;150;6;1
r;358258622;8043704;150;6;10
r;358271601;6888918;150;6;10
r;9898617;48496;150;6;13
r;9900682;159058;150;6;13
r;9900891;79526;150;6;13
r;333122958;9773307;150;6;20
r;358202231;6888909;150;6;20
r;291365136;5892418;150;6;25
r;300489500;6373131;150;6;25
r;300489502;6388991;150;6;25
r;300489504;6355170;150;6;25
r;300489507;6343511;150;6;25
r;300489509;6358420;150;6;25
r;300489511;6408528;150;6;25
r;300489514;6399949;150;6;25
r;300489516;6401921;150;6;25
r;300489518;6385404;150;6;25
r;300489521;6359662;150;6;25
r;300489523;6383566;150;6;25
r;300489525;6343261;150;6;25
r;300489527;6365090;150;6;25
r;300489529;6334225;150;6;25
r;300489531;6400086;150;6;25
r;300489537;6380143;150;6;25
r;300489541;6416755;150;6;25
r;300489543;6383729;150;6;25
r;300489545;6413592;150;6;25
r;355027916;2515299;150;6;25
r;355027928;10444401;150;6;25
r;355027934;5952256;150;6;25
r;355027938;5809497;150;6;25
r;355027962;404463;150;6;25
r;355027976;10551291;150;6;25
r;355027992;5809047;150;6;25
r;355027994;12698635;150;6;25
r;355028000;5881607;150;6;25
r;355028002;5996476;150;6;25
r;355028010;236018;150;6;25
r;355028040;92372;150;6;25
r;355028048;11554411;150;6;25
r;355028052;1854647;150;6;25
r;355028056;2462071;150;6;25
r;355028058;2926724;150;6;25
r;364199704;14304740;150;6;25
r;97386048;140089;150;6;26
r;98730301;2419719;150;6;26
r;113206051;5809367;150;6;26
r;217449035;9699603;150;6;26
r;300489535;343175;150;6;26
r;300489539;5808729;150;6;26
r;300489548;10822404;150;6;26
r;315480437;12090294;150;6;26
r;315097688;12077791;150;6;26
r;315097695;12077789;150;6;26
r;315097753;12077790;150;6;26
r;315099328;12077792;150;6;26
r;315478162;12090296;150;6;26
r;315489637;12109614;150;6;26
r;315489644;12109613;150;6;26
r;315489651;12109612;150;6;26
r;315489660;12109611;150;6;26
r;315491830;12109252;150;6;26
r;315491839;12109251;150;6;26
r;315632455;12092963;150;6;26
r;315632477;12092961;150;6;26
r;315632510;12092958;150;6;26
r;315632519;12092957;150;6;26
r;315632528;12092956;150;6;26
r;315632535;12092955;150;6;26
r;315632542;12092954;150;6;26
r;315632560;12092952;150;6;26
r;316541088;12202218;150;6;26
r;316541278;12202186;150;6;26
r;316541852;12202085;150;6;26
r;316541861;12202084;150;6;26
r;316542216;12202029;150;6;26
r;316545590;12201518;150;6;26
r;355027924;406604;150;6;26
r;355027932;2413561;150;6;26
r;355027944;126757;150;6;26
r;355027960;239598;150;6;26
r;355027964;140851;150;6;26
r;355027986;166755;150;6;26
r;355028022;464997;150;6;26
r;355028032;213303;150;6;26
r;355028034;76929;150;6;26
r;355028042;2438967;150;6;26
r;355028044;173408;150;6;26
r;355028046;208188;150;6;26
r;355028060;232163;150;6;26
r;355028062;15876;150;6;26
r;364174321;14303416;150;6;26
r;97386049;34549;150;6;27
r;113200991;5809334;150;6;27
r;355028821;2480279;150;6;27
r;355028841;2453226;150;6;27
r;355028876;2521039;150;6;27
r;355028882;73205;150;6;27
r;355028896;2522197;150;6;27
r;355028928;2528934;150;6;27
r;355028934;2365558;150;6;27
r;364174916;14303418;150;6;27
r;71982079;2547375;150;6;28
r;96495970;2434578;150;6;28
r;218799947;9808585;150;6;28
r;278058254;10998503;150;6;28
r;299212649;6300940;150;6;28
r;299914154;6319242;150;6;28
r;355028819;3266418;150;6;28
r;355028825;2499753;150;6;28
r;355028827;2542063;150;6;28
r;355028857;2566215;150;6;28
r;355028868;14048;150;6;28
r;355028878;2506510;150;6;28
r;355028904;2542036;150;6;28
r;355028909;53957;150;6;28
r;355028924;5809332;150;6;28
r;355028932;113084;150;6;28
r;96495896;2526630;150;6;29
r;96495981;2418690;150;6;29
r;96496012;2387919;150;6;29
r;102161596;4898722;150;6;29
r;113220915;5809718;150;6;29
r;273752634;10906691;150;6;29
r;273752954;10906689;150;6;29
r;278061418;10998552;150;6;29
r;298422659;6290417;150;6;29
r;298880324;6295381;150;6;29
r;355028847;155192;150;6;29
r;355028849;56698;150;6;29
r;355028872;36679;150;6;29
r;355028890;2459199;150;6;29
r;355028906;5809207;150;6;29
r;355028911;2437565;150;6;29
r;355028916;2469232;150;6;29
r;355028918;75419;150;6;29
r;355028926;2520403;150;6;29
r;355028930;2500;150;6;29
r;55330707;2439923;150;6;30
r;79759912;21532;150;6;30
r;94061582;1859363;150;6;30
r;96495900;2519537;150;6;30
r;96495915;2490605;150;6;30
r;96495931;2477223;150;6;30
r;96495938;2469322;150;6;30
r;98731697;2408373;150;6;30
r;98732601;1804368;150;6;30
r;103669085;291741;150;6;30
r;113194240;5809085;150;6;30
r;114661981;5892569;150;6;30
r;122724744;6426253;150;6;30
r;217422948;9698655;150;6;30
r;299339102;6303333;150;6;30
r;299794994;6318031;150;6;30
r;355028839;2510580;150;6;30
r;355028851;2399133;150;6;30
r;355028859;2437074;150;6;30
r;355028888;5809472;150;6;30
r;355028892;2505055;150;6;30
r;355028902;2510433;150;6;30
r;355028920;34366;150;6;30
r;355028922;2483089;150;6;30
r;355028936;5809251;150;6;30
r;96495893;2534317;150;6;31
r;96495946;2460357;150;6;31
r;96495971;2432678;150;6;31
r;96495980;2420191;150;6;31
r;96496002;2393075;150;6;31
r;98302776;127070;150;6;31
r;112176563;5711548;150;6;31
r;113205971;5809568;150;6;31
r;113220909;5809735;150;6;31
r;114755257;5892412;150;6;31
r;212890063;9268384;150;6;31
r;299338119;6303022;150;6;31
r;299591105;6311423;150;6;31
r;300121783;6322297;150;6;31
r;305916140;11831698;150;6;31
r;346430598;13655701;150;6;31
r;315099296;12077793;150;6;31
r;355028833;2536052;150;6;31
r;96495950;2457268;150;6;32
r;108422838;289908;150;6;32
r;113194224;5558161;150;6;32
r;113200990;5809333;150;6;32
r;113206049;5809372;150;6;32
r;113206017;5809489;150;6;33
r;114754911;5892509;150;6;33
r;114755381;5892390;150;6;33
r;300118351;6321820;150;6;33
r;337964300;13284633;150;6;33
r;103668791;308174;150;6;34
r;113200979;5809343;150;6;34
r;113206050;5809366;150;6;34
r;114754618;5892563;150;6;34
r;121478353;6445530;150;6;34
r;122704086;6428914;150;6;34
r;122747309;6423367;150;6;34
r;299828574;6318764;150;6;34
r;68714555;2510198;150;6;35
r;96495892;2536778;150;6;35
r;105296046;5056347;150;6;35
r;108006847;5498322;150;6;35
r;113201133;5809144;150;6;35
r;113206018;5809490;150;6;35
r;113206052;5809368;150;6;35
r;113206053;5809369;150;6;35
r;113206054;5809370;150;6;35
r;113206055;5809364;150;6;35
r;313208608;2434197;150;6;35
r;337964302;13284634;150;6;35
r;103669086;291740;150;6;36
r;108006592;5498321;150;6;36
r;113205970;5809567;150;6;36
r;298895318;6296764;150;6;36
r;103670925;191256;150;6;37
r;114754889;5892512;150;6;37
r;121038962;6450938;150;6;37
r;59505726;2558084;150;6;38
r;105057187;5056303;150;6;38
r;113208672;5809706;150;6;38
r;355028874;14049982;150;6;38
r;61111090;2483762;150;6;39
r;114755236;5892416;150;6;39
r;82960986;147474;150;6;40
r;96441455;2539424;150;6;41
r;103668790;308175;150;6;41
r;114609645;5892419;150;6;41
r;108422839;289909;150;6;42
r;60184384;2478484;150;6;43
r;113201096;162005;150;6;43
r;93556260;2539545;150;6;44
r;88825244;2424202;150;6;45
r;355028884;5809344;150;6;48
r;355028886;2399110;150;6;49
r;355027972;14049937;150;6;50
r;355027984;14049942;150;6;50
r;355028004;12255552;150;6;50
r;355028006;12255551;150;6;50
r;355028012;14049948;150;6;50
r;355028030;14049956;150;6;50
r;355028866;5809298;150;6;50
r;97345873;39377;150;6;51
r;113208737;32375;150;6;54
r;113206003;5560936;150;6;55
r;287344148;57444;150;6;55
r;355027922;14049921;150;6;55
r;355027940;14049925;150;6;55
r;355027946;14049927;150;6;55
r;355027954;14049931;150;6;55
r;355027966;14049934;150;6;55
r;355027988;14049943;150;6;55
r;355027990;14049944;150;6;55
r;355027996;14049945;150;6;55
r;355028008;14049947;150;6;55
r;355028016;14049950;150;6;55
r;355028024;14049953;150;6;55
r;355028028;14049955;150;6;55
r;355028050;14049959;150;6;55
r;355028054;14049960;150;6;55
r;355028064;14049961;150;6;55
r;355028066;14049962;150;6;55
r;355028817;2428834;150;6;55
r;355028829;2559819;150;6;55
r;355028835;5809356;150;6;55
r;355028026;14049954;150;6;56
r;98301342;145670;150;6;57
r;70877329;2471583;150;6;58
r;82960993;2417865;150;6;58
r;59219384;2621672;150;6;59
r;61475342;215207;150;6;59
r;68728436;2840192;150;6;59
r;82960981;120325;150;6;59
r;82960982;98263;150;6;59
r;82960989;13562;150;6;59
r;82960991;2323902;150;6;59
r;84586073;3169504;150;6;59
r;94121592;2923052;150;6;59
r;114903273;5892422;150;6;59
r;114903457;5892421;150;6;59
r;355027952;14049930;150;6;59
r;30828452;175320;150;6;60
r;82960979;3301365;150;6;60
r;82960990;2521085;150;6;60
r;83707239;3322289;150;6;60
r;97126872;151897;150;6;60
r;113190659;114625;150;6;60
r;113205993;393486;150;6;60
r;61454610;2682450;150;6;61
r;71546573;343179;150;6;61
r;71827213;343177;150;6;61
r;71882978;343169;150;6;61
r;77680882;210470;150;6;61
r;82960985;2487798;150;6;61
r;82960987;2404475;150;6;61
r;82960995;2457337;150;6;61
r;83023447;2400461;150;6;61
r;84870781;2955300;150;6;61
r;90419757;2345676;150;6;61
r;222737528;10001836;150;6;61
r;71746298;2927232;150;6;62
r;71865589;1804317;150;6;62
r;76492094;267389;150;6;62
r;77616548;343166;150;6;62
r;78913815;230123;150;6;62
r;82135674;566560;150;6;62
r;82960984;2431871;150;6;62
r;82960997;2427198;150;6;62
r;91477813;1655524;150;6;62
r;97365463;29278;150;6;62
r;113220884;2549242;150;6;62
r;269879017;10775783;150;6;62
r;29339480;277971;150;6;63
r;71746392;2927234;150;6;63
r;71826994;343176;150;6;63
r;71827052;343168;150;6;63
r;76171825;197495;150;6;63
r;76661889;291267;150;6;63
r;82474866;579328;150;6;63
r;83275407;291410;150;6;63
r;91635196;1655525;150;6;63
r;29298770;5249;150;6;64
r;59218200;2621671;150;6;64
r;71746864;2927233;150;6;64
r;71826976;343167;150;6;64
r;71827133;343174;150;6;64
r;76493130;267388;150;6;64
r;96735491;2389138;150;6;64
r;31813592;285101;150;6;65
r;103583627;269863;150;6;66
r;23368719;246329;150;6;68
r;70518980;2390814;150;6;68
r;93567241;2397423;150;6;68
r;355027950;14049929;150;6;68
r;82960996;2466839;150;6;70
r;355028038;14049958;150;6;70
r;93566987;2508451;150;6;71
r;93576621;1233157;150;6;71
r;61565381;2375485;150;6;72
r;345938354;13638029;150;6;72
r;345938548;13638031;150;6;72
r;355028900;2456341;150;6;72
r;355028913;2386183;150;6;72
r;355028845;14049979;150;6;73
r;30198962;1860906;150;6;74
r;61564464;2381836;150;6;74
r;355028815;2433840;150;6;74
r;355027920;14049920;150;6;75
r;355028020;14049952;150;6;75
r;76746089;305150;150;6;76
r;255752706;10427054;150;6;76
r;355027958;14049933;150;6;76
r;355028036;14049957;150;6;76
r;255751003;10427005;150;6;77
r;355028823;5809348;150;6;77
r;355028861;5808811;150;6;77
r;355028863;2424112;150;6;77
r;355028880;2549865;150;6;77
r;355028898;5809291;150;6;77
r;355028837;2446890;150;6;78
r;355028843;5809335;150;6;78
r;355028938;2460800;150;6;78
r;355028940;5809473;150;6;78
r;84896512;2936983;150;6;79
r;355028831;2517620;150;6;79
r;355028853;5809336;150;6;79
r;355028855;14049980;150;6;79
r;355027930;14049923;150;6;80
r;355027942;14049926;150;6;80
r;355027956;14049932;150;6;80
r;355027968;14049935;150;6;80
r;355027970;14049936;150;6;80
r;355027978;14049939;150;6;80
r;355027980;14049940;150;6;80
r;355027998;14049946;150;6;80
r;355028018;14049951;150;6;80
r;355028068;14049963;150;6;80
r;355028070;14049964;150;6;80
r;355027948;14049928;150;6;81
r;337964298;2448955;150;6;83
r;355027936;14049924;150;6;85
r;122738090;6424534;150;6;87
r;355028894;14049983;150;6;91
r;82960992;51393;150;6;93
r;355028813;2555284;150;6;93
r;82960988;65596;150;6;94
r;355027918;14049919;150;6;95
r;355028014;14049949;150;6;95
r;83022252;2551953;150;6;97
r;94368138;2488909;150;6;97
r;82960994;2428010;150;6;98
r;83415745;2430745;150;6;98
r;355027926;14049922;150;6;100
r;355027974;14049938;150;6;100
r;355027982;14049941;150;6;100
r;355028072;14049965;150;6;100
r;114755419;5892379;150;6;111
r;80402932;168223;150;6;113
r;325743542;12694696;150;6;115
r;14161731;268124;150;6;135
r;14180180;267390;150;6;139
r;14044866;343178;150;6;145
r;13998393;234910;150;6;147
r;291726058;11360888;150;6;150
r;114755414;5892381;150;6;153
r;9902941;70465;150;6;181
r;206034;113325;150;6;193
r;2145800;246749;150;6;193
r;2461339;231505;150;6;193
r;1756477;221711;150;6;196
r;3054274;81664;150;6;196
r;1614479;214648;150;6;200
r;10739746;268963;150;6;201
r;1560897;215208;150;6;202
r;1622285;219554;150;6;203
r;3054273;122815;150;6;203
r;61055580;181474;150;6;203
r;2235873;249860;150;6;204
r;9898513;96574;150;6;204
r;31599381;267387;150;6;204
r;1580412;213568;150;6;205
r;1573705;216119;150;6;207
r;1590913;155115;150;6;207
r;1630383;220038;150;6;207
r;8892261;315808;150;6;207
r;84998000;212540;150;6;207
r;2375863;77890;150;6;208
r;52575191;2553103;150;6;208
r;1573702;9374;150;6;209
r;1614484;181473;150;6;209
r;2415681;217644;150;6;209
r;9898500;11191;150;6;209
r;1614478;159297;150;6;210
r;2209123;248855;150;6;210
r;2474329;260500;150;6;210
r;1571443;152870;150;6;211
r;1614486;175318;150;6;211
r;1748151;79080;150;6;211
r;1614489;155116;150;6;212
r;1834632;79841;150;6;212
r;2296079;253302;150;6;212
r;3116437;267386;150;6;213
r;1614481;57890;150;6;215
r;1614482;155114;150;6;215
r;1888982;236868;150;6;215
r;1614477;155117;150;6;216
r;1614480;197496;150;6;218
r;9900756;130716;150;6;218
r;13450150;126068;150;6;218
r;2145804;246750;150;6;219
r;9065622;321257;150;6;219
r;1614488;175319;150;6;220
r;2237945;153182;150;6;222
r;170022;9159;150;6;223
r;12968300;390797;150;6;230
r;4470237;279952;150;6;234
r;9901017;37935;150;6;234
r;12473236;250127;150;6;236
r;9900768;35891;150;6;243
r;1614487;159580;150;6;249
r;11744221;253867;150;6;251
r;1543807;142097;150;6;255
r;85002500;175316;150;6;322
r;85002106;175315;150;6;344
r;12077601;153265;150;6;362
r;116160;152708;150;6;403
r;115625;23784;150;6;572