
r;93293242;150;220341;999;1
r;93293286;150;220344;999;1
r;285480381;150;4521231;999;1
r;285480614;150;242161;999;1
r;285480899;150;2579453;999;1
r;285481186;150;2952624;999;1
r;285481435;150;321423;999;1
r;285481676;150;321425;999;1
r;285481943;150;321424;999;1
r;285482206;150;216904;999;1
r;285482473;150;214058;999;1
r;286080893;150;4317366;999;1
r;286081033;150;5886418;999;1
r;286081147;150;2952963;999;1
r;286081282;150;2952965;999;1
r;286081398;150;317313;999;1
r;286081504;150;2952964;999;1
r;286081602;150;213375;999;1
r;286081686;150;224361;999;1
r;286081748;150;213376;999;1
r;285497207;150;213416;999;2
r;285497271;150;213414;999;2
r;18824889;150;234035;999;3
r;25999380;150;225849;999;3
r;27884817;150;247023;999;3
r;284033005;150;4309877;999;3
r;284033259;150;5139347;999;3
r;284033435;150;247485;999;3
r;284033537;150;247484;999;3
r;284033718;150;318105;999;3
r;285377239;150;218059;999;3
r;285377297;150;218058;999;3
r;285377357;150;312566;999;3
r;285425598;150;3184658;999;3
r;285425771;150;258257;999;3
r;285425832;150;230196;999;3
r;285425894;150;218225;999;3
r;285425948;150;218224;999;3
r;285488747;150;3177473;999;3
r;27885895;150;217642;999;4
r;93291311;150;264599;999;4
r;285116453;150;218192;999;4
r;285116477;150;247965;999;4
r;285116502;150;218191;999;4
r;285218947;150;1920430;999;4
r;285218958;150;1920431;999;4
r;285362437;150;3347831;999;4
r;285362456;150;3347832;999;4
r;285362475;150;3347872;999;4
r;285362495;150;3347873;999;4
r;285362508;150;216140;999;4
r;285362532;150;216138;999;4
r;285420803;150;3575534;999;4
r;285420817;150;222333;999;4
r;23531231;150;237441;999;5
r;23532885;150;237443;999;5
r;25981882;150;225846;999;5
r;30401762;150;330963;999;5
r;284171760;150;11155410;999;5
r;284172005;150;11155415;999;5
r;284172257;150;253872;999;5
r;284172447;150;253871;999;5
r;285122234;150;5155354;999;5
r;285222258;150;251980;999;5
r;285222266;150;251981;999;5
r;285222280;150;251983;999;5
r;285222288;150;251985;999;5
r;285222296;150;251984;999;5
r;285222303;150;251986;999;5
r;285361681;150;215134;999;5
r;285361719;150;215133;999;5
r;285361753;150;215136;999;5
r;285417170;150;2840190;999;5
r;285417184;150;2840191;999;5
r;18745254;150;217641;999;6
r;18745337;150;217643;999;6
r;18745391;150;244174;999;6
r;25990631;150;225848;999;6
r;86927341;150;2924558;999;6
r;106021707;150;5155355;999;6
r;285114213;150;225791;999;6
r;285114219;150;225790;999;6
r;285145184;150;215204;999;6
r;285145211;150;2682488;999;6
r;285145231;150;215205;999;6
r;285145280;150;215206;999;6
r;18757442;150;213679;999;7
r;18757486;150;213681;999;7
r;18757530;150;213682;999;7
r;18757571;150;213683;999;7
r;18757617;150;213684;999;7
r;93205268;150;2708796;999;7
r;284165174;150;240076;999;7
r;284165332;150;240077;999;7
r;285091288;150;1768142;999;7
r;285091304;150;1768141;999;7
r;285091334;150;1768143;999;7
r;285203366;150;1870847;999;7
r;285203403;150;1870848;999;7
r;285203439;150;1870849;999;7
r;285203477;150;1870850;999;7
r;285203513;150;1870852;999;7
r;285203549;150;1870853;999;7
r;285203621;150;1870851;999;7
r;285203658;150;1870854;999;7
r;18704746;150;216118;999;8
r;18757391;150;213677;999;8
r;29330669;150;238306;999;8
r;87005955;150;390795;999;8
r;87005961;150;390796;999;8
r;285063130;150;2809510;999;8
r;285063138;150;4894399;999;8
r;285063147;150;2809509;999;8
r;285115988;150;3327861;999;8
r;285217667;150;1350752;999;8
r;285217674;150;1350751;999;8
r;18628335;150;219552;999;9
r;18628366;150;219553;999;9
r;18628417;150;438055;999;9
r;34750920;150;216687;999;9
r;34750925;150;216688;999;9
r;284417954;150;3176448;999;9
r;284417969;150;3176449;999;9
r;284682577;150;237444;999;9
r;285136859;150;3322290;999;9
r;12001262;150;218085;999;10
r;18652995;150;221712;999;10
r;18653030;150;221713;999;10
r;18657346;150;218008;999;10
r;18657378;150;218009;999;10
r;18663248;150;225124;999;10
r;18709383;150;269225;999;10
r;18709422;150;269226;999;10
r;18709461;150;269227;999;10
r;18746131;150;268964;999;10
r;18582380;150;230296;999;11
r;18582386;150;230298;999;11
r;18582391;150;230299;999;11
r;18582396;150;230300;999;11
r;284353372;150;3265699;999;11
r;284374722;150;2624277;999;11
r;284374724;150;2624278;999;11
r;18164569;150;249859;999;12
r;18703554;150;317283;999;12
r;16020806;150;233840;999;13
r;16020812;150;233841;999;13
r;16020818;150;233842;999;13
r;16020824;150;261936;999;13
r;18617530;150;219842;999;15
r;18617537;150;219843;999;15
r;284428593;150;220039;999;15
r;284302121;150;257991;999;15
r;93291308;150;436342;999;16
r;18655428;150;220041;999;22
r;284267103;150;2586888;999;23
r;284267131;150;2586887;999;23