
r;3153089;150;61936;42;-5
r;3153105;150;9864;42;-5
r;3154543;150;73135;42;-5
r;3156066;150;88491;42;-5
r;3154536;150;104993;42;5
r;291662626;150;32645;42;25
r;14674822;150;82231;42;26
r;3154548;150;77890;42;27
r;24596564;150;109155;42;28
r;14660077;150;247024;42;30
r;14660052;150;331030;42;31
r;14660075;150;331034;42;34
r;1744316;150;31920;42;70
r;2244401;150;79042;42;70
r;1744315;150;145044;42;80
r;1811170;150;11191;42;80