e;150;'chat';1;5110
e;159339;'::>13:74860>29:12141>16';9;50;'Avec quoi un homme pourrait communiquer ?'
e;326823;'::>13:74860>29:12141';8;50;'communiquer [sujet] homme'
e;164746;'::>13:116477>29:2442>16';9;50;'Avec quoi une personne pourrait vivre ?'
e;327933;'::>13:116477>29:2442';8;50;'vivre [sujet] personne'
e;128209;'jouer';1;3648
e;162203;'::>14:116477>29:53344>16';9;50;'Avec quoi pourrait-on appeler une personne ?'
e;327923;'::>14:116477>29:53344';8;50;'appeler [objet] personne'