e;150;'chat';1;5110
e;61936;'ennui';1;946
e;9864;'désir';1;1924
e;73135;'naître';1;704
e;88491;'reproduction';1;632
e;104993;'informatique';1;2890
e;32645;'tabagisme';1;218
e;82231;'félidé';1;822
e;77890;'matou';1;162
e;109155;'sélection naturelle';1;108
e;247024;'félin>17559';1;50;'félin>animal'
e;331030;'féliforme';1;50
e;331034;'féloïdé';1;52
e;31920;'accouplement';1;168
e;79042;'naissance';1;1330
e;145044;'évolution';1;524
e;11191;'chatte';1;658
e;57444;'chaton';1;666
e;43253;'dormir';1;6056
e;115352;'griffe';1;1040
e;130882;'ronron';1;112
e;2409245;'ron-ron';1;0
e;118539;'poils';1;844
e;87221;'griffer';1;288
e;55001;'ronronner';1;352
e;106844;'allergie';1;402
e;7430223;'=allergy=';1;0