
r;2482106;150;78768;26;30
r;15046060;150;396240;26;30
r;15046879;150;84676;26;30
r;15053102;150;328969;26;30
r;15053164;150;328951;26;30
r;15053342;150;328852;26;30
r;15054540;150;328328;26;30
r;15054625;150;328297;26;30
r;15055975;150;327762;26;30
r;15056227;150;327658;26;30
r;15056261;150;327642;26;30
r;15056387;150;327605;26;30
r;15056525;150;327545;26;30
r;15057693;150;327104;26;30
r;15058159;150;326923;26;30
r;15058887;150;326589;26;30
r;15060030;150;235938;26;30
r;15060165;150;109640;26;30
r;15060283;150;26142;26;30
r;15061124;150;159884;26;30
r;15062681;150;160617;26;30
r;15065038;150;163935;26;30
r;15065446;150;121235;26;30
r;15066064;150;219792;26;30
r;15066975;150;72706;26;30
r;15068682;150;163703;26;30
r;15068809;150;91544;26;30
r;15068829;150;36154;26;30
r;15068923;150;71585;26;30
r;15069592;150;159515;26;30
r;15070465;150;160131;26;30
r;15070596;150;125896;26;30
r;15070716;150;157409;26;30
r;15071103;150;157854;26;30
r;15071896;150;34284;26;30
r;15072396;150;153114;26;30
r;15073606;150;45225;26;30
r;15074379;150;12620;26;30
r;15074504;150;78823;26;30
r;15470602;150;396244;26;30
r;29343726;150;97571;26;30
r;30602238;150;1899103;26;30
r;72771557;150;245371;26;30
r;88024346;150;7943;26;30
r;93309715;150;106016;26;30
r;96698400;150;13501;26;30
r;96698406;150;19153;26;30
r;96698408;150;20537;26;30
r;96698461;150;61829;26;30
r;96698503;150;113792;26;30
r;99105283;150;4344341;26;30
r;99105284;150;4344340;26;30
r;198421593;150;121247;26;30
r;206103562;150;9163138;26;30
r;206103563;150;9163140;26;30
r;206103564;150;9163154;26;30
r;282779093;150;1870640;26;30
r;293318223;150;136186;26;30
r;93566935;150;53344;26;34
r;15069663;150;18834;26;35
r;15073589;150;117557;26;35
r;282779113;150;52004;26;35
r;76265431;150;47466;26;40
r;288792786;150;78197;26;40
r;334594474;150;265777;26;40
r;96698558;150;234280;26;41
r;210505145;150;112269;26;41
r;212891806;150;26043;26;50
r;210643254;150;29105;26;51
r;2482104;150;50739;26;60
r;354984491;150;1476355;26;205