
r;3618518;52077;29791;777;10
r;3618519;273539;29791;777;10
r;3618520;13313;29791;777;10
r;6442618;180538;29791;777;10
r;7301458;89436;29791;777;10
r;7946152;180483;29791;777;10
r;8150160;230037;29791;777;10
r;18237136;581206;29791;777;10
r;72768238;2951281;29791;777;10
r;113405166;5816886;29791;777;10
r;234424305;10119072;29791;777;10
r;250735081;10317338;29791;777;10
r;253298836;10071073;29791;777;10
r;253298837;10071074;29791;777;10
r;274128827;10909768;29791;777;10
r;293233595;11406930;29791;777;10
r;295486331;11502829;29791;777;10
r;325973052;12709614;29791;777;10
r;327827835;244845;29791;777;10