e;29791;'diplodocus';1;70
e;52446;'Diplocaulus';1;50
e;271811;'Animalia';777;50
e;141059;'Ordre';1;52
e;282074;'Saurischia';777;50
e;143853;'Famille';1;50
e;272716;'Genre';777;50
e;13283;'dinosaure';1;220
e;230037;'sauropode';1;50
e;81714;'fossiles';1;54
e;102382;'latin';1;448
e;87784;'chevrons';1;50
e;173673;'Jurassique';1;54
e;276336;'Tithonien';777;50
e;52077;'Apatosaurus';1;50
e;82082;'Pittsburgh';1;50
e;92181;'Pennsylvanie';1;66
e;92375;'Colorado';1;68
e;34577;'Utah';1;58
e;138580;'Montana';1;64
e;11812;'Wyoming';1;54
e;36368;'Andrew Carnegie';1;50
e;65566;'Sheridan';1;50
e;113317;'Paris';1;1530
e;63580;'Autriche';1;158
e;28084;'Bologne';1;70
e;144255;'Milan';1;128
e;118977;'Naples';1;106
e;113669;'Russie';1;1312
e;78448;'Buenos Aires';1;62
e;12153;'Argentine';1;162
e;89142;'Allemagne';1;818
e;58421;'Francfort';1;50
e;96342;'Washington';1;124
e;30233;'Gertie le dinosaure';1;50
e;125779;'Winsor McCay';1;50
e;124140;'grec ancien';1;96
e;166069;'squelettes';1;60
e;17607;'Francfort-sur-le-Main';1;50
e;89436;'Sauropodes';1;50
e;35588;'orteils';1;230
e;148387;'griffes';1;312
e;270986;'Washington DC';1;50
e;273539;'apatosaure';777;50
e;13313;'brontosaure';1;50
e;180538;'mamenchisaurus';1;50
e;180483;'brontosaurus';1;50
e;581206;'apatosaures';777;0
e;2951281;'sauropodes';777;0
e;5816886;'sauropoda';777;0
e;10119072;'Dino Riders';777;0
e;10317338;'Objectif Lotus';777;0
e;10071073;'L'Incroyable Aventure de Big Al';777;0
e;10071074;'The Ballad of Big Al';777;0
e;10909768;'musée d'histoire naturelle de Londres';777;0
e;11406930;'Carnegie Museum of Natural History';777;0
e;11502829;'Samuel Wendell Williston';777;0
e;12709614;'musée Carnegie d'histoire naturelle';777;0
e;244845;'Diplo';1;50