
r;333747517;84319;59303;24;25
r;347571873;84319;105814;24;25
r;2613192;84319;130164;24;30
r;2645354;84319;43601;24;30
r;2662727;84319;2442;24;30
r;2686822;84319;124600;24;30
r;2723381;84319;115440;24;30
r;2800631;84319;251694;24;30
r;2812835;84319;44726;24;30
r;2833761;84319;43253;24;30
r;2867156;84319;99740;24;30
r;2919638;84319;259820;24;30
r;2941747;84319;139709;24;30
r;2956676;84319;47918;24;30
r;3004538;84319;112239;24;30
r;11799680;84319;73827;24;30
r;30568017;84319;234503;24;30
r;78266068;84319;33882;24;30
r;96721819;84319;216564;24;30
r;96721821;84319;24719;24;30
r;96721822;84319;137358;24;30
r;96721827;84319;124550;24;30
r;96721829;84319;33744;24;30
r;96721830;84319;114455;24;30
r;96721861;84319;135139;24;30
r;96721862;84319;78768;24;30
r;96721863;84319;2234;24;30
r;97136436;84319;228339;24;30
r;97136438;84319;63272;24;30
r;140600821;84319;140318;24;30
r;234481006;84319;6681658;24;30
r;276496743;84319;228996;24;30
r;15794624;84319;224422;24;31
r;96721836;84319;106693;24;31
r;96721848;84319;241419;24;31
r;289156978;84319;263297;24;31
r;2863119;84319;213857;24;35
r;329605793;84319;239520;24;41
r;2877375;84319;21927;24;45