
r;34173046;84319;219330;999;1
r;34209629;84319;234035;999;1
r;284894414;84319;2579892;999;1
r;284895249;84319;238553;999;1
r;284895948;84319;238554;999;1
r;284896667;84319;238550;999;1
r;284897383;84319;238552;999;1
r;29702973;84319;225849;999;2
r;34198837;84319;214224;999;2
r;34198884;84319;240984;999;2
r;285487839;84319;214873;999;2
r;285487956;84319;214874;999;2
r;285488077;84319;214875;999;2
r;29659759;84319;225846;999;3
r;29681367;84319;225848;999;4
r;31894282;84319;237441;999;4
r;31965797;84319;237443;999;4
r;285213419;84319;5334952;999;4
r;285213450;84319;5334954;999;4
r;285213482;84319;5334955;999;4
r;285213513;84319;5334951;999;4
r;285213565;84319;213800;999;4
r;285213589;84319;213801;999;4
r;30401790;84319;330963;999;5
r;285134097;84319;262514;999;5
r;284803288;84319;237444;999;8
r;34172899;84319;219328;999;10
r;34172975;84319;219329;999;10