
r;104940394;145332;84319;28;3
r;104940393;121678;84319;28;3
r;104940392;130361;84319;28;3
r;104940391;100534;84319;28;3
r;104937888;218806;84319;28;3
r;104939978;20564;84319;28;3
r;104937408;77306;84319;28;3
r;104941595;146160;84319;28;3
r;104941594;138622;84319;28;3
r;104941593;43196;84319;28;3
r;104938065;225269;84319;28;4
r;104941592;14016;84319;28;4
r;96614880;52255;84319;28;26
r;11338139;117423;84319;28;38
r;11329588;227955;84319;28;39
r;11329589;113743;84319;28;39
r;11329604;9664;84319;28;39
r;11329605;233638;84319;28;39
r;11329606;146105;84319;28;39
r;11323972;218648;84319;28;40