e;84319;'frégate';1;372
e;59303;'se déplacer';1;590
e;105814;'regarder';1;3454
e;115440;'couver';1;148
e;73827;'voler';1;2712
e;112239;'pondre';1;206
e;47918;'boire';1;4348
e;139709;'s'envoler';1;180
e;259820;'vivre>160251';1;50;'vivre>être en vie'
e;99740;'naviguer';1;832
e;43253;'dormir';1;6044
e;44726;'couler';1;702
e;251694;'mourir>126720';1;160;'mourir>cesser de vivre'
e;213857;'voler>167847';1;250;'voler>déplacement aérien'
e;124600;'mourir';1;1774
e;2442;'vivre';1;2204
e;43601;'se reproduire';1;478
e;130164;'manger';1;9676
e;224422;'manger>113902>119570';1;196;'manger>alimentation>absorber'
e;234503;'sombrer>30171';1;16;'sombrer>navire'
e;228339;'déraper>123745';1;18;'déraper>véhicule'
e;63272;'déraper';1;152
e;241419;'tirer>145948';1;22;'tirer>arme'
e;124550;'tirer';1;2092
e;33744;'défendre';1;514
e;135139;'planer';1;324
e;78768;'chasser';1;936
e;2234;'copuler';1;176
e;216564;'couler>21927';1;54;'couler>sombrer'
e;24719;'flotter';1;232
e;140318;'parler';1;3808
e;6681658;'manger>113902';1;14;'manger>alimentation'
e;228996;'flotter>98136';1;24;'flotter>surnager'
e;263297;'lancer un missile';1;50
e;239520;'pondre>117095';1;12;'pondre>zoologie'
e;33882;'se nourrir';1;374
e;106693;'escorter';1;56
e;21927;'sombrer';1;164
e;114455;'protéger';1;1184
e;137358;'jeter l'ancre';1;86