e;84319;'frégate';1;372
e;134491;'métro';1;948
e;52255;'arbre';1;5044
e;233138;'tête>390963';1;42;'tête>extrémité supérieure du corps'
e;11158424;'École Polytechnique';1;0
e;144846;'tête';1;5464
e;225269;'rade>108952';1;52;'rade>baie'
e;121678;'route';1;3966
e;145332;'casse';1;242
e;77306;'ciel';1;2582
e;138622;'Atlantique';1;184
e;218806;'ciel>212';1;10;'ciel>atmosphère'
e;100534;'autoroute';1;1336
e;130361;'garage';1;1216
e;14016;'rade';1;74
e;43196;'chantier naval';1;60
e;146160;'détroit';1;78
e;20564;'rue';1;6675
e;233638;'mer>218698';1;176;'mer>étendue d'eau'
e;113743;'port';1;852
e;227955;'port>123977';1;24;'port>maritime'
e;218648;'arbre>136507';1;256;'arbre>végétal'
e;117423;'bouteille';1;2194
e;146105;'mer';1;8964
e;9664;'océan';1;3118
e;42739;'matelot';1;146
e;139331;'voile';1;1478
e;8595;'corde';1;1674
e;43839;'roue';1;1960
e;21314;'carburant';1;504
e;93100;'capitaine';1;778
e;11343;'gouvernail';1;276
e;4245;'batterie';1;386
e;39621;'marin';1;1322