e;11343;'gouvernail';1;276
e;600036;'safran>171870';1;0;'safran>Nom:'
e;595652;'conduite>171870';1;0;'conduite>Nom:'
e;84746;'safran';1;224
e;216988;'safran>143712';1;50;'safran>marine'
e;16875;'direction';1;956
e;72215;'gouvernement';1;788
e;93561;'timon';1;52
e;139821;'peautre';1;50
e;59085;'empennage';1;58
e;92553;'leviers de commande';1;50
e;127502;'conduite';1;430
e;22380;'manche à balai';1;88
e;142381;'barre';1;490
e;5977;'gouverne';1;54
e;237075;'barre>30171';1;50;'barre>navire'