
r;2172639;237081;11343;10;-1
r;9976836;115126;11343;10;4
r;9976445;43839;11343;10;4
r;9976443;134927;11343;10;4
r;9976441;96256;11343;10;4
r;9978862;27474;11343;10;4
r;9977049;7104;11343;10;4
r;9976834;141959;11343;10;6
r;594392;84746;11343;10;28
r;1963105;237075;11343;10;28
r;2047210;216988;11343;10;28
r;9979368;7608;11343;10;28
r;356601;142381;11343;10;63