e;11343;'gouvernail';1;276
e;107150;'bateau';1;5570
e;22467;'voiles';1;98
e;139331;'voile';1;1478
e;158646;'grément';1;50
e;143712;'marine';1;1228
e;170112;'navigation à voile';1;52
e;156325;'marine à voile';1;72
e;64163;'navigation';1;496
e;153590;'voiliers';1;56
e;46517;'gréements';1;50
e;54059;'gréement';1;86
e;98762;'bateaux';1;76