
r;237036971;103664;74860;150;25
r;31631301;186897;74860;150;28
r;29446225;1796938;74860;150;30
r;91920872;1600338;74860;150;31
r;218398491;104996;74860;150;51
r;237575906;1649640;74860;150;51
r;237021987;152336;74860;150;61
r;62270400;155877;74860;150;91