e;74860;'homme';1;28276
e;626;'peur';1;4970
e;9683;'tendresse';1;1356
e;14330;'satisfaction';1;522
e;28453;'bonheur';1;2102
e;91691;'surprise';1;1070
e;37298;'amour';1;6818
e;103405;'indifférence';1;484