
r;3289956;74860;140801;777;8
r;3290015;74860;143945;777;8
r;3290080;74860;8768;777;8
r;3290167;74860;36143;777;8
r;3290245;74860;105600;777;8
r;3290304;74860;128537;777;8
r;3290369;74860;188169;777;8
r;3290431;74860;7286;777;8
r;3290504;74860;233643;777;8
r;3290575;74860;66247;777;8
r;3290744;74860;69199;777;8
r;3290831;74860;140640;777;8
r;3290897;74860;18302;777;8
r;3290998;74860;46707;777;8
r;3291086;74860;44157;777;8
r;3291175;74860;63089;777;8
r;3291280;74860;60607;777;8
r;3291371;74860;142659;777;8
r;3291918;74860;95245;777;8
r;3292051;74860;121714;777;8
r;3292131;74860;120864;777;8
r;3292219;74860;187562;777;8
r;3292295;74860;44335;777;8
r;3292361;74860;149413;777;8
r;3292425;74860;145091;777;8
r;3292495;74860;109785;777;8
r;3292571;74860;22889;777;8
r;3292638;74860;44659;777;8
r;3292723;74860;115155;777;8
r;3292798;74860;39031;777;8
r;3292876;74860;140832;777;8
r;3292953;74860;74558;777;8
r;3293053;74860;149242;777;8
r;3293137;74860;58605;777;8
r;3293210;74860;110367;777;8
r;3293289;74860;271843;777;8
r;3293360;74860;10432;777;8
r;3293423;74860;230153;777;8
r;3293491;74860;2957;777;8
r;3293630;74860;212359;777;8
r;3293691;74860;147339;777;8
r;3293767;74860;133215;777;8
r;3293874;74860;19266;777;8
r;3293954;74860;97035;777;8
r;3332156;74860;110980;777;8
r;3332487;74860;152690;777;8
r;3332584;74860;72302;777;8
r;3333083;74860;151850;777;8
r;3333282;74860;125402;777;8
r;3333498;74860;153082;777;8
r;3333703;74860;109841;777;8
r;3333910;74860;39163;777;8
r;3334125;74860;152162;777;8
r;3334332;74860;152293;777;8
r;3334556;74860;141272;777;8
r;3334901;74860;207572;777;8
r;3335132;74860;184196;777;8
r;3335440;74860;152396;777;8
r;3335545;74860;246847;777;8
r;3335858;74860;30520;777;8
r;3335966;74860;84346;777;8
r;3336161;74860;218863;777;8
r;3336463;74860;97647;777;8
r;3336543;74860;155735;777;8
r;3336803;74860;153225;777;8
r;3336886;74860;8029;777;8
r;3337145;74860;140885;777;8
r;3337219;74860;155741;777;8
r;3337401;74860;50072;777;8
r;3337600;74860;69196;777;8
r;3337778;74860;251588;777;8
r;3338001;74860;152187;777;8
r;3338084;74860;31057;777;8
r;3338322;74860;125695;777;8
r;3338402;74860;79015;777;8
r;3338503;74860;56799;777;8
r;3338585;74860;23661;777;8
r;3338768;74860;35925;777;8
r;3338954;74860;58144;777;8
r;3339101;74860;106717;777;8
r;3339236;74860;83511;777;8
r;3339380;74860;227116;777;8
r;3339547;74860;56442;777;8
r;3339731;74860;125856;777;8
r;3339972;74860;152952;777;8
r;3340046;74860;79983;777;8
r;3340320;74860;138050;777;8
r;3340453;74860;220648;777;8
r;3340582;74860;195993;777;8
r;3340749;74860;73890;777;8
r;3340930;74860;152210;777;8
r;3340971;74860;96098;777;8
r;3341066;74860;31967;777;8
r;3341177;74860;29845;777;8
r;3341302;74860;52207;777;8
r;3341434;74860;11341;777;8
r;3341567;74860;170750;777;8
r;3341710;74860;219944;777;8
r;3341816;74860;86466;777;8
r;3342043;74860;224285;777;8
r;3342301;74860;152488;777;8
r;3342353;74860;22885;777;8
r;3342487;74860;106169;777;8
r;3342583;74860;212339;777;8
r;3342696;74860;89424;777;8
r;3342838;74860;152208;777;8
r;3342880;74860;7159;777;8
r;3342956;74860;110208;777;8
r;3343057;74860;138434;777;8
r;3343149;74860;124771;777;8
r;3343231;74860;81180;777;8
r;3343295;74860;142914;777;8
r;3343400;74860;143853;777;8
r;3343433;74860;98300;777;8
r;3343507;74860;105372;777;8
r;3343599;74860;20219;777;8
r;3343684;74860;9732;777;8
r;3343806;74860;94426;777;8
r;3343843;74860;213904;777;8
r;3343929;74860;154966;777;8
r;3344012;74860;195994;777;8
r;3344092;74860;152745;777;8
r;3344120;74860;57933;777;8
r;3344207;74860;43058;777;8
r;3344322;74860;53314;777;8
r;3344373;74860;123430;777;8
r;3344459;74860;35352;777;8
r;3344539;74860;167552;777;8
r;3344638;74860;112476;777;8
r;3344716;74860;137391;777;8
r;3344726;74860;115394;777;8
r;3344749;74860;42313;777;8
r;3344774;74860;77735;777;8
r;3344783;74860;140581;777;8
r;3344840;74860;96370;777;8
r;3344868;74860;104406;777;8
r;3344889;74860;129342;777;8
r;3344897;74860;119231;777;8
r;3344915;74860;66585;777;8
r;3344917;74860;24251;777;8
r;3344932;74860;59900;777;8
r;3344945;74860;233334;777;8
r;3344974;74860;151908;777;8
r;3344975;74860;102206;777;8
r;3344984;74860;151907;777;8
r;3345004;74860;145360;777;8
r;3345019;74860;95402;777;8
r;3345043;74860;65961;777;8
r;3345056;74860;138401;777;8
r;3345079;74860;55668;777;8
r;3345100;74860;17432;777;8
r;3345125;74860;32497;777;8
r;3345131;74860;117488;777;8
r;3345138;74860;68514;777;8
r;3345140;74860;17267;777;8
r;3345151;74860;95457;777;8
r;3345178;74860;151684;777;8
r;3345179;74860;23157;777;8
r;3345202;74860;131321;777;8
r;3345252;74860;4273;777;8
r;3345268;74860;47489;777;8
r;3345286;74860;221310;777;8
r;3345290;74860;83079;777;8
r;3345298;74860;127313;777;8
r;5380679;74860;276033;777;8
r;6827162;74860;152183;777;8
r;6827166;74860;32119;777;8
r;6827170;74860;131523;777;8
r;6827176;74860;87987;777;8
r;6827177;74860;146821;777;8
r;6827185;74860;58648;777;8
r;6827190;74860;90968;777;8
r;6827196;74860;275204;777;8
r;6827197;74860;275203;777;8
r;6909691;74860;279617;777;8
r;7224063;74860;298472;777;8
r;7795798;74860;141466;777;8
r;7795800;74860;47822;777;8
r;7795802;74860;124140;777;8
r;7795804;74860;81566;777;8
r;7795806;74860;26055;777;8
r;7795808;74860;121445;777;8
r;8901458;74860;103630;777;8
r;8901462;74860;111410;777;8
r;8901481;74860;98596;777;8
r;8901485;74860;152688;777;8
r;8901486;74860;1376;777;8
r;8901490;74860;302677;777;8
r;21180172;74860;294182;777;9
r;21180176;74860;435764;777;9
r;21180180;74860;112576;777;9
r;21180182;74860;248140;777;9
r;21180184;74860;56298;777;9
r;21180186;74860;71295;777;9
r;21180189;74860;109754;777;9
r;21180191;74860;156198;777;9
r;21180193;74860;425525;777;9
r;21180197;74860;414685;777;9
r;21180201;74860;397517;777;9
r;21180204;74860;405825;777;9
r;21180214;74860;428313;777;9
r;21180217;74860;411477;777;9
r;21180224;74860;313732;777;9
r;21180228;74860;374333;777;9
r;21180231;74860;272716;777;9
r;22106862;74860;428464;777;9
r;22106868;74860;292126;777;9
r;22106869;74860;142939;777;9
r;24699032;74860;174932;777;10
r;24699033;74860;62067;777;10
r;27637490;74860;397796;777;10
r;27637496;74860;213114;777;10
r;27637507;74860;89789;777;10
r;27637511;74860;18578;777;10
r;27637515;74860;207590;777;10
r;27637519;74860;88331;777;10
r;29801573;74860;410001;777;10
r;29801574;74860;80635;777;10
r;122801526;74860;3072;777;10
r;122801525;74860;137489;777;10
r;122801517;74860;5558146;777;10
r;122801511;74860;5722697;777;10
r;122801516;74860;320291;777;10
r;122801513;74860;2298523;777;10
r;122801518;74860;110253;777;10
r;122801505;74860;159947;777;10
r;122801515;74860;92260;777;10
r;122801519;74860;230252;777;10
r;122801514;74860;409226;777;10
r;122801500;74860;5570573;777;10
r;122801509;74860;51515;777;10
r;122801522;74860;130920;777;10
r;122801499;74860;6264014;777;10
r;122801498;74860;142342;777;10
r;122801520;74860;29070;777;10
r;122801503;74860;254483;777;10
r;122801527;74860;155770;777;10
r;122801529;74860;232768;777;10
r;122801510;74860;135496;777;10
r;122801496;74860;3695101;777;10
r;122801502;74860;78127;777;10
r;122801524;74860;389397;777;10
r;122801501;74860;401746;777;10
r;122801504;74860;138208;777;10
r;122801521;74860;38344;777;10
r;122801512;74860;144899;777;10
r;122801506;74860;164025;777;10
r;122801497;74860;5684638;777;10
r;122801528;74860;134142;777;10
r;122801507;74860;6767;777;10
r;122801523;74860;27747;777;10
r;122801508;74860;68898;777;10
r;31875258;74860;1854287;777;10
r;76497181;74860;156197;777;10
r;76497183;74860;274762;777;10
r;76497184;74860;20981;777;10
r;76497191;74860;416724;777;10
r;76497192;74860;77487;777;10
r;76497195;74860;49455;777;10
r;76497196;74860;101716;777;10
r;76497198;74860;252632;777;10
r;76497200;74860;75266;777;10
r;76497201;74860;123732;777;10
r;76497203;74860;13673;777;10
r;76497204;74860;143703;777;10
r;76497205;74860;5967;777;10
r;76497207;74860;99171;777;10
r;76497210;74860;435519;777;10
r;76497211;74860;25568;777;10
r;76497214;74860;52493;777;10
r;76497215;74860;141639;777;10
r;76497220;74860;398534;777;10
r;76497225;74860;413804;777;10
r;76497227;74860;142229;777;10
r;76497228;74860;80973;777;10
r;76497231;74860;141172;777;10
r;76497232;74860;34858;777;10
r;76497233;74860;427692;777;10
r;76497234;74860;102382;777;10
r;76497237;74860;60853;777;10
r;76497240;74860;7589;777;10
r;76497243;74860;143336;777;10
r;76497244;74860;107548;777;10
r;76497246;74860;152685;777;10
r;76497247;74860;144349;777;10
r;76497250;74860;33319;777;10
r;76497251;74860;15210;777;10
r;76497255;74860;153176;777;10
r;76497256;74860;333840;777;10
r;76497261;74860;91999;777;10
r;76497266;74860;2429824;777;10
r;76497270;74860;182733;777;10
r;76497271;74860;144083;777;10
r;76497273;74860;275142;777;10
r;76497275;74860;160715;777;10
r;76497278;74860;2546;777;10
r;76497279;74860;164433;777;10
r;76497281;74860;66069;777;10
r;76497284;74860;427231;777;10
r;76497286;74860;234907;777;10
r;76497288;74860;51617;777;10
r;76497291;74860;37566;777;10
r;76497296;74860;257687;777;10
r;76497298;74860;412258;777;10
r;76497299;74860;44092;777;10
r;76497304;74860;2582900;777;10
r;76497305;74860;22714;777;10
r;76497309;74860;66343;777;10
r;76497312;74860;142846;777;10
r;76497313;74860;8482;777;10
r;76497317;74860;2928512;777;10
r;76497319;74860;112758;777;10
r;76497321;74860;180446;777;10
r;76497323;74860;120360;777;10
r;76497324;74860;153644;777;10
r;76497328;74860;2549126;777;10
r;76497330;74860;83522;777;10
r;76497332;74860;1650866;777;10
r;76497334;74860;390629;777;10
r;76497336;74860;98704;777;10
r;76497338;74860;1495434;777;10
r;76497339;74860;265266;777;10
r;76497341;74860;411997;777;10
r;76497342;74860;431266;777;10
r;76497343;74860;60240;777;10
r;76497344;74860;11902;777;10
r;76497345;74860;81714;777;10
r;76497347;74860;272175;777;10
r;76497350;74860;396310;777;10
r;76497351;74860;396309;777;10
r;76497356;74860;282273;777;10
r;76497357;74860;2927828;777;10
r;76497360;74860;62202;777;10
r;76497362;74860;144726;777;10
r;76497363;74860;91361;777;10
r;77627650;74860;2573126;777;10
r;77627654;74860;2538270;777;10
r;119832745;74860;1964471;777;10
r;192851230;74860;5829753;777;10
r;192851231;74860;5965662;777;10
r;192851232;74860;2045388;777;10
r;192851233;74860;258284;777;10
r;192851234;74860;415506;777;10
r;192851235;74860;2095696;777;10
r;192851236;74860;393641;777;10
r;192851237;74860;129025;777;10
r;220898206;74860;9946110;777;10
r;220898212;74860;4301825;777;10
r;220898222;74860;9657193;777;10
r;229257550;74860;10058161;777;10
r;229257551;74860;10058168;777;10
r;229257552;74860;10058174;777;10
r;232272612;74860;10078784;777;10
r;246425245;74860;6066746;777;10
r;263361572;74860;10061763;777;10
r;267106937;74860;10603120;777;10
r;273130488;74860;10868419;777;10
r;273130489;74860;10849261;777;10
r;277412687;74860;2457642;777;10
r;277412688;74860;151490;777;10
r;278858978;74860;11008738;777;10
r;284965786;74860;106562;777;10
r;284965837;74860;434528;777;10
r;284965838;74860;21649;777;10
r;289911000;74860;2975531;777;10
r;291383580;74860;11076551;777;10
r;305369886;74860;11773368;777;10
r;314112694;74860;130715;777;10
r;354058102;74860;14012650;777;10