
r;3176788;74860;154444;106;1
r;3179334;74860;166525;106;1
r;3186591;74860;26976;106;1
r;3191768;74860;116908;106;1
r;3196616;74860;136539;106;1
r;12981751;74860;155346;106;1
r;3180452;74860;60;106;2
r;3180758;74860;43777;106;2
r;3180759;74860;47964;106;2
r;3185769;74860;132479;106;2
r;3180245;74860;14195;106;3
r;3163107;74860;269561;106;4
r;3175125;74860;8542;106;6
r;3176789;74860;61835;106;6
r;3168250;74860;14189;106;8
r;3175124;74860;86356;106;10
r;3168248;74860;64238;106;11
r;3189414;74860;39636;106;11
r;3176787;74860;75869;106;17
r;3168249;74860;86711;106;18
r;3154723;74860;145583;106;23
r;3168247;74860;15196;106;23
r;3176795;74860;49402;106;27
r;3184485;74860;143532;106;490
r;11528422;74860;220349;106;601
r;3164959;74860;26117;106;630