e;74860;'homme';1;28276
e;143334;'Mammifères';1;52
e;33840;'primate';1;348
e;146367;'histoire';1;4036
e;152125;'Zoologie';1;208
e;63235;'mammifère';1;3547
e;144939;'primates';1;60
e;38867;'philosophie';1;1024
e;117095;'zoologie';1;1544
e;71539;'animaux';1;1382
e;112609;'anatomie';1;2738
e;104647;'primatologie';1;56
e;175720;'Mammalia';1;50
e;6948258;'=mammalia=';1;0
e;32851;'mammifères';1;144
e;6947917;'=vertebrata=';1;0
e;143669;'vertébrés';1;80