e;74860;'homme';1;28276
e;9743773;'=raft=';1;0
e;87632;'rizière';1;172
e;50195;'piano';1;916
e;105872;'éléphant';1;842
e;153924;'TER';1;124
e;248804;'Outre-mer';1;50
e;2945273;'caverne>252201';1;2;'caverne>cavité naturelle'
e;329825;'armée>326348';1;64;'armée>force militaire'
e;72257;'base';1;234
e;251726;'gendarmerie>12803';1;50;'gendarmerie>caserne'
e;206087;'premier plan';1;56
e;107150;'bateau';1;5570
e;57933;'guerre';1;5547
e;242201;'tranchée>146050';1;52;'tranchée>militaire'
e;262513;'navire de guerre>136307';1;54;'navire de guerre>moderne'
e;122355;'tranchée';1;198
e;162704;'sous le lit';1;66
e;215720;'voiture>95706';1;672;'voiture>automobile'
e;243185;'faroueste';1;50
e;69587;'tank';1;152
e;11866;'porte-avions';1;182
e;83248;'île';1;1346
e;86961;'Warcraft';1;50
e;14265;'Irak';1;258
e;173150;'Groënland';1;50
e;316476;'rayon homme';1;50
e;166446;'rue piétonne';1;86
e;120416;'grenier';1;588
e;90516;'plateau';1;514
e;134065;'stade';1;1400
e;158725;'far west';1;72
e;164963;'farwest';1;80
e;40066;'latomie';1;50
e;215721;'voiture>27120';1;28;'voiture>train'
e;265009;'Foch>11866';1;50;'Foch>porte-avions'
e;17023;'cage';1;840
e;245060;'voie piétonne';1;4
e;27120;'train';1;3212
e;233404;'camp>146050';1;50;'camp>militaire'
e;318665;'Charles de Gaulle>11866';1;50;'Charles de Gaulle>porte-avions'
e;157283;'lieu>134218';1;168;'lieu>endroit'
e;36026;'Far West';1;92
e;22218;'camp';1;450
e;21169;'gendarmerie';1;288
e;7558;'chorale';1;340
e;184150;'rue piétonnière';1;8
e;327360;'::>14:145994>29:36906';8;50;'rédiger [objet] lettre'
e;233093;'blindé>123745';1;54;'blindé>véhicule'
e;28722;'cachette';1;296
e;202104;'in pace';1;50
e;135737;'Tunisie';1;234
e;2496939;'Jacuzzi';1;0
e;96899;'Tchécoslovaquie';1;138
e;163503;'Far-West';1;56
e;232663;'allée piétonne';1;50
e;228841;'bord de route';1;16
e;96256;'bois';1;4734
e;46079;'champ de bataille';1;432
e;241691;'baignoire>152733';1;40;'baignoire>salle de bain'
e;321951;'hôtel>9575';1;22;'hôtel>tourisme'
e;19522;'villa';1;484
e;251050;'plage payante';1;12
e;173140;'Galles';1;50
e;152887;'marais salant';1;96
e;131592;'Groenland';1;78
e;247077;'agence de renseignement';1;52
e;29786;'ferme';1;2022
e;22546;'radeau';1;120
e;80522;'jacuzzi';1;62
e;154050;'sac de couchage';1;260
e;252169;'univers concentrationnaire';1;4
e;7928;'pelouse';1;576
e;27097;'gymnase';1;368
e;213438;'piano>70527';1;52;'piano>musique'
e;251402;'veste en daim';1;20
e;131418;'cercueil';1;510
e;260842;'TER>27120';1;24;'TER>train'
e;250861;'plage naturiste';1;18
e;181000;'banc public';1;32
e;15703;'synagogue';1;152
e;232000;'bain à remous';1;4
e;102000;'hôtel';1;1444
e;158242;'salon de beauté';1;78
e;154946;'restau du coeur';1;50
e;68291;'Genève';1;100
e;48654;'rêve';1;1032
e;50229;'Athènes';1;346
e;16729;'maison de retraite';1;250
e;42074;'dortoir';1;254
e;61921;'Italie';1;1963
e;132716;'baignoire';1;990
e;46453;'douane';1;250
e;117679;'hamac';1;254
e;55077;'chemin';1;1422
e;107799;'matelas';1;916
e;48041;'sauna';1;234
e;87887;'village';1;2256
e;142563;'monde';1;1002
e;146476;'tente';1;796
e;122393;'plage';1;3136
e;4825;'maternité';1;510
e;132857;'chaise';1;2204
e;4533;'fauteuil';1;1472
e;79444;'campagne';1;2800
e;143607;'nature';1;1550
e;132350;'région';1;2064
e;12803;'caserne';1;204
e;111394;'département';1;1444
e;98426;'bataillon';1;142
e;155683;'salle de bains';1;270
e;87987;'France';1;2588
e;61016;'prison';1;2626
e;19654;'bar';1;2402
e;71578;'lit';1;5824
e;42313;'Asie';1;1004
e;249726;'maternité>77864';1;26;'maternité>établissement'
e;144850;'armée';1;2428
e;71467;'télévision';1;3318
e;97756;'avion';1;5253
e;140904;'asile';1;300
e;3568;'zonzon';1;54
e;152733;'salle de bain';1;1358
e;70283;'travail';1;4168
e;6890;'voiture';1;11046
e;133314;'mairie';1;1254
e;24742;'cinéma';1;6682
e;115880;'commissariat';1;350
e;91240;'école';1;7440
e;8254;'bureau';1;2474
e;139892;'Terre';1;1182
e;90075;'chambre';1;4992
e;40355;'continent';1;1216
e;136786;'ville';1;8690
e;20564;'rue';1;6675
e;22243;'pays';1;4822
e;66324;'café';1;3500
e;25705;'terre';1;4056
e;35676;'canapé';1;1194
e;45179;'maison';1;12106
e;266262;'monogènes';1;14
e;437911;'syndrome d'Asherman';1;2
e;238842;'pénis perforateur';1;4
e;161815;'vaisseau sanguin';1;190
e;214995;'main>157827';1;394;'main>partie du corps'
e;17834;'favori';1;162
e;213644;'os>116980';1;296;'os>squelette'
e;123171;'sous-ordre';1;52
e;221035;'bras>4533';1;4;'bras>fauteuil'
e;228514;'sang>68107';1;50;'sang>combat'
e;233035;'jambe>28805';1;6;'jambe>oenologie'
e;241860;'oreille>50751';1;36;'oreille>ouïe'
e;22889;'intestin';1;564
e;13425;'bouc';1;208
e;51110;'pine';1;64
e;79853;'regard';1;1018
e;221019;'bouche>112609';1;158;'bouche>anatomie'
e;124919;'bec';1;1956
e;154139;'voile de mariée';1;52
e;33125;'lombalgie';1;150
e;145948;'arme';1;2978
e;6297147;'bronchopneumopathies chroniques obstructives';1;0
e;6316512;'embolies pulmonaires';1;0
e;151;'uniforme';1;314
e;220945;'uniforme>120949';1;18;'uniforme>vêtement'
e;218465;'pupille>77424';1;50;'pupille>oeil'
e;221034;'bras>112609';1;136;'bras>anatomie'
e;1977461;'dégénérescence graisseuse';1;0
e;6339670;'dégénérescence stéatosique';1;0
e;6352808;'dégénérescence lipoïdique';1;0
e;6328192;'carcinome hépato-cellulaire';1;0
e;411005;'lung';1;50
e;594099;'blood';1;0
e;6802231;'=eye=';1;0
e;148104;'eye';1;50
e;174120;'il';1;4
e;47331;'calcul';1;1050
e;122824;'phalange';1;590
e;38713;'polype';1;74
e;125457;'stéatose';1;54
e;6807830;'=steatosis=';1;0
e;9097837;'=fatty degeneration=';1;0
e;315834;'artère tibiale antérieure';1;50
e;460255;'nerf fibulaire profond';1;50
e;178095;'bronchocèle';1;50
e;14074;'caillot';1;130
e;2933119;'muscle accessoire';1;0
e;313778;'bronchogramme aérique';1;50
e;1844875;'sommet du poumon';1;0
e;9097791;'=structure of apex of lung=';1;0
e;582275;'tibiotalaire';1;0
e;1850924;'tumeur de Klatskin';1;0
e;6834459;'=hilar cholangiocarcinoma=';1;0
e;6307589;'cholangiocarcinome hilaire';1;0
e;4876661;'stéatose hépatique non alcoolique';1;0
e;6819323;'=nonalcoholic steatohepatitis=';1;0
e;391853;'protéinose alvéolaire pulmonaire';1;50
e;45844;'veine';1;677
e;213714;'veine>161815';1;38;'veine>vaisseau sanguin'
e;6834582;'=vein=';1;0
e;6816637;'=anterior tibial artery=';1;0
e;6296378;'muscle flasque';1;0
e;165447;'vesicule biliaire';1;50
e;145641;'platine';1;142
e;6820058;'=fasciculation=';1;0
e;221652;'nerf ulnaire';1;70
e;114420;'artère';1;492
e;99519;'circulation sanguine';1;90
e;108068;'nodule';1;68
e;6302851;'tumeur maligne sous forme de lésion à localisations contiguës des organes génitaux de l'homme';1;0
e;6296017;'tumeur maligne du sein de l'homme';1;0
e;6401665;'tumeur bénigne des organes génitaux de l'homme';1;0
e;125252;'prépuce';1;164
e;314881;'HTA';1;4
e;2348241;'muscle lombrical de la main';1;0
e;1820876;'muscle fléchisseur commun superficiel des doigts';1;0
e;180841;'alvéole pulmonaire';1;10
e;94293;'amylose';1;56
e;115155;'foie';1;830
e;295501;'artériopathie oblitérante des membres inférieurs';777;50
e;6382578;'tumeur maligne du mamelon du sein de l'homme';1;0
e;213795;'artère>161815';1;104;'artère>vaisseau sanguin'
e;1917155;'muscle quadrilatère';1;0
e;1908939;'corps caverneux du pénis';1;0
e;257391;'lobe pulmonaire';1;50
e;262697;'métastase hépatique';1;2
e;315989;'embolie graisseuse';1;50
e;37930;'silicose';1;52
e;6326109;'organe caverneux du pénis';1;0
e;6390282;'lésion à localisations contiguës des organes génitaux de l'homme';1;0
e;6350802;'carcinome in situ du mamelon du sein de l'homme';1;0
e;151504;'SRAS';1;54
e;164756;'parasite intestinal';1;52
e;215612;'phalange>62706';1;40;'phalange>doigt'
e;18175;'kyste';1;98
e;1737295;'kyste anévrysmal de l'os';1;0
e;463675;'kyste osseux anévrismal';1;50
e;225770;'organe>112609';1;74;'organe>anatomie'
e;1661103;'granulomatose avec polyangéite';1;0
e;6394095;'tumeur maligne des voies génito-urinaires de l'homme';1;0
e;6310488;'tumeur bénigne du mamelon du sein de l'homme';1;0
e;6427827;'maladie urogénitale de l'homme';1;0
e;313467;'foie de choc';1;50
e;320075;'maladie de Wilson';1;2
e;464923;'dacryocystocèle';1;50
e;11999;'chondrosarcome';1;50
e;1846857;'tuberculome';1;0
e;1856959;'dacryocèle';1;0
e;313850;'infarctus pulmonaire';1;50
e;3382350;'infarctus du poumon';1;0
e;1466165;'fracture de Segond';1;0
e;319743;'lobe supérieur du poumon droit';1;50
e;6363020;'carcinome in situ du sein de l'homme';1;0
e;9904002;'paroi vasculaire';1;0
e;1838142;'lymphangite carcinomateuse';1;0
e;1735661;'maladie de Kienböck';1;2
e;7341670;'=lymphangitic carcinomatosis=';1;0
e;9144205;'=lymphangitis carcinomatosa=';1;0
e;14139849;'Muscle lombrical de la main';777;0
e;263744;'lobe caudé';1;18
e;1778560;'corps caverneux du penis';1;0
e;262700;'hémangiome hépatique';1;50
e;130400;'maladie';1;7661
e;1829384;'canalicule biliaire';1;0
e;262701;'angiome hépatique';1;50
e;316813;'hépatoblastome';1;50
e;1847187;'syndrome uréthropérinéal de l'homme';1;0
e;6394871;'tumeur métastatique du sein de l'homme';1;0
e;463465;'pneumonie communautaire';1;50
e;6827371;'=community-acquired pneumonia=';1;0
e;85552;'corps étranger';1;68
e;1474545;'protéinose alvéolaire';1;0
e;315621;'artère pulmonaire';1;20
e;184878;'AP';1;50
e;218475;'polype>102206';1;4;'polype>médecine'
e;255480;'fracture du pénis';1;50
e;214641;'calcul>102206';1;26;'calcul>médecine'
e;10068;'lithiase';1;82
e;1820219;'grande scissure du poumon droit';1;0
e;2399732;'lithiasie';1;0
e;127000;'mouche';1;778
e;3081299;'ostéochondrose déformante du tibia';1;0
e;1828945;'maladie de Blount';1;0
e;6797134;'=polyp=';1;0
e;6418396;'tumeur métastatique des tissus mammaires ectopiques de l'homme';1;0
e;6383440;'tumeur maligne des tissus mammaires ectopiques de l'homme';1;0
e;6344517;'tumeur bénigne du sein de l'homme';1;0
e;6426531;'tumeur bénigne des tissus mammaires ectopiques de l'homme';1;0
e;6306963;'corps caverneux de la verge';1;0
e;6402355;'tumeur secondaire du sein de l'homme';1;0
e;6351869;'tumeur du sein de l'homme';1;0
e;313853;'OAP';1;50
e;440616;'ligament hépato-ombilical';1;50
e;359961;'jambier postérieur';1;50
e;460200;'tibial postérieur';1;50
e;97984;'dermatomyosite';1;50
e;463370;'fracture du plateau tibial';1;52
e;1832920;'empyème pleural';1;0
e;133097;'atélectasie';1;50
e;463896;'cancer du sein de l'homme';1;50
e;153073;'patte d'oie';1;66
e;460065;'nerf sciatique poplité interne';1;50
e;264862;'hépatocarcinome';1;2
e;246331;'fracture ouverte';1;50
e;261790;'carcinome hépatocellulaire';1;10
e;135857;'cryptorchidie';1;50
e;197993;'corps caverneux';1;128
e;6336225;'carcinome in situ des tissus mammaires ectopiques de l'homme';1;0
e;6843497;'=open fracture=';1;0
e;6833900;'=pulmonary alveolar proteinosis=';1;0
e;1735662;'Kienböck';1;0
e;2237818;'ostéonécroses';2;0
e;6286538;'maladie du semi-lunaire';1;0
e;6319304;'ostéonécrose du semi-lunaire';1;0
e;6396227;'ostéochondrite du semi-lunaire';1;0
e;22295;'anévrisme';1;136
e;109459;'anévrysme';1;58
e;68183;'cil';1;272
e;6327107;'tumeur secondaire des tissus mammaires ectopiques de l'homme';1;0
e;456155;'appendice fibreux du foie';1;50
e;6807211;'=lung=';1;0
e;314548;'dissection aortique';1;2
e;319866;'muscle quadriceps fémoral';1;8
e;6816687;'=quadriceps muscle of the thigh=';1;0
e;1838242;'maladie de Madelung';1;0
e;6798769;'=kienbock disease=';1;0
e;6847886;'=juvenile osteochondrosis of carpal lunate=';1;0
e;238487;'douleur musculaire';1;6
e;21568;'ostéonécrose';1;50
e;112179;'quadriceps';1;128
e;266008;'artère hépatique';1;8
e;315597;'canal hépatique';1;52
e;456213;'conduit hépatique commun';1;50
e;65012;'eau';1;10555
e;2349750;'adénolipomatose symétrique à prédominance cervicale';1;0
e;320106;'troubles du comportement alimentaire';1;4
e;280754;'troubles des conduites alimentaires';777;50
e;280530;'tca';777;50
e;262398;'troubles de comportement alimentaire';1;50
e;280755;'troubles des comportements alimentaires';777;50
e;197235;'canal cystique';1;50
e;2842780;'interstitium intralobulaire';1;0
e;325774;'muscle tibial antérieur';1;52
e;1841754;'pneumonie nécrosante';1;0
e;103791;'poumon';1;928
e;72065;'ascite';1;60
e;12300796;'HTA>180220';1;0;'HTA>hypertension artérielle'
e;49098;'muguet';1;248
e;180220;'hypertension artérielle';1;82
e;62706;'doigt';1;2702
e;67946;'peste';1;250
e;3764409;'épanchement liquidien intra-abdominal';1;0
e;3305417;'fracture de marche';1;0
e;270229;'fracture de contrainte';1;50
e;4843;'pneumothorax';1;64
e;214191;'mouche>143401';1;50;'mouche>barbe'
e;56457;'tatouage';1;200
e;260012;'petit kiki';1;50
e;261138;'horloge circadienne';1;16
e;261134;'organe>112609>34503';1;50;'organe>anatomie>pénis'
e;118879;'parasitose';1;140
e;253539;'infection parasitaire';1;80
e;225604;'foie>112609';1;120;'foie>anatomie'
e;119973;'carpe';1;236
e;213028;'peste noire';1;52
e;213029;'peste bubonique';1;42
e;265652;'vers plats';1;4
e;142844;'Nématodes';1;50
e;265651;'vers ronds';1;50
e;75665;'nématodes';1;56
e;48497;'Némathelminthes';1;50
e;145399;'némathelminthes';1;52
e;262114;'parasitofaune';1;2
e;6807759;'=liver=';1;0
e;1780870;'finger';1;0
e;250734;'muscle strié';1;4
e;1076610;'muscle jambier antérieur';1;0
e;6855892;'=pneumothorax=';1;0
e;1813037;'syndrome de Caplan';1;0
e;12300726;'hta';1;0
e;225804;'bronchite chronique';1;80
e;6292437;'syndrome obstructif des voies aériennes';1;0
e;155383;'penis';1;54
e;1802756;'syndrome de Caplan-Colinet';1;0
e;6396895;'tumeur métastatique du mamelon du sein masculin';1;0
e;6409153;'tumeur secondaire du mamelon du sein masculin';1;0
e;4019111;'aspergillose broncho-pulmonaire';1;0
e;44927;'Plathelminthes';1;72
e;18160;'némathelminthe';1;66
e;316353;'ver rond';1;52
e;6336425;'tumeur secondaire du mamelon du sein de l'homme';1;0
e;8622303;'lingula du poumon';1;0
e;6799316;'=aneurysm=';1;0
e;30910;'noix';1;442
e;8006109;'=secondary malignant neoplasm of nipple of male breast=';1;0
e;6429850;'rupture du canal cystique ou de la vésicule biliaire';1;0
e;6397573;'fracture par sollicitation excessive';1;0
e;6406042;'fracture du stress';1;0
e;3294279;'Anévrisme';1;0
e;104108;'chaussette';1;488
e;6430018;'tumeur métastatique du mamelon du sein de l'homme';1;0
e;139514;'plathelminthes';1;68
e;1918605;'syndrome de détresse respiratoire aigüe';1;0
e;1842064;'poumon rhumatoïde';1;0
e;6371605;'fracture vertébrale de stress';1;0
e;6289983;'pneumonie nécrotique';1;0
e;1822761;'pneumoconiose rhumatoïde';1;0
e;5587;'caleçon';1;204
e;107477;'nez';1;2543
e;77424;'oeil';1;2984
e;42109;'mouvement';1;1168
e;120949;'vêtement';1;3226
e;101901;'anus';1;378
e;58876;'cuisse';1;718
e;141795;'membre';1;642
e;21094;'habit';1;1104
e;2578466;'Sars';1;0
e;6939484;'=triceps=';1;0
e;435338;'semen';1;50
e;6816694;'=tibialis anterior muscle=';1;0
e;6828001;'=lymphocytic interstitial pneumonia=';1;0
e;6808405;'=gangrenous pneumonia=';1;0
e;6377535;'poumon du vietnam';1;0
e;3476152;'obstruction des bronches';1;0
e;1822816;'poumon de choc';1;0
e;6310415;'pneumonie gangréneuse';1;0
e;6430499;'trachéobronchite chronique';1;0
e;318071;'pneumopathie interstitielle lymphocytaire';1;50
e;35393;'emphysème pulmonaire';1;50
e;318189;'maladie pulmonaire obstructive chronique';777;50
e;6824146;'=emphysematous cholecystitis=';1;0
e;6826570;'=caplan syndrome=';1;0
e;10447150;'=pneumonia, necrotizing=';1;0
e;6409418;'emphysème du poumon';1;0
e;136362;'triceps';1;224
e;54188;'veste';1;1024
e;10339;'poignet';1;358
e;126285;'dos';1;958
e;61147;'blessure';1;1909
e;101938;'estomac';1;808
e;77008;'yeux';1;4020
e;16110;'bouche';1;4190
e;6295053;'pneumopathie rhumatoïde';1;0
e;9471931;'Musculum tibialis anterior';1;0
e;105041;'narine';1;542
e;332035;'cholécystite emphysémateuse';1;50
e;224326;'syndrome de détresse respiratoire aiguë';1;50
e;6822739;'=acute respiratory distress syndrome=';1;0
e;273725;'muscles striés';777;50
e;6831040;'=pulmonary emphysema=';1;0
e;44335;'organe';1;772
e;6338985;'oedème pulmonaire non cardiogénique';1;0
e;6429671;'oedème du poumon non cardiogénique';1;0
e;6430914;'poumon de choc traumatique';1;0
e;6353678;'atélectasie congestive';1;0
e;6404039;'choc au poumon';1;0
e;6428543;'insuffisance pulmonaire post-traumatique';1;0
e;6421573;'bronchopneumopathie chronique obstructive';1;0
e;6364748;'trachéite chronique';1;0
e;56280;'oreille';1;1793
e;95935;'rage';1;422
e;2680;'sang';1;3064
e;6381068;'bronchite chronique obstructive';1;0
e;6434271;'limitation chronique d'écoulement gazeux';1;0
e;117789;'moustache';1;894
e;135496;'tibia';1;550
e;440602;'ligament rond du foie';1;2
e;6816707;'=tibia=';1;0
e;321378;'nerf tibial';1;50
e;6418554;'bronchite chronique asthmatique';1;0
e;318188;'broncho-pneumopathie chronique obstructive';777;50
e;6816648;'=tibial nerve=';1;0
e;6947684;'=round ligament of the liver=';1;0
e;6840626;'=cystic duct=';1;0
e;6816653;'=posterior tibial artery=';1;0
e;291520;'conduit cystique';777;50
e;286005;'nerf médian';777;50
e;6822408;'=chronic obstructive pulmonary disease=';1;0
e;10552;'embolie pulmonaire';1;68
e;320176;'artère tibiale postérieure';1;50
e;6391379;'bronchite chronique emphysémateuse';1;0
e;6343391;'bronchite chronique simple et mucopurulente';1;0
e;6387444;'bronchite chronique avec obstruction des voies respiratoires';1;0
e;6388368;'maladie chronique obstructive des voies aériennes';1;0
e;6848191;'=median nerve=';1;0
e;74558;'os';1;2580
e;6824122;'=chronic tracheobronchitis=';1;0
e;7294996;'=lingula of the lung=';1;0
e;351728;'encombrement bronchique';1;50
e;6822405;'=bronchial obstruction=';1;0
e;313989;'tumeur vasculaire';1;50
e;1779319;'lingula du poumon gauche';1;0
e;366973;'obstruction bronchique';1;50
e;2342595;'perforation de la vésicule biliaire';1;0
e;7254517;'=bronchial tree=';1;0
e;142086;'jambe';1;3172
e;320582;'arbre bronchique';1;50
e;7889483;'=pulmonary embolism without mention of acute cor pulmonale=';1;0
e;7151219;'=semen=';1;0
e;8619934;'=rupture of cystic duct or gallbladder=';1;0
e;6821570;'=hemangioma=';1;0
e;6821265;'=gallbladder perforation=';1;0
e;122865;'sperme';1;444
e;6955633;'=nematoda=';1;0
e;10790631;'perforation vésiculaire';1;0
e;86706;'nématode';1;118
e;26363;'bras';1;3656
e;6430717;'aspergillose broncho-pulmonaire allergique';1;0
e;143401;'barbe';1;1106
e;7173378;'=bronchopulmonary aspergillosis=';1;0
e;6394452;'embole pulmonaire';1;0
e;391268;'aspergillose bronchopulmonaire allergique';1;50
e;6397089;'thromboembolisme pulmonaire';1;0
e;7756;'hémangiome';1;58
e;6367765;'embolie du poumon';1;0
e;7893404;'=pulmonary thromboembolism=';1;0
e;6832415;'=pulmonary embolism=';1;0
e;568260;'aspergillose bronchopulmonaire';777;52
e;336791;'aspergillose pulmonaire';1;50
e;6821589;'=blood vessel neoplasm=';1;0
e;6425432;'aspergillose pulmonaire allergique';1;0
e;9108604;'=aspergillosis, allergic bronchopulmonary=';1;0
e;6398990;'aspergilloses bronchopulmonaires allergiques';1;0
e;6812054;'=allergic bronchopulmonary aspergillosis=';1;0
e;267743;'fracture de fatigue';1;50
e;6797191;'=obesity=';1;0
e;72521;'obésité';1;478
e;9114501;'=stress fractures=';1;0
e;6824149;'=gallbladder=';1;0
e;6801469;'=stress fracture=';1;0
e;6880545;'=fracture, insufficiency=';1;0
e;284419;'fracture de stress';777;50
e;8535669;'=gall bladder=';1;0
e;86018;'vésicule biliaire';1;114
e;220521;'doigt>112609';1;242;'doigt>anatomie'
e;6803337;'=finger=';1;0
e;6798399;'=body part=';1;0
e;157827;'partie du corps';1;126
e;228513;'sang>86501';1;208;'sang>hémoglobine'
e;6825673;'=blood=';1;0
e;6834153;'=plague=';1;0
e;227965;'peste>130400';1;42;'peste>maladie'
e;6880460;'=muscle=';1;0
e;139578;'muscle';1;1540
e;34503;'pénis';1;988
e;6885693;'=penis=';1;0