
r;1520051;131321;74860;666;1
r;1522456;146556;74860;666;1
r;1525230;212779;74860;666;1
r;1525709;188713;74860;666;1
r;1525841;10756;74860;666;1
r;1526070;188468;74860;666;1
r;1528069;95907;74860;666;1
r;1528082;54379;74860;666;1
r;1529179;89468;74860;666;1
r;1530872;150858;74860;666;1
r;1531273;145211;74860;666;1
r;1531287;70606;74860;666;1
r;1534093;145583;74860;666;1
r;1575854;216241;74860;666;1
r;1587088;202;74860;666;1
r;1597166;10116;74860;666;1
r;1627690;35798;74860;666;1
r;1635306;220584;74860;666;1
r;1662699;146065;74860;666;1
r;1668311;223219;74860;666;1
r;1670158;13859;74860;666;1
r;1674111;144922;74860;666;1
r;1679120;63902;74860;666;1
r;1682955;6984;74860;666;1
r;1687919;3779;74860;666;1
r;1688024;99515;74860;666;1
r;1688026;57096;74860;666;1
r;1689293;53821;74860;666;1
r;1694293;25236;74860;666;1
r;1695226;224925;74860;666;1
r;1698245;225166;74860;666;1
r;1739184;163663;74860;666;1
r;1739692;152910;74860;666;1
r;1760937;70099;74860;666;1
r;1767297;105878;74860;666;1
r;1770273;71734;74860;666;1
r;1770787;44397;74860;666;1
r;1771674;106177;74860;666;1
r;1772700;110821;74860;666;1
r;1777299;80264;74860;666;1
r;1777300;144164;74860;666;1
r;1779257;188488;74860;666;1
r;1779839;75378;74860;666;1
r;1782417;151601;74860;666;1
r;1782433;41804;74860;666;1
r;1783171;91156;74860;666;1
r;1783611;16217;74860;666;1
r;1785209;230024;74860;666;1
r;1785582;228813;74860;666;1
r;1787562;61490;74860;666;1
r;1789199;230042;74860;666;1
r;1793592;27515;74860;666;1
r;1793626;214232;74860;666;1
r;1796603;44288;74860;666;1
r;1796610;74984;74860;666;1
r;1797393;230026;74860;666;1
r;1798330;123034;74860;666;1
r;1801553;25036;74860;666;1
r;1802125;51126;74860;666;1
r;1803535;94147;74860;666;1
r;1813849;19796;74860;666;1
r;1815714;231456;74860;666;1
r;1823192;37298;74860;666;1
r;1832531;115968;74860;666;1
r;1833687;232622;74860;666;1
r;1835976;81523;74860;666;1
r;1866037;85973;74860;666;1
r;1884233;229001;74860;666;1
r;1911424;13130;74860;666;1
r;1913357;95741;74860;666;1
r;1920246;22014;74860;666;1
r;1922237;239032;74860;666;1
r;1932288;93941;74860;666;1
r;1981879;71006;74860;666;1
r;1983880;231374;74860;666;1
r;2004321;7350;74860;666;1
r;2220155;31501;74860;666;1
r;2221930;165244;74860;666;1
r;2236363;23895;74860;666;1
r;2270731;230187;74860;666;1
r;2273612;151712;74860;666;1
r;2276759;252065;74860;666;1
r;2278867;245043;74860;666;1
r;2287796;247488;74860;666;1
r;2290056;246201;74860;666;1
r;2325380;31880;74860;666;1
r;2464113;260018;74860;666;1
r;2469113;101913;74860;666;1
r;2584453;264242;74860;666;1
r;3213137;233253;74860;666;1
r;3213165;212659;74860;666;1
r;3218081;271234;74860;666;1
r;3219311;30019;74860;666;1
r;6220274;108568;74860;666;1
r;8567123;103402;74860;666;1
r;8569047;228060;74860;666;1
r;8839935;315474;74860;666;1
r;9028700;224069;74860;666;1
r;10675926;52932;74860;666;1
r;10680992;120908;74860;666;1
r;10709705;2988;74860;666;1
r;11812913;330154;74860;666;1
r;12064427;12294;74860;666;1
r;12989951;47584;74860;666;1
r;13436109;152774;74860;666;1
r;13474339;22499;74860;666;1
r;14370339;435928;74860;666;1
r;22139589;52109;74860;666;1
r;22923486;73893;74860;666;1
r;73884544;73222;74860;666;1
r;77061884;664;74860;666;1
r;77370734;330472;74860;666;1
r;83863556;187422;74860;666;1
r;84313842;429533;74860;666;1
r;91442766;78472;74860;666;1
r;134802286;37254;74860;666;1
r;191810769;8895397;74860;666;1
r;195390182;24742;74860;666;1
r;218340058;147184;74860;666;1
r;251606614;2491087;74860;666;1
r;268443368;100286;74860;666;1
r;344219332;79515;74860;666;1
r;359736208;61208;74860;666;1
r;1597184;215275;74860;666;2
r;1621483;137798;74860;666;2
r;1683073;223248;74860;666;2
r;1688767;111845;74860;666;2
r;1782329;142873;74860;666;2
r;1782690;88662;74860;666;2
r;1783671;30459;74860;666;2
r;1788095;49293;74860;666;2
r;1789194;112905;74860;666;2
r;1793538;230371;74860;666;2
r;1793994;212251;74860;666;2
r;1821828;3777;74860;666;2
r;1920267;63599;74860;666;2
r;2176615;247926;74860;666;2
r;2279618;84817;74860;666;2
r;2285086;189053;74860;666;2
r;2455981;102512;74860;666;2
r;2463989;139655;74860;666;2
r;10677495;151698;74860;666;2
r;10677687;155830;74860;666;2
r;10686117;155805;74860;666;2
r;13460711;130047;74860;666;2
r;13460877;28246;74860;666;2
r;13461186;54251;74860;666;2
r;13461379;130514;74860;666;2
r;1470744;132332;74860;666;3
r;1524904;133158;74860;666;3
r;1525393;28539;74860;666;3
r;1525566;136774;74860;666;3
r;1534165;73930;74860;666;3
r;1780199;55236;74860;666;3
r;1782383;27131;74860;666;3
r;1783054;129303;74860;666;3
r;1785564;21590;74860;666;3
r;1793578;151705;74860;666;3
r;1797970;230276;74860;666;3
r;1871388;70631;74860;666;3
r;2045721;20602;74860;666;3
r;2593263;234952;74860;666;3
r;1525827;21729;74860;666;4
r;1785117;140287;74860;666;4
r;1963959;146781;74860;666;4
r;3219125;106183;74860;666;4
r;1587084;34503;74860;666;6
r;1786204;35372;74860;666;7
r;1530532;213281;74860;666;8
r;11612615;318099;74860;666;8