
r;76638679;74860;11081;109;26
r;76638684;74860;9062;109;27
r;76638690;74860;142124;109;27
r;76638685;74860;39794;109;29
r;76638683;74860;126330;109;30
r;76638686;74860;124094;109;30
r;76638687;74860;42001;109;30
r;76638691;74860;155036;109;30
r;76638681;74860;164803;109;31
r;76638688;74860;28466;109;31
r;76638689;74860;49420;109;37
r;76638678;74860;160785;109;43