
r;24363545;128128;74860;13;-35
r;3210016;254601;74860;13;-25
r;15762372;266371;74860;13;-25
r;24363532;5979;74860;13;-25
r;24403206;81176;74860;13;-25
r;72665698;234281;74860;13;-25
r;72666852;234289;74860;13;-25
r;4881653;163643;74860;13;-20
r;9343686;95009;74860;13;-20
r;8545312;14936;74860;13;-14
r;8555815;159854;74860;13;-13
r;5252329;161887;74860;13;-10
r;5333931;158213;74860;13;-10
r;8553008;159530;74860;13;-10
r;3908160;162817;74860;13;-5
r;8115024;103148;74860;13;-5
r;8857118;133180;74860;13;-5
r;8521028;112269;74860;13;-1
r;4984631;156897;74860;13;0
r;5064407;163489;74860;13;0
r;8554096;185772;74860;13;0
r;10713226;152709;74860;13;1
r;9346821;244057;74860;13;4
r;10719439;88091;74860;13;4
r;2114885;186481;74860;13;5
r;2127576;203399;74860;13;5
r;2131276;242341;74860;13;5
r;2141547;246290;74860;13;5
r;2187345;186322;74860;13;5
r;2201746;244917;74860;13;5
r;2244923;248441;74860;13;5
r;4985710;160296;74860;13;5
r;5189626;213857;74860;13;5
r;8553339;104649;74860;13;5
r;8555773;162494;74860;13;5
r;8797384;158703;74860;13;5
r;10718420;176955;74860;13;5
r;10718637;146958;74860;13;5
r;10718852;111059;74860;13;5
r;10719116;146974;74860;13;5
r;8908639;15337;74860;13;6
r;10718140;148791;74860;13;6
r;347221579;317065;74860;13;9
r;2114271;244923;74860;13;10
r;15025549;126425;74860;13;13
r;15025562;151801;74860;13;13
r;15025567;157970;74860;13;13
r;15026085;86571;74860;13;14
r;337365993;133049;74860;13;14
r;97429064;439632;74860;13;15
r;334383663;13029373;74860;13;15
r;14914390;110956;74860;13;17
r;360493727;14174807;74860;13;21
r;220947043;9961334;74860;13;25
r;14950291;259820;74860;13;27
r;313913152;238833;74860;13;29
r;347221580;231714;74860;13;29
r;1544641;17265;74860;13;30
r;1588528;123034;74860;13;30
r;1682792;101894;74860;13;30
r;1746179;161908;74860;13;30
r;1878139;235986;74860;13;30
r;1890311;186294;74860;13;30
r;1895175;214746;74860;13;30
r;1896014;97162;74860;13;30
r;1896144;214536;74860;13;30
r;1897650;237347;74860;13;30
r;1903059;86872;74860;13;30
r;1903701;84643;74860;13;30
r;1904233;237830;74860;13;30
r;1905354;125855;74860;13;30
r;1905753;186467;74860;13;30
r;1913548;238289;74860;13;30
r;1923067;1519;74860;13;30
r;1923391;206035;74860;13;30
r;1923830;90501;74860;13;30
r;1925304;231892;74860;13;30
r;1925763;239265;74860;13;30
r;1925957;81963;74860;13;30
r;1929114;155458;74860;13;30
r;1929202;156602;74860;13;30
r;1929958;162724;74860;13;30
r;1930036;216564;74860;13;30
r;1933651;157957;74860;13;30
r;1937025;240173;74860;13;30
r;1939170;163906;74860;13;30
r;1942408;207976;74860;13;30
r;1965200;79489;74860;13;30
r;1966222;240326;74860;13;30
r;1968888;185978;74860;13;30
r;1975229;151796;74860;13;30
r;1977080;239288;74860;13;30
r;1978906;84321;74860;13;30
r;1981758;234358;74860;13;30
r;1982520;241306;74860;13;30
r;1989738;228624;74860;13;30
r;1990136;242233;74860;13;30
r;1991866;240806;74860;13;30
r;1998455;240226;74860;13;30
r;2004510;242364;74860;13;30
r;2008737;239214;74860;13;30
r;2015867;142039;74860;13;30
r;2027923;151440;74860;13;30
r;2033093;238615;74860;13;30
r;2036526;240234;74860;13;30
r;2041224;26829;74860;13;30
r;2041851;166075;74860;13;30
r;2058586;81462;74860;13;30
r;2058638;203404;74860;13;30
r;2058656;242250;74860;13;30
r;2058658;204239;74860;13;30
r;2058665;239583;74860;13;30
r;2058668;239466;74860;13;30
r;2058672;96885;74860;13;30
r;2058720;239655;74860;13;30
r;2058729;239505;74860;13;30
r;2058738;131122;74860;13;30
r;2058769;243706;74860;13;30
r;2058831;242244;74860;13;30
r;2058942;239573;74860;13;30
r;2058944;242615;74860;13;30
r;2058959;211756;74860;13;30
r;2061782;134015;74860;13;30
r;2062984;140225;74860;13;30
r;2062990;161442;74860;13;30
r;2063995;158714;74860;13;30
r;2071189;239151;74860;13;30
r;2105407;244932;74860;13;30
r;2107118;244559;74860;13;30
r;2120436;245126;74860;13;30
r;2120500;245701;74860;13;30
r;2122941;244582;74860;13;30
r;2123174;230266;74860;13;30
r;2127980;244379;74860;13;30
r;2131778;117557;74860;13;30
r;2137679;157186;74860;13;30
r;2154204;243806;74860;13;30
r;2159876;245574;74860;13;30
r;2166232;242407;74860;13;30
r;2192879;242559;74860;13;30
r;2239877;242331;74860;13;30
r;2244939;247422;74860;13;30
r;2305355;247255;74860;13;30
r;2308490;59241;74860;13;30
r;2309119;207988;74860;13;30
r;2339660;239431;74860;13;30
r;2388302;253553;74860;13;30
r;2390821;246849;74860;13;30
r;2410043;245960;74860;13;30
r;2425708;250262;74860;13;30
r;2427636;250472;74860;13;30
r;2441510;250904;74860;13;30
r;2443762;186698;74860;13;30
r;2444060;256896;74860;13;30
r;2445442;53369;74860;13;30
r;2465336;215435;74860;13;30
r;2465414;250992;74860;13;30
r;2466955;250822;74860;13;30
r;2505688;137831;74860;13;30
r;2509538;242398;74860;13;30
r;2509585;256687;74860;13;30
r;2509697;87778;74860;13;30
r;2509752;105482;74860;13;30
r;2516784;162136;74860;13;30
r;2566192;251381;74860;13;30
r;2572529;251331;74860;13;30
r;2573485;251344;74860;13;30
r;2587339;251550;74860;13;30
r;2750697;264804;74860;13;30
r;3082311;251314;74860;13;30
r;3089841;252070;74860;13;30
r;3103010;104632;74860;13;30
r;3108633;266796;74860;13;30
r;3127431;243707;74860;13;30
r;3151526;262246;74860;13;30
r;3196030;117156;74860;13;30
r;3201454;214796;74860;13;30
r;3202370;90294;74860;13;30
r;4188715;252380;74860;13;30
r;8545295;162679;74860;13;30
r;8552655;127098;74860;13;30
r;8803156;15455;74860;13;30
r;8830199;315204;74860;13;30
r;8845920;252429;74860;13;30
r;8943035;20691;74860;13;30
r;9009461;316193;74860;13;30
r;9029569;288467;74860;13;30
r;9029793;318981;74860;13;30
r;9040524;319753;74860;13;30
r;9040915;319894;74860;13;30
r;9044081;106610;74860;13;30
r;9069446;321436;74860;13;30
r;9072443;250209;74860;13;30
r;9072538;250210;74860;13;30
r;9072665;257581;74860;13;30
r;9080311;321871;74860;13;30
r;9080461;260046;74860;13;30
r;9080608;260045;74860;13;30
r;9080807;260041;74860;13;30
r;9081059;260047;74860;13;30
r;9087535;322116;74860;13;30
r;9099430;322161;74860;13;30
r;9099526;260054;74860;13;30
r;9099788;322170;74860;13;30
r;9099901;250908;74860;13;30
r;9100137;186074;74860;13;30
r;9100464;322327;74860;13;30
r;9100692;260057;74860;13;30
r;9101081;256041;74860;13;30
r;9101435;196468;74860;13;30
r;9102195;322336;74860;13;30
r;9102392;200368;74860;13;30
r;9103095;45745;74860;13;30
r;9103312;264080;74860;13;30
r;9103492;256037;74860;13;30
r;9103671;256035;74860;13;30
r;9103851;256029;74860;13;30
r;9104033;322333;74860;13;30
r;9104174;249588;74860;13;30
r;9104351;200107;74860;13;30
r;9104530;200105;74860;13;30
r;9104701;42258;74860;13;30
r;9104887;251291;74860;13;30
r;9147278;143758;74860;13;30
r;9151630;25598;74860;13;30
r;9151838;206646;74860;13;30
r;9151933;154727;74860;13;30
r;9152051;52497;74860;13;30
r;9152560;186806;74860;13;30
r;9182269;257714;74860;13;30
r;9244200;323499;74860;13;30
r;13701104;394249;74860;13;30
r;13700987;264061;74860;13;30
r;10714780;185352;74860;13;30
r;99462478;4401623;74860;13;30
r;11230550;97934;74860;13;30
r;11526121;41684;74860;13;30
r;11552478;326840;74860;13;30
r;11568142;327693;74860;13;30
r;11575457;327647;74860;13;30
r;11576334;328118;74860;13;30
r;11590758;328908;74860;13;30
r;11603175;252872;74860;13;30
r;11639518;262087;74860;13;30
r;11746640;256471;74860;13;30
r;11746734;263164;74860;13;30
r;11746825;256098;74860;13;30
r;11746895;256093;74860;13;30
r;12019539;239269;74860;13;30
r;12439695;332635;74860;13;30
r;12439606;332634;74860;13;30
r;12327192;259227;74860;13;30
r;12410881;230895;74860;13;30
r;12410969;258705;74860;13;30
r;12417350;266259;74860;13;30
r;12438982;253704;74860;13;30
r;12439138;332633;74860;13;30
r;12439239;260195;74860;13;30
r;12456493;263169;74860;13;30
r;12458582;99126;74860;13;30
r;12458863;332669;74860;13;30
r;12458979;256338;74860;13;30
r;12459123;186511;74860;13;30
r;12459295;53368;74860;13;30
r;12459528;332753;74860;13;30
r;13008441;267447;74860;13;30
r;13008688;267446;74860;13;30
r;13008780;267445;74860;13;30
r;13008862;267443;74860;13;30
r;13062455;1404;74860;13;30
r;13196993;259418;74860;13;30
r;13407047;332593;74860;13;30
r;13408143;259228;74860;13;30
r;13700067;207712;74860;13;30
r;13952196;116480;74860;13;30
r;13953605;395190;74860;13;30
r;14067014;146429;74860;13;30
r;14178191;332128;74860;13;30
r;14178287;80743;74860;13;30
r;14178358;223873;74860;13;30
r;14185794;152336;74860;13;30
r;14186909;186685;74860;13;30
r;14186972;396587;74860;13;30
r;14187103;199732;74860;13;30
r;14187199;153895;74860;13;30
r;14187296;238818;74860;13;30
r;15022597;2498;74860;13;30
r;15023058;39525;74860;13;30
r;15023059;157377;74860;13;30
r;15023145;34042;74860;13;30
r;15025543;34954;74860;13;30
r;15025544;91932;74860;13;30
r;15025545;225058;74860;13;30
r;15025546;131414;74860;13;30
r;15025547;122483;74860;13;30
r;15025548;73733;74860;13;30
r;15025550;187024;74860;13;30
r;15025551;214032;74860;13;30
r;15025552;119520;74860;13;30
r;15025563;36946;74860;13;30
r;15025564;214950;74860;13;30
r;15025565;45620;74860;13;30
r;15025566;219714;74860;13;30
r;15025590;86037;74860;13;30
r;15025591;11181;74860;13;30
r;15025728;61794;74860;13;30
r;15025822;54438;74860;13;30
r;15025889;61316;74860;13;30
r;15025997;94183;74860;13;30
r;15026046;127257;74860;13;30
r;15534981;166229;74860;13;30
r;15760980;20911;74860;13;30
r;15760981;25296;74860;13;30
r;15760982;248775;74860;13;30
r;15760983;52785;74860;13;30
r;15760985;262917;74860;13;30
r;15760986;165278;74860;13;30
r;15760987;138736;74860;13;30
r;15760988;252440;74860;13;30
r;15760989;97998;74860;13;30
r;15760990;225943;74860;13;30
r;15760992;259059;74860;13;30
r;15760993;16486;74860;13;30
r;15760994;151800;74860;13;30
r;15760995;240381;74860;13;30
r;15760996;225566;74860;13;30
r;15760997;59842;74860;13;30
r;15760998;94738;74860;13;30
r;15760999;323493;74860;13;30
r;15761000;247005;74860;13;30
r;15766198;392105;74860;13;30
r;15766207;76861;74860;13;30
r;15856597;313048;74860;13;30
r;15942725;255559;74860;13;30
r;15942860;255558;74860;13;30
r;15942970;438925;74860;13;30
r;15943140;438965;74860;13;30
r;18055078;5916;74860;13;30
r;18112562;141270;74860;13;30
r;18513713;589856;74860;13;30
r;18864891;4690;74860;13;30
r;23729272;1421926;74860;13;30
r;23729401;258430;74860;13;30
r;25192504;639;74860;13;30
r;26082629;396282;74860;13;30
r;26279697;1645216;74860;13;30
r;26280081;1645217;74860;13;30
r;26673744;1653509;74860;13;30
r;26688378;1653575;74860;13;30
r;27702108;1668525;74860;13;30
r;27936039;1679217;74860;13;30
r;28136568;1704065;74860;13;30
r;28179788;244003;74860;13;30
r;28182025;324138;74860;13;30
r;28216281;239316;74860;13;30
r;28482349;63177;74860;13;30
r;28525908;259677;74860;13;30
r;28915946;260225;74860;13;30
r;29051228;52286;74860;13;30
r;29076494;1767183;74860;13;30
r;29076807;1767186;74860;13;30
r;29295954;262836;74860;13;30
r;29415319;320218;74860;13;30
r;29446199;1796938;74860;13;30
r;31664786;1966143;74860;13;30
r;34378973;2341262;74860;13;30
r;34660282;10910;74860;13;30
r;34681840;205374;74860;13;30
r;55719404;1966043;74860;13;30
r;55801825;2607796;74860;13;30
r;55802037;2607795;74860;13;30
r;55895100;2608807;74860;13;30
r;55895396;38238;74860;13;30
r;55895960;115096;74860;13;30
r;57884876;198022;74860;13;30
r;211394648;9245394;74860;13;30
r;72337517;242894;74860;13;30
r;72618441;46045;74860;13;30
r;72647808;213856;74860;13;30
r;72831595;2546409;74860;13;30
r;73630571;270839;74860;13;30
r;74491604;206779;74860;13;30
r;78330973;3230099;74860;13;30
r;78429305;163334;74860;13;30
r;86892891;82200;74860;13;30
r;91734180;684592;74860;13;30
r;91920871;1600338;74860;13;30
r;91963175;254462;74860;13;30
r;91965950;267152;74860;13;30
r;92517220;3706239;74860;13;30
r;92737922;3706483;74860;13;30
r;94063684;227989;74860;13;30
r;96924094;44726;74860;13;30
r;96929268;34932;74860;13;30
r;97333695;232306;74860;13;30
r;97334619;66560;74860;13;30
r;97335014;172440;74860;13;30
r;97335909;125666;74860;13;30
r;97339125;78318;74860;13;30
r;97358134;227765;74860;13;30
r;97360034;319783;74860;13;30
r;97361488;238857;74860;13;30
r;97361676;199837;74860;13;30
r;97650958;595676;74860;13;30
r;97677757;1783887;74860;13;30
r;97745195;26684;74860;13;30
r;97745199;241634;74860;13;30
r;97745200;239843;74860;13;30
r;97745201;241419;74860;13;30
r;97745202;18405;74860;13;30
r;97745203;124550;74860;13;30
r;97745204;240789;74860;13;30
r;97745205;255701;74860;13;30
r;97746995;222212;74860;13;30
r;98274580;2571;74860;13;30
r;98280005;84343;74860;13;30
r;98283244;85447;74860;13;30
r;99105765;3705297;74860;13;30
r;108141006;11763;74860;13;30
r;122064134;146058;74860;13;30
r;134821650;323681;74860;13;30
r;140259998;258288;74860;13;30
r;149218037;186865;74860;13;30
r;149285257;8568755;74860;13;30
r;149711523;161827;74860;13;30
r;149711530;236695;74860;13;30
r;149711562;37671;74860;13;30
r;149711565;8568791;74860;13;30
r;149711574;235229;74860;13;30
r;166620433;316050;74860;13;30
r;166620434;8694526;74860;13;30
r;166620437;207601;74860;13;30
r;182285463;160597;74860;13;30
r;184531493;8758431;74860;13;30
r;207167421;9178991;74860;13;30
r;207167422;8768616;74860;13;30
r;207167426;9178994;74860;13;30
r;207167424;9178993;74860;13;30
r;209764958;235931;74860;13;30
r;209765408;270606;74860;13;30
r;209921520;8779430;74860;13;30
r;211504306;9245414;74860;13;30
r;212669205;3706769;74860;13;30
r;212914985;9264408;74860;13;30
r;218332409;8797;74860;13;30
r;220906287;185552;74860;13;30
r;273113031;56509;74860;13;30
r;269491375;459767;74860;13;30
r;269467391;244039;74860;13;30
r;270191117;206167;74860;13;30
r;272778126;10875383;74860;13;30
r;273713660;10906095;74860;13;30
r;278313238;251228;74860;13;30
r;280510358;3271715;74860;13;30
r;280510359;46812;74860;13;30
r;280510360;313160;74860;13;30
r;280510361;10934285;74860;13;30
r;280510362;10934312;74860;13;30
r;281777381;238136;74860;13;30
r;282398125;10822695;74860;13;30
r;282398126;10961736;74860;13;30
r;282589442;11124203;74860;13;30
r;283663470;160640;74860;13;30
r;283663472;253107;74860;13;30
r;288797505;11287408;74860;13;30
r;289100611;185743;74860;13;30
r;307764391;11932603;74860;13;30
r;311533713;190935;74860;13;30
r;312841295;251321;74860;13;30
r;313659422;12049586;74860;13;30
r;321116592;12289049;74860;13;30
r;345995263;13639105;74860;13;30
r;345995267;13639106;74860;13;30
r;352232134;13988963;74860;13;30
r;15760979;332506;74860;13;31
r;15760991;88658;74860;13;31
r;76649564;16480;74860;13;31
r;97339725;106115;74860;13;31
r;97746997;258468;74860;13;31
r;97746998;153956;74860;13;31
r;108219215;13495;74860;13;31
r;125163066;69696;74860;13;31
r;149711531;126970;74860;13;31
r;149711542;115919;74860;13;31
r;272761075;10513807;74860;13;31
r;279341799;258600;74860;13;31
r;281006228;186213;74860;13;31
r;282594003;75839;74860;13;31
r;282398124;14713;74860;13;31
r;283663471;206049;74860;13;31
r;94063624;254289;74860;13;32
r;97745206;313312;74860;13;32
r;97746996;254122;74860;13;32
r;99123424;4345180;74860;13;32
r;149711566;137117;74860;13;32
r;126634854;59303;74860;13;33
r;1834163;53455;74860;13;35
r;1879993;164838;74860;13;35
r;1893353;117639;74860;13;35
r;1979216;200357;74860;13;35
r;1986881;237043;74860;13;35
r;2510768;259349;74860;13;35
r;2561339;83440;74860;13;35
r;9069196;321443;74860;13;35
r;9069331;321438;74860;13;35
r;13953687;332138;74860;13;35
r;15760984;138701;74860;13;35
r;211394593;9245392;74860;13;35
r;297471432;11574803;74860;13;35
r;308014896;8758389;74860;13;35
r;325074644;3705864;74860;13;35
r;78304031;323311;74860;13;36
r;2045854;1353;74860;13;38
r;15009019;43601;74860;13;38
r;15023057;42931;74860;13;40
r;175322676;207982;74860;13;40
r;175324058;8741776;74860;13;40
r;206156650;3695958;74860;13;40
r;209167998;8865610;74860;13;40
r;308066195;11936792;74860;13;40
r;334406628;13034297;74860;13;40
r;9100904;251759;74860;13;41
r;9101294;256033;74860;13;41
r;9101639;256042;74860;13;41
r;97346258;156701;74860;13;41
r;8544609;165703;74860;13;42
r;11585554;327943;74860;13;42
r;149302080;151644;74860;13;42
r;1745856;2045;74860;13;44
r;423070;163890;74860;13;45
r;1589578;47918;74860;13;45
r;1904730;49493;74860;13;45
r;2522324;71946;74860;13;45
r;11580338;327930;74860;13;45
r;212983495;9279705;74860;13;45
r;92497562;263309;74860;13;45
r;126635380;27111;74860;13;45
r;126635392;129502;74860;13;46
r;178700592;199601;74860;13;46
r;193775894;8962159;74860;13;50
r;138883;112717;74860;13;51
r;181086;39454;74860;13;51
r;193350;118795;74860;13;51
r;198909;72805;74860;13;51
r;225503;157878;74860;13;51
r;233890;10198;74860;13;51
r;268123;158072;74860;13;51
r;378757;158891;74860;13;51
r;382587;116335;74860;13;51
r;385445;161321;74860;13;51
r;392148;136088;74860;13;51
r;392522;159991;74860;13;51
r;422433;148703;74860;13;51
r;1568677;162898;74860;13;51
r;1572325;166034;74860;13;51
r;1613389;43881;74860;13;51
r;2125381;195071;74860;13;51
r;2149034;214295;74860;13;51
r;2208009;237958;74860;13;51
r;2217268;21927;74860;13;51
r;2218335;161952;74860;13;51
r;2289948;135887;74860;13;51
r;2297083;52504;74860;13;51
r;2394456;162988;74860;13;51
r;2476879;165630;74860;13;51
r;2490618;162156;74860;13;51
r;2490621;238271;74860;13;51
r;2493833;18196;74860;13;51
r;3142452;195844;74860;13;51
r;3208539;195024;74860;13;51
r;8788007;195162;74860;13;51
r;9098032;165601;74860;13;51
r;10637895;34891;74860;13;51
r;10637911;124783;74860;13;51
r;10708126;24550;74860;13;51
r;11573562;327897;74860;13;51
r;11574125;326865;74860;13;51
r;11577528;328179;74860;13;51
r;11585161;328578;74860;13;51
r;11585313;328586;74860;13;51
r;11588677;327134;74860;13;51
r;11588961;326710;74860;13;51
r;11590249;328878;74860;13;51
r;11594973;329130;74860;13;51
r;12008114;66716;74860;13;51
r;12020207;249464;74860;13;51
r;12072990;96997;74860;13;51
r;12141107;329241;74860;13;51
r;12373786;234453;74860;13;51
r;12437283;218700;74860;13;51
r;12776328;328944;74860;13;51
r;12981366;219791;74860;13;51
r;12987122;10270;74860;13;51
r;12994984;109883;74860;13;51
r;13009543;242367;74860;13;51
r;13011577;329157;74860;13;51
r;13012076;326664;74860;13;51
r;13018134;47540;74860;13;51
r;13018512;232168;74860;13;51
r;13060140;163508;74860;13;51
r;13064669;243555;74860;13;51
r;13175358;326747;74860;13;51
r;13175467;328719;74860;13;51
r;13175908;328263;74860;13;51
r;13477443;31996;74860;13;51
r;15026399;232970;74860;13;51
r;15815298;262095;74860;13;51
r;18110865;166285;74860;13;51
r;18640625;159548;74860;13;51
r;24604052;164492;74860;13;51
r;24633552;328400;74860;13;51
r;25364028;115385;74860;13;51
r;61012004;2513424;74860;13;51
r;286817899;154735;74860;13;51
r;287954129;159818;74860;13;51
r;174082;23674;74860;13;52
r;180739;88487;74860;13;52
r;184611;145285;74860;13;52
r;201966;37010;74860;13;52
r;210625;76083;74860;13;52
r;231898;157910;74860;13;52
r;233945;44798;74860;13;52
r;236232;157549;74860;13;52
r;240786;157761;74860;13;52
r;277268;71991;74860;13;52
r;368776;160428;74860;13;52
r;372140;128804;74860;13;52
r;380224;160844;74860;13;52
r;413970;163281;74860;13;52
r;417451;164678;74860;13;52
r;652132;166289;74860;13;52
r;1564272;164941;74860;13;52
r;1623481;186986;74860;13;52
r;2030429;166149;74860;13;52
r;2297077;167601;74860;13;52
r;2476874;244413;74860;13;52
r;11557357;327129;74860;13;52
r;11570238;327808;74860;13;52
r;11785803;251694;74860;13;52
r;12994500;37646;74860;13;52
r;23815427;239059;74860;13;52
r;31874988;113932;74860;13;52
r;72629112;37151;74860;13;52
r;193129625;132021;74860;13;52
r;137375;54097;74860;13;53
r;160852;28838;74860;13;53
r;178876;74365;74860;13;53
r;182390;7866;74860;13;53
r;183462;85002;74860;13;53
r;186423;66314;74860;13;53
r;207209;107813;74860;13;53
r;212264;100792;74860;13;53
r;219431;68191;74860;13;53
r;233734;84983;74860;13;53
r;253941;126188;74860;13;53
r;260116;157404;74860;13;53
r;261627;159091;74860;13;53
r;274086;34673;74860;13;53
r;395654;163417;74860;13;53
r;408958;162297;74860;13;53
r;417347;165204;74860;13;53
r;1667402;214437;74860;13;53
r;1667542;214105;74860;13;53
r;2040738;6810;74860;13;53
r;2451912;165051;74860;13;53
r;11553836;326918;74860;13;53
r;11566942;327177;74860;13;53
r;11568682;327020;74860;13;53
r;11574609;327637;74860;13;53
r;11577234;328167;74860;13;53
r;11590316;328882;74860;13;53
r;102120234;99673;74860;13;53
r;134673;38673;74860;13;54
r;152671;26738;74860;13;54
r;158937;41723;74860;13;54
r;170206;111214;74860;13;54
r;174244;124974;74860;13;54
r;194983;9445;74860;13;54
r;237625;32931;74860;13;54
r;243287;30450;74860;13;54
r;274523;147007;74860;13;54
r;380237;113801;74860;13;54
r;418519;164365;74860;13;54
r;431669;29679;74860;13;54
r;432880;159751;74860;13;54
r;1710102;215676;74860;13;54
r;1730445;195272;74860;13;54
r;1827054;231691;74860;13;54
r;1927789;165028;74860;13;54
r;2054248;241212;74860;13;54
r;2138045;195296;74860;13;54
r;2223048;156685;74860;13;54
r;2267446;242816;74860;13;54
r;2476878;163361;74860;13;54
r;3060031;250222;74860;13;54
r;3101127;162621;74860;13;54
r;8859179;220495;74860;13;54
r;11557181;327119;74860;13;54
r;11578351;327890;74860;13;54
r;11588810;328793;74860;13;54
r;11589209;327902;74860;13;54
r;11594339;328548;74860;13;54
r;11595600;328382;74860;13;54
r;95856704;254402;74860;13;54
r;156619;3729;74860;13;55
r;160822;54895;74860;13;55
r;173344;10766;74860;13;55
r;174382;14235;74860;13;55
r;181937;102391;74860;13;55
r;183850;109586;74860;13;55
r;186262;141757;74860;13;55
r;196736;32729;74860;13;55
r;210105;52004;74860;13;55
r;215340;90199;74860;13;55
r;260990;42699;74860;13;55
r;261497;68037;74860;13;55
r;384869;162301;74860;13;55
r;389052;161240;74860;13;55
r;390443;159443;74860;13;55
r;397000;161505;74860;13;55
r;452407;15966;74860;13;55
r;668693;165218;74860;13;55
r;1374156;165010;74860;13;55
r;1588464;160721;74860;13;55
r;1611073;97494;74860;13;55
r;2115213;159742;74860;13;55
r;2228368;212338;74860;13;55
r;2289942;223786;74860;13;55
r;2314720;78723;74860;13;55
r;2394483;195329;74860;13;55
r;2436020;47337;74860;13;55
r;2926967;73719;74860;13;55
r;8937295;209095;74860;13;55
r;11548799;326623;74860;13;55
r;11556200;327055;74860;13;55
r;11564910;327530;74860;13;55
r;11571693;327877;74860;13;55
r;11574617;328024;74860;13;55
r;11576093;326816;74860;13;55
r;11578779;328250;74860;13;55
r;11583062;328456;74860;13;55
r;11583344;328474;74860;13;55
r;11583852;327708;74860;13;55
r;11587997;328744;74860;13;55
r;11589592;328843;74860;13;55
r;100042824;4489991;74860;13;55
r;98865773;250740;74860;13;55
r;149285240;157921;74860;13;55
r;212730507;8768386;74860;13;55
r;217598475;9726570;74860;13;55
r;232532895;6681658;74860;13;55
r;281384776;155952;74860;13;55
r;288036241;327588;74860;13;55
r;160532;54401;74860;13;56
r;179154;100551;74860;13;56
r;199523;7736;74860;13;56
r;243161;158858;74860;13;56
r;254915;8431;74860;13;56
r;276493;158149;74860;13;56
r;393990;162111;74860;13;56
r;407444;27584;74860;13;56
r;424810;164981;74860;13;56
r;644780;159243;74860;13;56
r;652164;127627;74860;13;56
r;1054584;42089;74860;13;56
r;1376561;47440;74860;13;56
r;1677456;163076;74860;13;56
r;1922931;230099;74860;13;56
r;2030405;143344;74860;13;56
r;2051711;106184;74860;13;56
r;2651473;164430;74860;13;56
r;11559170;327229;74860;13;56
r;11562634;327414;74860;13;56
r;11569785;327583;74860;13;56
r;11581804;328314;74860;13;56
r;11586508;327718;74860;13;56
r;11592223;328806;74860;13;56
r;61057050;250420;74860;13;56
r;146274;61223;74860;13;57
r;151858;93655;74860;13;57
r;171719;40924;74860;13;57
r;249626;156671;74860;13;57
r;255057;160109;74860;13;57
r;259084;157930;74860;13;57
r;358392;161953;74860;13;57
r;390984;161788;74860;13;57
r;407949;163550;74860;13;57
r;2120296;164893;74860;13;57
r;2219664;217681;74860;13;57
r;2289934;246016;74860;13;57
r;3132609;189863;74860;13;57
r;3202852;19069;74860;13;57
r;11557490;327136;74860;13;57
r;11562835;327424;74860;13;57
r;11565926;327573;74860;13;57
r;11567368;327651;74860;13;57
r;11573212;327015;74860;13;57
r;11573570;327970;74860;13;57
r;11579224;328269;74860;13;57
r;11582439;328428;74860;13;57
r;11582930;327363;74860;13;57
r;11588251;327432;74860;13;57
r;11596027;328316;74860;13;57
r;96314601;327456;74860;13;57
r;152654;91253;74860;13;58
r;176496;45177;74860;13;58
r;181421;81378;74860;13;58
r;184626;41983;74860;13;58
r;186181;97236;74860;13;58
r;186401;80710;74860;13;58
r;368492;157384;74860;13;58
r;377660;160053;74860;13;58
r;382479;163114;74860;13;58
r;404761;163952;74860;13;58
r;407796;165023;74860;13;58
r;413595;30604;74860;13;58
r;420436;161598;74860;13;58
r;423988;165937;74860;13;58
r;428298;157432;74860;13;58
r;1897177;160648;74860;13;58
r;2070374;157691;74860;13;58
r;2103780;212358;74860;13;58
r;2567275;165559;74860;13;58
r;11553638;326908;74860;13;58
r;11554071;326934;74860;13;58
r;11554818;326979;74860;13;58
r;11555792;327032;74860;13;58
r;11563674;327471;74860;13;58
r;11567200;327642;74860;13;58
r;11569531;327522;74860;13;58
r;11571955;327894;74860;13;58
r;11572861;327935;74860;13;58
r;11573955;327988;74860;13;58
r;11577858;326688;74860;13;58
r;11580437;326853;74860;13;58
r;11583227;328467;74860;13;58
r;11583454;327818;74860;13;58
r;11585020;328121;74860;13;58
r;11586749;328673;74860;13;58
r;11587152;328075;74860;13;58
r;11589240;328824;74860;13;58
r;11589608;328532;74860;13;58
r;11590217;328876;74860;13;58
r;11590973;327978;74860;13;58
r;11591365;328219;74860;13;58
r;11614386;262400;74860;13;58
r;15766462;110580;74860;13;58
r;95721196;2458825;74860;13;58
r;98930572;215264;74860;13;58
r;98943711;328904;74860;13;58
r;138925;37457;74860;13;59
r;151967;101502;74860;13;59
r;161868;86717;74860;13;59
r;172754;61562;74860;13;59
r;175200;17230;74860;13;59
r;225963;157427;74860;13;59
r;229819;157903;74860;13;59
r;236817;102145;74860;13;59
r;257357;159496;74860;13;59
r;267141;159755;74860;13;59
r;367229;3545;74860;13;59
r;368179;126120;74860;13;59
r;374957;66832;74860;13;59
r;379664;158129;74860;13;59
r;388505;125112;74860;13;59
r;392229;162127;74860;13;59
r;399269;161863;74860;13;59
r;417352;165170;74860;13;59
r;432116;164234;74860;13;59
r;432331;166242;74860;13;59
r;1800416;24101;74860;13;59
r;2073385;227154;74860;13;59
r;2926962;249191;74860;13;59
r;11554022;326931;74860;13;59
r;11557283;327124;74860;13;59
r;11558407;327189;74860;13;59
r;11558907;326760;74860;13;59
r;11565181;326856;74860;13;59
r;11565938;327574;74860;13;59
r;11573312;327958;74860;13;59
r;11574011;327992;74860;13;59
r;11577705;328190;74860;13;59
r;11581349;328307;74860;13;59
r;11581663;328388;74860;13;59
r;11583372;328476;74860;13;59
r;11583407;327692;74860;13;59
r;11586153;327698;74860;13;59
r;11587069;327236;74860;13;59
r;11592975;329017;74860;13;59
r;11593555;329054;74860;13;59
r;11593874;328529;74860;13;59
r;11596885;329236;74860;13;59
r;131693;71585;74860;13;60
r;133136;106050;74860;13;60
r;133178;34939;74860;13;60
r;133535;98885;74860;13;60
r;133570;28781;74860;13;60
r;133764;24553;74860;13;60
r;133859;14315;74860;13;60
r;134442;99331;74860;13;60
r;134561;68094;74860;13;60
r;135446;69550;74860;13;60
r;135457;12134;74860;13;60
r;136168;131100;74860;13;60
r;136205;8661;74860;13;60
r;136326;80655;74860;13;60
r;136328;116746;74860;13;60
r;136451;99740;74860;13;60
r;137175;24323;74860;13;60
r;137178;49118;74860;13;60
r;137484;127241;74860;13;60
r;137797;14997;74860;13;60
r;137807;117283;74860;13;60
r;137969;79364;74860;13;60
r;138063;12313;74860;13;60
r;138073;59940;74860;13;60
r;138119;97571;74860;13;60
r;138201;75146;74860;13;60
r;138916;100528;74860;13;60
r;139055;136783;74860;13;60
r;141553;112698;74860;13;60
r;142065;73165;74860;13;60
r;142609;143876;74860;13;60
r;143753;24589;74860;13;60
r;144113;121235;74860;13;60
r;144635;5153;74860;13;60
r;145337;49761;74860;13;60
r;145769;9341;74860;13;60
r;145788;111342;74860;13;60
r;145806;122893;74860;13;60
r;146781;5031;74860;13;60
r;147278;124003;74860;13;60
r;147286;46380;74860;13;60
r;147977;74222;74860;13;60
r;147992;150394;74860;13;60
r;148163;87681;74860;13;60
r;149237;6973;74860;13;60
r;150165;12562;74860;13;60
r;151326;104242;74860;13;60
r;151977;78823;74860;13;60
r;152013;11675;74860;13;60
r;152215;125556;74860;13;60
r;153025;131971;74860;13;60
r;153520;68484;74860;13;60
r;153930;89077;74860;13;60
r;153935;50607;74860;13;60
r;153960;53872;74860;13;60
r;154322;123526;74860;13;60
r;154350;128589;74860;13;60
r;154361;62519;74860;13;60
r;154499;35502;74860;13;60
r;155092;57370;74860;13;60
r;156617;112665;74860;13;60
r;156919;390;74860;13;60
r;156937;72397;74860;13;60
r;156987;87561;74860;13;60
r;157186;824;74860;13;60
r;157538;101396;74860;13;60
r;157612;42865;74860;13;60
r;157639;62786;74860;13;60
r;157796;42608;74860;13;60
r;157976;53320;74860;13;60
r;158309;46828;74860;13;60
r;159012;26309;74860;13;60
r;159044;104428;74860;13;60
r;159685;45711;74860;13;60
r;161518;111795;74860;13;60
r;163582;36906;74860;13;60
r;163595;13368;74860;13;60
r;163890;89602;74860;13;60
r;164579;49739;74860;13;60
r;164586;7667;74860;13;60
r;164801;5210;74860;13;60
r;166120;140929;74860;13;60
r;166125;86159;74860;13;60
r;166403;25405;74860;13;60
r;167544;49726;74860;13;60
r;168115;29105;74860;13;60
r;171161;105814;74860;13;60
r;171227;50284;74860;13;60
r;171333;25239;74860;13;60
r;171349;34629;74860;13;60
r;171726;58822;74860;13;60
r;171765;112575;74860;13;60
r;172335;44546;74860;13;60
r;172368;2655;74860;13;60
r;172405;96770;74860;13;60
r;172457;11409;74860;13;60
r;172469;120839;74860;13;60
r;172548;7234;74860;13;60
r;172745;123090;74860;13;60
r;172774;17460;74860;13;60
r;173320;27471;74860;13;60
r;173334;89633;74860;13;60
r;174385;11824;74860;13;60
r;174395;112854;74860;13;60
r;174636;124394;74860;13;60
r;175134;13799;74860;13;60
r;175202;126973;74860;13;60
r;175588;130486;74860;13;60
r;175655;47802;74860;13;60
r;176216;14385;74860;13;60
r;176257;136413;74860;13;60
r;176842;98494;74860;13;60
r;177515;68553;74860;13;60
r;177593;3080;74860;13;60
r;178100;133078;74860;13;60
r;178104;59813;74860;13;60
r;178148;63272;74860;13;60
r;178597;98577;74860;13;60
r;178639;28611;74860;13;60
r;178764;134089;74860;13;60
r;178775;98334;74860;13;60
r;178814;131980;74860;13;60
r;178834;118101;74860;13;60
r;179146;40241;74860;13;60
r;179197;104080;74860;13;60
r;180636;86078;74860;13;60
r;180643;2666;74860;13;60
r;180667;101621;74860;13;60
r;180742;36680;74860;13;60
r;181379;15487;74860;13;60
r;181506;54585;74860;13;60
r;181541;24901;74860;13;60
r;181545;13501;74860;13;60
r;181640;93513;74860;13;60
r;181668;100448;74860;13;60
r;181736;79699;74860;13;60
r;181790;122662;74860;13;60
r;181797;9503;74860;13;60
r;182010;25997;74860;13;60
r;182596;75995;74860;13;60
r;183008;68016;74860;13;60
r;183451;92191;74860;13;60
r;183456;7724;74860;13;60
r;184685;63509;74860;13;60
r;184815;90837;74860;13;60
r;185118;7804;74860;13;60
r;186399;131903;74860;13;60
r;187647;44738;74860;13;60
r;187661;20537;74860;13;60
r;191219;47196;74860;13;60
r;193342;129694;74860;13;60
r;197544;67730;74860;13;60
r;199305;36154;74860;13;60
r;201746;139246;74860;13;60
r;201923;59830;74860;13;60
r;202757;126448;74860;13;60
r;206695;69958;74860;13;60
r;207579;117101;74860;13;60
r;210217;8724;74860;13;60
r;210805;129436;74860;13;60
r;212283;51520;74860;13;60
r;212627;24346;74860;13;60
r;217137;156906;74860;13;60
r;219169;156706;74860;13;60
r;222118;156719;74860;13;60
r;222814;157880;74860;13;60
r;222897;157882;74860;13;60
r;222941;157395;74860;13;60
r;223733;63831;74860;13;60
r;224555;157508;74860;13;60
r;225109;157351;74860;13;60
r;226046;5692;74860;13;60
r;230650;158465;74860;13;60
r;231672;5130;74860;13;60
r;233774;158599;74860;13;60
r;234032;100465;74860;13;60
r;234217;36267;74860;13;60
r;235488;158708;74860;13;60
r;235890;157158;74860;13;60
r;236362;157729;74860;13;60
r;237944;158621;74860;13;60
r;239742;157909;74860;13;60
r;239868;125964;74860;13;60
r;240183;159171;74860;13;60
r;240802;157701;74860;13;60
r;241101;157548;74860;13;60
r;242918;126043;74860;13;60
r;243307;94300;74860;13;60
r;244821;75156;74860;13;60
r;252548;159021;74860;13;60
r;252555;159778;74860;13;60
r;257125;159003;74860;13;60
r;257135;145801;74860;13;60
r;257821;160098;74860;13;60
r;261639;160263;74860;13;60
r;263300;157499;74860;13;60
r;265604;160628;74860;13;60
r;265921;45616;74860;13;60
r;267096;157727;74860;13;60
r;267698;48797;74860;13;60
r;268171;160697;74860;13;60
r;268220;159176;74860;13;60
r;268231;15174;74860;13;60
r;268766;160878;74860;13;60
r;269147;160360;74860;13;60
r;269242;157805;74860;13;60
r;269252;160813;74860;13;60
r;270532;159101;74860;13;60
r;271410;85956;74860;13;60
r;271962;159976;74860;13;60
r;273006;160394;74860;13;60
r;273049;125643;74860;13;60
r;273207;160530;74860;13;60
r;273679;160380;74860;13;60
r;274546;102201;74860;13;60
r;275382;161356;74860;13;60
r;275627;159328;74860;13;60
r;276469;161026;74860;13;60
r;356246;158776;74860;13;60
r;356609;159401;74860;13;60
r;357004;158245;74860;13;60
r;359507;160521;74860;13;60
r;360271;160363;74860;13;60
r;360734;160358;74860;13;60
r;371630;36014;74860;13;60
r;373663;159683;74860;13;60
r;378700;160869;74860;13;60
r;379673;24145;74860;13;60
r;379813;163266;74860;13;60
r;382526;163401;74860;13;60
r;382641;160625;74860;13;60
r;382660;160626;74860;13;60
r;387022;69295;74860;13;60
r;389159;163249;74860;13;60
r;389799;161139;74860;13;60
r;394003;163085;74860;13;60
r;394778;162877;74860;13;60
r;395665;163947;74860;13;60
r;397648;115092;74860;13;60
r;400826;163581;74860;13;60
r;401768;164136;74860;13;60
r;405482;164608;74860;13;60
r;406398;36426;74860;13;60
r;406797;163700;74860;13;60
r;406894;107875;74860;13;60
r;407158;164398;74860;13;60
r;409858;164301;74860;13;60
r;409872;165002;74860;13;60
r;411516;157333;74860;13;60
r;413587;165283;74860;13;60
r;413598;67823;74860;13;60
r;413620;161399;74860;13;60
r;417415;164260;74860;13;60
r;417536;162944;74860;13;60
r;423336;15961;74860;13;60
r;424542;165251;74860;13;60
r;425492;166024;74860;13;60
r;426879;161533;74860;13;60
r;427942;164829;74860;13;60
r;435435;144599;74860;13;60
r;444098;164551;74860;13;60
r;462681;167141;74860;13;60
r;463547;165637;74860;13;60
r;486133;164861;74860;13;60
r;621964;165077;74860;13;60
r;1370836;164646;74860;13;60
r;1373020;89859;74860;13;60
r;1373959;157552;74860;13;60
r;1376257;166110;74860;13;60
r;1379034;157522;74860;13;60
r;1467774;189899;74860;13;60
r;1547185;166200;74860;13;60
r;1555029;164045;74860;13;60
r;1562098;195156;74860;13;60
r;1565100;166066;74860;13;60
r;1565885;164988;74860;13;60
r;1602331;158491;74860;13;60
r;1613385;212197;74860;13;60
r;1618516;195063;74860;13;60
r;1623475;165631;74860;13;60
r;1800936;223750;74860;13;60
r;1807950;127329;74860;13;60
r;1816760;217704;74860;13;60
r;1818668;230508;74860;13;60
r;1821938;164122;74860;13;60
r;1827059;215584;74860;13;60
r;1827206;143247;74860;13;60
r;1835866;36635;74860;13;60
r;1846320;227817;74860;13;60
r;1882272;166437;74860;13;60
r;1898463;219157;74860;13;60
r;1926453;219095;74860;13;60
r;1930664;216281;74860;13;60
r;1973415;90097;74860;13;60
r;1981975;165433;74860;13;60
r;1995037;165193;74860;13;60
r;2024191;195210;74860;13;60
r;2047847;195336;74860;13;60
r;2053058;166235;74860;13;60
r;2053191;229994;74860;13;60
r;2073400;241315;74860;13;60
r;2077620;165627;74860;13;60
r;2108785;226291;74860;13;60
r;2115205;226212;74860;13;60
r;2115479;159655;74860;13;60
r;2137322;215604;74860;13;60
r;2137614;186610;74860;13;60
r;2138044;34938;74860;13;60
r;2178354;185657;74860;13;60
r;2198829;87106;74860;13;60
r;2212716;100788;74860;13;60
r;2212726;191764;74860;13;60
r;2217233;164920;74860;13;60
r;2220040;166192;74860;13;60
r;2236790;195297;74860;13;60
r;2257928;248984;74860;13;60
r;2268885;195078;74860;13;60
r;2463610;258789;74860;13;60
r;2466233;235577;74860;13;60
r;2511033;256851;74860;13;60
r;2516556;13838;74860;13;60
r;2567268;251046;74860;13;60
r;3062466;117291;74860;13;60
r;3154099;163302;74860;13;60
r;3223926;163889;74860;13;60
r;9014949;163743;74860;13;60
r;10727218;95612;74860;13;60
r;10727261;221241;74860;13;60
r;11548668;326613;74860;13;60
r;11549090;326639;74860;13;60
r;11549199;326644;74860;13;60
r;11551188;326718;74860;13;60
r;11552262;326824;74860;13;60
r;11553384;326890;74860;13;60
r;11553513;326630;74860;13;60
r;11553761;326913;74860;13;60
r;11554396;326953;74860;13;60
r;11554484;326958;74860;13;60
r;11554577;326965;74860;13;60
r;11554804;326978;74860;13;60
r;11554878;326982;74860;13;60
r;11555822;326911;74860;13;60
r;11556026;327044;74860;13;60
r;11556047;326928;74860;13;60
r;11556625;327082;74860;13;60
r;11557195;326691;74860;13;60
r;11557202;327022;74860;13;60
r;11557346;327128;74860;13;60
r;11560077;327277;74860;13;60
r;11561050;326825;74860;13;60
r;11561173;327338;74860;13;60
r;11561505;327354;74860;13;60
r;11561616;327360;74860;13;60
r;11562025;326938;74860;13;60
r;11563306;327378;74860;13;60
r;11563408;326621;74860;13;60
r;11563721;327474;74860;13;60
r;11563958;326625;74860;13;60
r;11564014;327325;74860;13;60
r;11564237;327499;74860;13;60
r;11564506;327513;74860;13;60
r;11564784;327524;74860;13;60
r;11565558;327293;74860;13;60
r;11565587;327558;74860;13;60
r;11566045;326618;74860;13;60
r;11566827;327624;74860;13;60
r;11567317;327581;74860;13;60
r;11568003;326781;74860;13;60
r;11568463;327100;74860;13;60
r;11568475;327712;74860;13;60
r;11568514;327714;74860;13;60
r;11568607;327721;74860;13;60
r;11568653;327724;74860;13;60
r;11568973;327743;74860;13;60
r;11569029;327746;74860;13;60
r;11569385;327764;74860;13;60
r;11569398;327765;74860;13;60
r;11569434;327767;74860;13;60
r;11569662;327779;74860;13;60
r;11570096;327687;74860;13;60
r;11570364;327083;74860;13;60
r;11570402;327816;74860;13;60
r;11570965;327355;74860;13;60
r;11571390;327864;74860;13;60
r;11572072;327899;74860;13;60
r;11572181;327505;74860;13;60
r;11572541;327750;74860;13;60
r;11572606;327920;74860;13;60
r;11577179;328164;74860;13;60
r;11577381;327747;74860;13;60
r;11577740;327107;74860;13;60
r;11578252;326894;74860;13;60
r;11578311;327202;74860;13;60
r;11578415;328230;74860;13;60
r;11578711;328247;74860;13;60
r;11579316;327617;74860;13;60
r;11579718;327676;74860;13;60
r;11580326;328324;74860;13;60
r;11580432;327460;74860;13;60
r;11580835;328349;74860;13;60
r;11581017;328199;74860;13;60
r;11581030;326927;74860;13;60
r;11581376;328165;74860;13;60
r;11581522;328381;74860;13;60
r;11581758;327951;74860;13;60
r;11582085;328410;74860;13;60
r;11582155;328414;74860;13;60
r;11582255;326713;74860;13;60
r;11582846;328445;74860;13;60
r;11582906;327361;74860;13;60
r;11583025;327759;74860;13;60
r;11583262;328471;74860;13;60
r;11583325;326608;74860;13;60
r;11583574;328486;74860;13;60
r;11583787;328499;74860;13;60
r;11583829;328502;74860;13;60
r;11584150;328519;74860;13;60
r;11584228;328523;74860;13;60
r;11585303;328585;74860;13;60
r;11585324;328587;74860;13;60
r;11585340;327959;74860;13;60
r;11586472;328656;74860;13;60
r;11586602;328663;74860;13;60
r;11586671;328669;74860;13;60
r;11586894;328684;74860;13;60
r;11586911;328686;74860;13;60
r;11587045;328694;74860;13;60
r;11587482;327984;74860;13;60
r;11587802;328739;74860;13;60
r;11588297;328102;74860;13;60
r;11588501;328776;74860;13;60
r;11588781;328791;74860;13;60
r;11588851;328072;74860;13;60
r;11588933;326661;74860;13;60
r;11589071;328813;74860;13;60
r;11589252;327073;74860;13;60
r;11589425;328833;74860;13;60
r;11589510;328741;74860;13;60
r;11590941;328531;74860;13;60
r;11590959;328918;74860;13;60
r;11591088;328567;74860;13;60
r;11591373;328058;74860;13;60
r;11591823;328956;74860;13;60
r;11591902;328959;74860;13;60
r;11592928;327552;74860;13;60
r;11593326;329040;74860;13;60
r;11593347;328030;74860;13;60
r;11593660;329059;74860;13;60
r;11593836;329069;74860;13;60
r;11593949;329075;74860;13;60
r;11594743;329119;74860;13;60
r;11595281;328954;74860;13;60
r;11595326;329154;74860;13;60
r;11596319;328488;74860;13;60
r;11596796;328712;74860;13;60
r;13450597;58842;74860;13;60
r;61004962;2539768;74860;13;60
r;61029634;2395742;74860;13;60
r;61043003;185269;74860;13;60
r;61048563;2365408;74860;13;60
r;206156410;258029;74860;13;60
r;217598481;9726572;74860;13;60
r;193294;19309;74860;13;61
r;382237;21985;74860;13;61
r;407797;104396;74860;13;61
r;2454583;160339;74860;13;61
r;9006018;165223;74860;13;61
r;9045325;164151;74860;13;61
r;9339665;165623;74860;13;61
r;10674333;239380;74860;13;61
r;11562263;327394;74860;13;61
r;11565853;327483;74860;13;61
r;11568319;327705;74860;13;61
r;11578628;328243;74860;13;61
r;11581093;328362;74860;13;61
r;11584002;328509;74860;13;61
r;11584016;328510;74860;13;61
r;11585289;328584;74860;13;61
r;11589377;327561;74860;13;61
r;11608030;156661;74860;13;61
r;11608785;326606;74860;13;61
r;12062926;162268;74860;13;61
r;12065185;160374;74860;13;61
r;12118305;163767;74860;13;61
r;12142550;328308;74860;13;61
r;12143083;327907;74860;13;61
r;12143455;327404;74860;13;61
r;12437378;165236;74860;13;61
r;12776449;327127;74860;13;61
r;13803364;198824;74860;13;61
r;14639039;136769;74860;13;61
r;61020523;2458188;74860;13;61
r;209175326;100898;74860;13;61
r;26066914;4777;74860;13;62
r;28773974;62823;74860;13;62
r;102043644;59413;74860;13;62
r;181759;106682;74860;13;64
r;161474;32367;74860;13;65
r;1882740;100813;74860;13;65
r;98841300;390943;74860;13;65
r;194558063;165111;74860;13;65
r;156878;105111;74860;13;69
r;136173;138923;74860;13;70
r;137342;48918;74860;13;70
r;144065;74325;74860;13;70
r;150976;73963;74860;13;70
r;151317;33963;74860;13;70
r;151991;56747;74860;13;70
r;154301;25479;74860;13;70
r;155479;71211;74860;13;70
r;156968;92122;74860;13;70
r;157575;16167;74860;13;70
r;160750;101048;74860;13;70
r;160766;80995;74860;13;70
r;166271;26267;74860;13;70
r;170190;123040;74860;13;70
r;172767;102531;74860;13;70
r;173326;13603;74860;13;70
r;174446;90377;74860;13;70
r;176247;15128;74860;13;70
r;177590;123550;74860;13;70
r;178820;78328;74860;13;70
r;179041;4144;74860;13;70
r;181457;127348;74860;13;70
r;183317;76431;74860;13;70
r;184248;113724;74860;13;70
r;184296;16075;74860;13;70
r;197835;117305;74860;13;70
r;198700;19090;74860;13;70
r;199416;131732;74860;13;70
r;214771;20033;74860;13;70
r;221560;156831;74860;13;70
r;222799;157653;74860;13;70
r;231682;158094;74860;13;70
r;233545;128969;74860;13;70
r;236808;157572;74860;13;70
r;236833;158099;74860;13;70
r;237989;156870;74860;13;70
r;243152;156724;74860;13;70
r;248447;157844;74860;13;70
r;248622;158153;74860;13;70
r;251594;58135;74860;13;70
r;255011;78688;74860;13;70
r;266023;139213;74860;13;70
r;277091;160215;74860;13;70
r;365350;156928;74860;13;70
r;370318;162690;74860;13;70
r;376165;162828;74860;13;70
r;383004;159758;74860;13;70
r;389878;158981;74860;13;70
r;396352;163785;74860;13;70
r;407405;164272;74860;13;70
r;407446;163837;74860;13;70
r;417419;163139;74860;13;70
r;419559;165606;74860;13;70
r;422785;165370;74860;13;70
r;425483;163557;74860;13;70
r;604728;167142;74860;13;70
r;1371841;163929;74860;13;70
r;1373954;164654;74860;13;70
r;1386490;195027;74860;13;70
r;1617046;215492;74860;13;70
r;1624418;195295;74860;13;70
r;1624423;164922;74860;13;70
r;1628011;195190;74860;13;70
r;1661529;195157;74860;13;70
r;1667165;207770;74860;13;70
r;1677463;223189;74860;13;70
r;1693835;86915;74860;13;70
r;1718865;219218;74860;13;70
r;1758005;217729;74860;13;70
r;1796418;162;74860;13;70
r;1801317;166516;74860;13;70
r;1803783;165538;74860;13;70
r;1807943;195248;74860;13;70
r;1816850;102152;74860;13;70
r;1821951;14734;74860;13;70
r;1823035;4417;74860;13;70
r;1875335;219125;74860;13;70
r;1875345;22508;74860;13;70
r;1886569;195340;74860;13;70
r;1909019;26300;74860;13;70
r;1959372;165600;74860;13;70
r;1969911;235510;74860;13;70
r;2012775;195040;74860;13;70
r;2047844;35154;74860;13;70
r;2137409;195149;74860;13;70
r;2137415;244215;74860;13;70
r;2205077;243841;74860;13;70
r;2217586;141635;74860;13;70
r;2239078;215261;74860;13;70
r;2297097;245992;74860;13;70
r;2330553;237111;74860;13;70
r;2450870;202606;74860;13;70
r;2452264;161310;74860;13;70
r;2456787;252799;74860;13;70
r;2512357;261947;74860;13;70
r;3062436;255176;74860;13;70
r;3101548;26201;74860;13;70
r;3120134;266584;74860;13;70
r;11549234;326646;74860;13;70
r;11550390;326716;74860;13;70
r;11550898;326741;74860;13;70
r;11551356;326769;74860;13;70
r;11555009;326990;74860;13;70
r;11555455;326791;74860;13;70
r;11556847;327098;74860;13;70
r;11558633;327201;74860;13;70
r;11558681;327205;74860;13;70
r;11559223;327233;74860;13;70
r;11563204;327446;74860;13;70
r;11565952;327575;74860;13;70
r;11567820;327675;74860;13;70
r;11571917;327891;74860;13;70
r;11576400;327995;74860;13;70
r;11576882;327294;74860;13;70
r;11577913;328203;74860;13;70
r;11579247;328271;74860;13;70
r;11580033;327866;74860;13;70
r;11580178;327585;74860;13;70
r;11581432;328378;74860;13;70
r;11582298;328423;74860;13;70
r;11583036;328454;74860;13;70
r;11584437;327852;74860;13;70
r;11584960;327741;74860;13;70
r;11585149;328577;74860;13;70
r;11585214;327726;74860;13;70
r;11588687;327385;74860;13;70
r;11588716;327130;74860;13;70
r;11588941;327924;74860;13;70
r;11589027;328606;74860;13;70
r;11589165;328366;74860;13;70
r;11589222;328823;74860;13;70
r;11589452;328835;74860;13;70
r;11590621;328846;74860;13;70
r;11590848;328912;74860;13;70
r;11591382;326892;74860;13;70
r;11591842;328957;74860;13;70
r;11591949;328641;74860;13;70
r;11592645;329001;74860;13;70
r;11594728;327986;74860;13;70
r;11594873;329126;74860;13;70
r;11595856;329128;74860;13;70
r;11595939;326587;74860;13;70
r;11597147;329000;74860;13;70
r;11597709;329301;74860;13;70
r;11597920;329317;74860;13;70
r;26594462;154774;74860;13;70
r;2281839;158133;74860;13;71
r;2288757;212372;74860;13;71
r;2519272;160875;74860;13;71
r;3131965;39767;74860;13;71
r;9086621;251971;74860;13;71
r;11558982;327222;74860;13;71
r;11570382;327457;74860;13;71
r;11589636;326926;74860;13;71
r;12433280;248147;74860;13;71
r;12776177;328334;74860;13;71
r;13006731;92304;74860;13;71
r;13024350;241239;74860;13;71
r;13060054;222289;74860;13;71
r;13175414;328898;74860;13;71
r;13175581;328983;74860;13;71
r;13656999;161013;74860;13;71
r;15087934;47175;74860;13;71
r;22895081;91829;74860;13;72
r;167223;20698;74860;13;75
r;109767301;247601;74860;13;75
r;2314580;134874;74860;13;78
r;120098;80478;74860;13;80
r;137304;85816;74860;13;80
r;137819;101484;74860;13;80
r;137966;2760;74860;13;80
r;137989;12941;74860;13;80
r;142616;88326;74860;13;80
r;143708;22824;74860;13;80
r;143788;37232;74860;13;80
r;143808;3973;74860;13;80
r;145820;45999;74860;13;80
r;147158;35167;74860;13;80
r;149229;129264;74860;13;80
r;149253;83670;74860;13;80
r;150996;76973;74860;13;80
r;151003;57788;74860;13;80
r;160056;52705;74860;13;80
r;160757;91544;74860;13;80
r;161497;129572;74860;13;80
r;167689;48073;74860;13;80
r;170756;116826;74860;13;80
r;172391;68184;74860;13;80
r;173115;64325;74860;13;80
r;173376;65050;74860;13;80
r;174615;16508;74860;13;80
r;177496;53344;74860;13;80
r;179005;118577;74860;13;80
r;181461;40576;74860;13;80
r;181558;134295;74860;13;80
r;181745;108713;74860;13;80
r;182745;138227;74860;13;80
r;183485;107569;74860;13;80
r;183808;82900;74860;13;80
r;184328;5074;74860;13;80
r;184849;2344;74860;13;80
r;185215;129419;74860;13;80
r;194989;61473;74860;13;80
r;199437;26245;74860;13;80
r;207896;23637;74860;13;80
r;210141;54882;74860;13;80
r;210793;96788;74860;13;80
r;213468;34122;74860;13;80
r;215367;132649;74860;13;80
r;216328;156710;74860;13;80
r;221590;156755;74860;13;80
r;224558;157602;74860;13;80
r;228171;157968;74860;13;80
r;230537;147424;74860;13;80
r;234049;156934;74860;13;80
r;235564;158580;74860;13;80
r;247647;159363;74860;13;80
r;258337;158335;74860;13;80
r;259747;158074;74860;13;80
r;265347;159137;74860;13;80
r;265591;160888;74860;13;80
r;273717;66048;74860;13;80
r;274536;160592;74860;13;80
r;274819;160859;74860;13;80
r;276488;157836;74860;13;80
r;277404;158265;74860;13;80
r;359232;160430;74860;13;80
r;368181;160999;74860;13;80
r;368498;161978;74860;13;80
r;393191;81196;74860;13;80
r;397456;163900;74860;13;80
r;397959;23402;74860;13;80
r;402036;164519;74860;13;80
r;403982;163691;74860;13;80
r;403986;164489;74860;13;80
r;411475;163613;74860;13;80
r;462542;165638;74860;13;80
r;463640;158755;74860;13;80
r;1376564;19226;74860;13;80
r;1555035;162918;74860;13;80
r;1565941;212205;74860;13;80
r;1595236;191789;74860;13;80
r;1611078;166256;74860;13;80
r;1742805;219029;74860;13;80
r;1821944;122950;74860;13;80
r;1897155;223366;74860;13;80
r;1902496;59759;74860;13;80
r;1981056;165452;74860;13;80
r;2047880;230897;74860;13;80
r;2111661;229997;74860;13;80
r;2125301;223228;74860;13;80
r;2129296;161568;74860;13;80
r;2132327;243646;74860;13;80
r;2144208;246391;74860;13;80
r;3103583;30736;74860;13;80
r;8537493;164469;74860;13;80
r;11549129;326640;74860;13;80
r;11549535;326663;74860;13;80
r;11551411;326774;74860;13;80
r;11555192;327001;74860;13;80
r;11556772;327093;74860;13;80
r;11557719;327147;74860;13;80
r;11558446;327191;74860;13;80
r;11560158;327281;74860;13;80
r;11560511;327302;74860;13;80
r;11561430;327350;74860;13;80
r;11562167;327390;74860;13;80
r;11563785;327479;74860;13;80
r;11564593;327515;74860;13;80
r;11568706;327476;74860;13;80
r;11569250;327756;74860;13;80
r;11570308;327812;74860;13;80
r;11570453;327820;74860;13;80
r;11570844;327843;74860;13;80
r;11572704;327926;74860;13;80
r;11573695;327977;74860;13;80
r;11577301;328170;74860;13;80
r;11579397;328281;74860;13;80
r;11579696;328295;74860;13;80
r;11580345;328325;74860;13;80
r;11580371;328327;74860;13;80
r;11581861;328397;74860;13;80
r;11581880;327434;74860;13;80
r;11581984;328405;74860;13;80
r;11584655;328344;74860;13;80
r;11585347;328396;74860;13;80
r;11587101;328699;74860;13;80
r;11588514;328698;74860;13;80
r;11591634;328947;74860;13;80
r;11592724;329004;74860;13;80
r;11592750;326813;74860;13;80
r;11593861;329070;74860;13;80
r;11593990;329078;74860;13;80
r;11595711;329173;74860;13;80
r;11596425;327299;74860;13;80
r;95759925;4014306;74860;13;80
r;212890109;9268699;74860;13;80
r;2220687;166294;74860;13;81
r;2269531;245590;74860;13;81
r;2281849;156702;74860;13;81
r;8785811;161197;74860;13;81
r;9065515;158592;74860;13;81
r;9065975;165455;74860;13;81
r;9076896;165409;74860;13;81
r;9334134;158786;74860;13;81
r;11549031;326635;74860;13;81
r;11561453;327351;74860;13;81
r;11562322;327241;74860;13;81
r;11571541;327869;74860;13;81
r;11584538;328539;74860;13;81
r;11584682;327648;74860;13;81
r;11587177;327519;74860;13;81
r;11596114;328614;74860;13;81
r;11713782;240700;74860;13;81
r;11721160;329148;74860;13;81
r;12052553;223198;74860;13;81
r;12063057;157324;74860;13;81
r;12125480;259962;74860;13;81
r;12140992;329292;74860;13;81
r;12141487;327715;74860;13;81
r;12144327;326885;74860;13;81
r;12459760;245434;74860;13;81
r;12776201;329192;74860;13;81
r;12990753;191761;74860;13;81
r;13012481;328144;74860;13;81
r;217343168;142980;74860;13;81
r;145776;29690;74860;13;82
r;17908226;152373;74860;13;82
r;72638695;233198;74860;13;85
r;134678;66071;74860;13;90
r;135451;125014;74860;13;90
r;149506;115223;74860;13;90
r;151292;47514;74860;13;90
r;153858;38723;74860;13;90
r;158260;28475;74860;13;90
r;158716;1504;74860;13;90
r;158994;19381;74860;13;90
r;166413;116592;74860;13;90
r;172490;36548;74860;13;90
r;173357;8308;74860;13;90
r;179057;104624;74860;13;90
r;183819;21038;74860;13;90
r;200760;130782;74860;13;90
r;210290;87221;74860;13;90
r;211548;25111;74860;13;90
r;217603;156855;74860;13;90
r;223378;121724;74860;13;90
r;228609;158208;74860;13;90
r;233929;158157;74860;13;90
r;236896;21154;74860;13;90
r;243840;158148;74860;13;90
r;244753;158983;74860;13;90
r;244866;158164;74860;13;90
r;255048;159889;74860;13;90
r;261078;158693;74860;13;90
r;265609;91883;74860;13;90
r;267633;160938;74860;13;90
r;268809;73827;74860;13;90
r;274035;159980;74860;13;90
r;275670;82084;74860;13;90
r;275916;158354;74860;13;90
r;356740;161730;74860;13;90
r;358994;161673;74860;13;90
r;359004;161494;74860;13;90
r;361385;160735;74860;13;90
r;369506;115695;74860;13;90
r;370567;161231;74860;13;90
r;381081;159877;74860;13;90
r;381090;23442;74860;13;90
r;381203;163396;74860;13;90
r;381227;161465;74860;13;90
r;389310;162792;74860;13;90
r;395672;164279;74860;13;90
r;403988;162396;74860;13;90
r;411737;164210;74860;13;90
r;413961;63030;74860;13;90
r;417558;164595;74860;13;90
r;420253;163768;74860;13;90
r;421737;165009;74860;13;90
r;423188;165042;74860;13;90
r;426468;165993;74860;13;90
r;427139;161021;74860;13;90
r;432327;163316;74860;13;90
r;463631;166411;74860;13;90
r;1551982;195140;74860;13;90
r;1610943;163826;74860;13;90
r;1677439;50793;74860;13;90
r;1684330;77872;74860;13;90
r;1690630;12446;74860;13;90
r;1742808;161030;74860;13;90
r;1751431;195181;74860;13;90
r;1801321;3911;74860;13;90
r;1902501;221648;74860;13;90
r;1943856;223413;74860;13;90
r;1981050;157682;74860;13;90
r;2051707;226389;74860;13;90
r;2149836;195167;74860;13;90
r;2236780;242737;74860;13;90
r;2254611;242664;74860;13;90
r;2269544;243742;74860;13;90
r;2282391;144826;74860;13;90
r;2349669;159241;74860;13;90
r;3123125;162972;74860;13;90
r;11550567;326728;74860;13;90
r;11555667;327025;74860;13;90
r;11559148;327228;74860;13;90
r;11559238;327234;74860;13;90
r;11559275;326594;74860;13;90
r;11559722;327028;74860;13;90
r;11560593;327306;74860;13;90
r;11561941;327379;74860;13;90
r;11563232;327448;74860;13;90
r;11564220;327498;74860;13;90
r;11566412;327601;74860;13;90
r;11566494;327606;74860;13;90
r;11566878;327627;74860;13;90
r;11569862;327788;74860;13;90
r;11570672;327834;74860;13;90
r;11570961;327688;74860;13;90
r;11570994;327502;74860;13;90
r;11571638;327240;74860;13;90
r;11572389;327910;74860;13;90
r;11572500;327915;74860;13;90
r;11573043;327944;74860;13;90
r;11573107;327253;74860;13;90
r;11575024;328045;74860;13;90
r;11576641;328137;74860;13;90
r;11577492;326828;74860;13;90
r;11578466;328234;74860;13;90
r;11578690;328246;74860;13;90
r;11579949;328309;74860;13;90
r;11580157;327176;74860;13;90
r;11581213;328110;74860;13;90
r;11581476;326788;74860;13;90
r;11582116;327923;74860;13;90
r;11583335;326695;74860;13;90
r;11583424;327614;74860;13;90
r;11586361;328650;74860;13;90
r;11587406;328715;74860;13;90
r;11588890;328799;74860;13;90
r;11588978;328805;74860;13;90
r;11589017;328808;74860;13;90
r;11592290;328980;74860;13;90
r;11592779;329006;74860;13;90
r;11593368;329043;74860;13;90
r;11595461;329161;74860;13;90
r;11595515;329162;74860;13;90
r;11595743;327776;74860;13;90
r;2570379;157915;74860;13;91
r;9062787;102810;74860;13;91
r;9331700;212379;74860;13;91
r;11557394;327131;74860;13;91
r;11589650;328845;74860;13;91
r;12057239;195060;74860;13;91
r;12062428;162438;74860;13;91
r;12141816;328779;74860;13;91
r;12143003;327940;74860;13;91
r;12778173;244108;74860;13;91
r;13011492;329185;74860;13;91
r;98844293;4332532;74860;13;91
r;92817404;260397;74860;13;95
r;266467;160736;74860;13;100
r;2428996;251609;74860;13;100
r;2469848;236273;74860;13;100
r;11549586;326667;74860;13;100
r;11549768;326679;74860;13;100
r;11549785;326681;74860;13;100
r;11550220;326707;74860;13;100
r;11550617;326730;74860;13;100
r;11550652;326731;74860;13;100
r;11551260;326763;74860;13;100
r;11551368;326771;74860;13;100
r;11551477;326779;74860;13;100
r;11552209;326823;74860;13;100
r;11552378;326834;74860;13;100
r;11552498;326842;74860;13;100
r;11552997;326872;74860;13;100
r;11553096;326877;74860;13;100
r;11553231;326884;74860;13;100
r;11553709;326912;74860;13;100
r;11554005;326930;74860;13;100
r;11554537;326962;74860;13;100
r;11554921;326985;74860;13;100
r;11555137;326999;74860;13;100
r;11555921;327039;74860;13;100
r;11557627;327143;74860;13;100
r;11557771;327151;74860;13;100
r;11557797;327153;74860;13;100
r;11557915;327162;74860;13;100
r;11558096;327170;74860;13;100
r;11558416;327190;74860;13;100
r;11559345;327239;74860;13;100
r;11559427;327244;74860;13;100
r;11559751;327260;74860;13;100
r;11559939;327270;74860;13;100
r;11560015;327275;74860;13;100
r;11560964;327327;74860;13;100
r;11561032;327331;74860;13;100
r;11561085;327334;74860;13;100
r;11561206;327340;74860;13;100
r;11561285;327343;74860;13;100
r;11561527;327356;74860;13;100
r;11561766;327368;74860;13;100
r;11561825;327372;74860;13;100
r;11562448;327402;74860;13;100
r;11562580;327410;74860;13;100
r;11563000;327433;74860;13;100
r;11563047;327437;74860;13;100
r;11563568;327466;74860;13;100
r;11564323;327504;74860;13;100
r;11564451;327512;74860;13;100
r;11564662;327520;74860;13;100
r;11564980;327532;74860;13;100
r;11565083;327535;74860;13;100
r;11565513;327555;74860;13;100
r;11565789;327565;74860;13;100
r;11565837;327568;74860;13;100
r;11565891;327571;74860;13;100
r;11566019;327580;74860;13;100
r;11566440;327603;74860;13;100
r;11566849;327626;74860;13;100
r;11567584;327665;74860;13;100
r;11568032;327686;74860;13;100
r;11568073;327689;74860;13;100
r;11568298;327704;74860;13;100
r;11568354;327706;74860;13;100
r;11568944;327742;74860;13;100
r;11569261;327757;74860;13;100
r;11569668;327780;74860;13;100
r;11569751;327784;74860;13;100
r;11569882;327789;74860;13;100
r;11569891;327790;74860;13;100
r;11570337;327813;74860;13;100
r;11570686;327835;74860;13;100
r;11571762;327883;74860;13;100
r;11572832;327934;74860;13;100
r;11573154;327949;74860;13;100
r;11573215;327952;74860;13;100
r;11574596;328023;74860;13;100
r;11574754;328031;74860;13;100
r;11575241;328061;74860;13;100
r;11575686;328087;74860;13;100
r;11576113;328105;74860;13;100
r;11576531;328133;74860;13;100
r;11576781;328145;74860;13;100
r;11576835;328147;74860;13;100
r;11576889;328149;74860;13;100
r;11576968;328153;74860;13;100
r;11577125;328162;74860;13;100
r;11577603;328184;74860;13;100
r;11578656;328245;74860;13;100
r;11579003;328261;74860;13;100
r;11579234;328270;74860;13;100
r;11579453;328286;74860;13;100
r;11580198;328318;74860;13;100
r;11580394;328328;74860;13;100
r;11581947;328404;74860;13;100
r;11582502;328432;74860;13;100
r;11583066;328457;74860;13;100
r;11583134;328460;74860;13;100
r;11583144;328461;74860;13;100
r;11583580;328487;74860;13;100
r;11584316;328528;74860;13;100
r;11584763;328551;74860;13;100
r;11584811;328555;74860;13;100
r;11584838;328557;74860;13;100
r;11585266;328582;74860;13;100
r;11586678;328670;74860;13;100
r;11586709;328671;74860;13;100
r;11586899;328685;74860;13;100
r;11587667;328732;74860;13;100
r;11587956;328742;74860;13;100
r;11588392;328769;74860;13;100
r;11588446;328775;74860;13;100
r;11588576;328781;74860;13;100
r;11588899;328800;74860;13;100
r;11589134;328818;74860;13;100
r;11589175;328820;74860;13;100
r;11589200;328822;74860;13;100
r;11589317;328827;74860;13;100
r;11590228;328877;74860;13;100
r;11590455;328891;74860;13;100
r;11591881;328958;74860;13;100
r;11591977;328963;74860;13;100
r;11592202;328975;74860;13;100
r;11592906;329014;74860;13;100
r;11593928;329074;74860;13;100
r;11594477;329107;74860;13;100
r;11594813;329122;74860;13;100
r;11595022;329134;74860;13;100
r;11595220;329149;74860;13;100
r;11595905;329186;74860;13;100
r;11596931;329239;74860;13;100
r;11597056;329250;74860;13;100
r;11597080;329253;74860;13;100
r;11597161;329258;74860;13;100
r;11598158;329343;74860;13;100
r;11598235;329350;74860;13;100
r;13687602;393981;74860;13;100
r;106962483;5341772;74860;13;100
r;144102;113211;74860;13;101
r;158902;47845;74860;13;101
r;161398;103821;74860;13;101
r;167702;58725;74860;13;101
r;178635;9797;74860;13;101
r;188800;111085;74860;13;101
r;1379063;157329;74860;13;101
r;1628689;213903;74860;13;101
r;12127952;157809;74860;13;101
r;15531020;125627;74860;13;101
r;135416;5051;74860;13;102
r;142927;13925;74860;13;102
r;185883;48625;74860;13;102
r;227744;95980;74860;13;102
r;228616;156932;74860;13;102
r;358016;32550;74860;13;102
r;368170;160574;74860;13;102
r;400975;61284;74860;13;102
r;1868108;219126;74860;13;102
r;11553338;326887;74860;13;102
r;11569207;327755;74860;13;102
r;155895;6918;74860;13;103
r;167019;126123;74860;13;103
r;357760;134544;74860;13;103
r;394818;162338;74860;13;103
r;464155;164381;74860;13;103
r;1918878;85163;74860;13;103
r;2239100;207760;74860;13;103
r;11551394;326773;74860;13;103
r;11574796;328033;74860;13;103
r;238426;158179;74860;13;104
r;356677;122680;74860;13;104
r;652128;57139;74860;13;104
r;1372624;161793;74860;13;104
r;1697863;207821;74860;13;104
r;11590197;328875;74860;13;104
r;158440;78768;74860;13;105
r;179443;29474;74860;13;105
r;253314;53579;74860;13;105
r;378251;162881;74860;13;105
r;1973423;163992;74860;13;105
r;11580648;328343;74860;13;105
r;11581690;327021;74860;13;105
r;92943165;233576;74860;13;105
r;107388382;3403097;74860;13;105
r;158982;1870;74860;13;106
r;166521;41160;74860;13;106
r;171754;88259;74860;13;106
r;178544;20379;74860;13;106
r;241216;157444;74860;13;106
r;389218;159708;74860;13;106
r;11554212;326941;74860;13;106
r;11565692;327322;74860;13;106
r;11591860;328191;74860;13;106
r;141547;94656;74860;13;107
r;170751;44740;74860;13;107
r;176861;83270;74860;13;107
r;218996;156806;74860;13;107
r;254299;160135;74860;13;107
r;257451;157709;74860;13;107
r;270325;160724;74860;13;107
r;1670890;165812;74860;13;107
r;11550066;326699;74860;13;107
r;11555889;327036;74860;13;107
r;11559413;327243;74860;13;107
r;11567478;326757;74860;13;107
r;11585755;328616;74860;13;107
r;155461;141996;74860;13;108
r;175591;88494;74860;13;108
r;228155;156742;74860;13;108
r;260120;158087;74860;13;108
r;385463;162059;74860;13;108
r;1677453;213370;74860;13;108
r;11549402;326655;74860;13;108
r;11558580;326785;74860;13;108
r;11569806;327785;74860;13;108
r;11573231;327953;74860;13;108
r;11590081;328869;74860;13;108
r;12144148;327085;74860;13;108
r;154494;102621;74860;13;109
r;182762;96775;74860;13;109
r;240190;158324;74860;13;109
r;277027;161123;74860;13;109
r;397641;23212;74860;13;109
r;407423;162569;74860;13;109
r;1742852;160613;74860;13;109
r;1780184;89031;74860;13;109
r;11560489;327301;74860;13;109
r;11569315;327761;74860;13;109
r;11571335;327159;74860;13;109
r;11573880;327713;74860;13;109
r;11575839;326787;74860;13;109
r;11577199;327421;74860;13;109
r;133808;10604;74860;13;110
r;143721;1974;74860;13;110
r;145801;69093;74860;13;110
r;153536;25726;74860;13;110
r;153542;69387;74860;13;110
r;156437;1409;74860;13;110
r;156912;114629;74860;13;110
r;158559;129474;74860;13;110
r;159751;89749;74860;13;110
r;163928;42310;74860;13;110
r;172831;5076;74860;13;110
r;173127;33082;74860;13;110
r;174426;56441;74860;13;110
r;174437;127803;74860;13;110
r;174609;18289;74860;13;110
r;174624;101793;74860;13;110
r;177504;78152;74860;13;110
r;178825;14338;74860;13;110
r;181498;27513;74860;13;110
r;182635;119712;74860;13;110
r;184262;132044;74860;13;110
r;195553;45225;74860;13;110
r;201981;47466;74860;13;110
r;207540;105216;74860;13;110
r;221170;157378;74860;13;110
r;222788;39170;74860;13;110
r;231279;158020;74860;13;110
r;232242;156675;74860;13;110
r;234665;157604;74860;13;110
r;236557;157966;74860;13;110
r;237616;156769;74860;13;110
r;252756;158279;74860;13;110
r;254899;158344;74860;13;110
r;258089;27619;74860;13;110
r;259172;159483;74860;13;110
r;259654;159232;74860;13;110
r;262515;159392;74860;13;110
r;273726;161403;74860;13;110
r;277037;157629;74860;13;110
r;359928;161503;74860;13;110
r;360657;161472;74860;13;110
r;361059;124752;74860;13;110
r;367576;113071;74860;13;110
r;385304;163517;74860;13;110
r;388920;123255;74860;13;110
r;390243;163650;74860;13;110
r;392309;162345;74860;13;110
r;392876;118705;74860;13;110
r;393888;163993;74860;13;110
r;396292;158996;74860;13;110
r;397466;162862;74860;13;110
r;416302;158081;74860;13;110
r;417896;164157;74860;13;110
r;1371476;69137;74860;13;110
r;1379032;156893;74860;13;110
r;1614818;47972;74860;13;110
r;1623215;58386;74860;13;110
r;1627976;150197;74860;13;110
r;1720751;225329;74860;13;110
r;1835859;51132;74860;13;110
r;2030425;10378;74860;13;110
r;2126108;244262;74860;13;110
r;2354309;72931;74860;13;110
r;2451726;247941;74860;13;110
r;3120976;219047;74860;13;110
r;11548710;326616;74860;13;110
r;11549732;326676;74860;13;110
r;11551118;326753;74860;13;110
r;11553599;326906;74860;13;110
r;11555203;327002;74860;13;110
r;11555249;327004;74860;13;110
r;11557702;327146;74860;13;110
r;11558136;327172;74860;13;110
r;11558504;327195;74860;13;110
r;11560293;327289;74860;13;110
r;11560548;327169;74860;13;110
r;11563292;317038;74860;13;110
r;11564183;327496;74860;13;110
r;11564733;327412;74860;13;110
r;11565136;327537;74860;13;110
r;11572200;327468;74860;13;110
r;11572420;327912;74860;13;110
r;11572518;327916;74860;13;110
r;11574828;328036;74860;13;110
r;11577085;328159;74860;13;110
r;11579149;328266;74860;13;110
r;11579529;327643;74860;13;110
r;11580666;327425;74860;13;110
r;11581117;328363;74860;13;110
r;11591671;328950;74860;13;110
r;11595950;328880;74860;13;110
r;2495000;162236;74860;13;111
r;3080580;162977;74860;13;111
r;3095183;165855;74860;13;111
r;11577510;328139;74860;13;111
r;11585897;328298;74860;13;111
r;12123612;39058;74860;13;111
r;106943116;5338935;74860;13;115
r;138248;15084;74860;13;120
r;140501;27053;74860;13;120
r;150971;43404;74860;13;120
r;157867;48446;74860;13;120
r;163440;22783;74860;13;120
r;171706;38101;74860;13;120
r;174051;30515;74860;13;120
r;174564;34025;74860;13;120
r;177923;39186;74860;13;120
r;178905;26923;74860;13;120
r;179279;46367;74860;13;120
r;180006;129048;74860;13;120
r;183471;30146;74860;13;120
r;184631;119858;74860;13;120
r;199397;46666;74860;13;120
r;206852;3712;74860;13;120
r;208978;49560;74860;13;120
r;209042;6096;74860;13;120
r;209078;87088;74860;13;120
r;210816;44654;74860;13;120
r;215370;46072;74860;13;120
r;225211;133720;74860;13;120
r;236482;157497;74860;13;120
r;239705;7999;74860;13;120
r;260270;160169;74860;13;120
r;260528;159283;74860;13;120
r;263290;158847;74860;13;120
r;273065;160816;74860;13;120
r;358926;161032;74860;13;120
r;364809;161917;74860;13;120
r;365799;161984;74860;13;120
r;379669;159042;74860;13;120
r;381096;161072;74860;13;120
r;399165;164509;74860;13;120
r;405471;123997;74860;13;120
r;413593;162291;74860;13;120
r;423363;164628;74860;13;120
r;1547195;166286;74860;13;120
r;1733784;30087;74860;13;120
r;1774844;84491;74860;13;120
r;1867844;154083;74860;13;120
r;11554373;326951;74860;13;120
r;11562570;327409;74860;13;120
r;11563456;327459;74860;13;120
r;11564393;327507;74860;13;120
r;11567652;327668;74860;13;120
r;11570136;327806;74860;13;120
r;11571033;327801;74860;13;120
r;11571255;327859;74860;13;120
r;11573438;327965;74860;13;120
r;11573742;327980;74860;13;120
r;11574573;328021;74860;13;120
r;11581936;328403;74860;13;120
r;11582237;328420;74860;13;120
r;11587144;328500;74860;13;120
r;13436920;41668;74860;13;120
r;2447078;243693;74860;13;121
r;134778;26151;74860;13;130
r;135747;46211;74860;13;130
r;143737;30316;74860;13;130
r;144073;5627;74860;13;130
r;145758;4528;74860;13;130
r;150514;4993;74860;13;130
r;151899;45472;74860;13;130
r;157690;102610;74860;13;130
r;169140;3219;74860;13;130
r;169180;48567;74860;13;130
r;171405;12538;74860;13;130
r;179999;84708;74860;13;130
r;181492;100888;74860;13;130
r;199400;7030;74860;13;130
r;208880;131333;74860;13;130
r;208967;12611;74860;13;130
r;209098;30723;74860;13;130
r;213973;11237;74860;13;130
r;224464;157533;74860;13;130
r;230014;54459;74860;13;130
r;231951;158455;74860;13;130
r;234677;158146;74860;13;130
r;251444;158648;74860;13;130
r;260134;160000;74860;13;130
r;265381;158192;74860;13;130
r;373667;162946;74860;13;130
r;379651;162041;74860;13;130
r;385302;159336;74860;13;130
r;393195;162819;74860;13;130
r;393997;163330;74860;13;130
r;420310;161814;74860;13;130
r;426888;162961;74860;13;130
r;427130;164225;74860;13;130
r;452370;121588;74860;13;130
r;455106;165661;74860;13;130
r;462688;163805;74860;13;130
r;462834;165975;74860;13;130
r;639574;141484;74860;13;130
r;1379019;165604;74860;13;130
r;1618511;219089;74860;13;130
r;1755529;218654;74860;13;130
r;1801298;230116;74860;13;130
r;1869326;231833;74860;13;130
r;1909808;27157;74860;13;130
r;1977010;219669;74860;13;130
r;2228628;220057;74860;13;130
r;11554660;326960;74860;13;130
r;11559134;326802;74860;13;130
r;11559546;326815;74860;13;130
r;11561002;327329;74860;13;130
r;11561717;327365;74860;13;130
r;11564536;327514;74860;13;130
r;11567005;327633;74860;13;130
r;11573265;327955;74860;13;130
r;11573837;327985;74860;13;130
r;11576825;328146;74860;13;130
r;11577398;327893;74860;13;130
r;11577446;328177;74860;13;130
r;11578552;328239;74860;13;130
r;11580091;327981;74860;13;130
r;11581275;328369;74860;13;130
r;11585188;327060;74860;13;130
r;11585394;317035;74860;13;130
r;11586330;328127;74860;13;130
r;11591566;328537;74860;13;130
r;11591803;328955;74860;13;130
r;11592057;326726;74860;13;130
r;11592163;328972;74860;13;130
r;11593887;328645;74860;13;130
r;61494616;2520988;74860;13;130
r;63303508;2365120;74860;13;130
r;359496;158163;74860;13;131
r;11559259;327235;74860;13;131
r;2214136;165471;74860;13;132
r;11584753;328550;74860;13;132
r;193670541;237990;74860;13;135
r;142624;10303;74860;13;140
r;148531;53500;74860;13;140
r;153925;104720;74860;13;140
r;154314;77822;74860;13;140
r;154501;34441;74860;13;140
r;155907;122904;74860;13;140
r;159759;99940;74860;13;140
r;167548;17195;74860;13;140
r;171339;21893;74860;13;140
r;172114;79896;74860;13;140
r;185296;32322;74860;13;140
r;192422;56105;74860;13;140
r;195569;16810;74860;13;140
r;201736;36620;74860;13;140
r;206586;54003;74860;13;140
r;206762;27895;74860;13;140
r;211772;69804;74860;13;140
r;221093;1644;74860;13;140
r;222054;156688;74860;13;140
r;236492;158820;74860;13;140
r;265385;157867;74860;13;140
r;268136;160431;74860;13;140
r;277099;161596;74860;13;140
r;368453;161985;74860;13;140
r;368488;162169;74860;13;140
r;385890;107257;74860;13;140
r;425653;165094;74860;13;140
r;425784;29080;74860;13;140
r;1551900;212230;74860;13;140
r;1624935;215869;74860;13;140
r;1652028;165025;74860;13;140
r;1747108;20264;74860;13;140
r;2341841;166028;74860;13;140
r;11548844;326626;74860;13;140
r;11557054;326857;74860;13;140
r;11562421;327286;74860;13;140
r;11568712;327728;74860;13;140
r;11572823;326929;74860;13;140
r;11573763;327825;74860;13;140
r;11574179;327629;74860;13;140
r;11583391;328477;74860;13;140
r;11583621;327696;74860;13;140
r;11586495;328657;74860;13;140
r;11589555;328841;74860;13;140
r;11591006;328507;74860;13;140
r;2255259;162557;74860;13;141
r;11575780;327666;74860;13;141
r;1878081;5435;74860;13;145
r;1612281;195330;74860;13;148
r;11589385;326867;74860;13;148
r;132914;24675;74860;13;150
r;137356;50877;74860;13;150
r;151310;107768;74860;13;150
r;152698;104506;74860;13;150
r;152886;11119;74860;13;150
r;153013;46738;74860;13;150
r;158858;69182;74860;13;150
r;162759;25099;74860;13;150
r;163452;39895;74860;13;150
r;167005;145209;74860;13;150
r;167024;81924;74860;13;150
r;169150;28223;74860;13;150
r;172430;5197;74860;13;150
r;174463;30092;74860;13;150
r;196351;15078;74860;13;150
r;198902;74963;74860;13;150
r;206599;77428;74860;13;150
r;210194;54848;74860;13;150
r;217425;7742;74860;13;150
r;236878;158078;74860;13;150
r;239877;158593;74860;13;150
r;250145;158452;74860;13;150
r;253796;143986;74860;13;150
r;259366;158515;74860;13;150
r;262520;156950;74860;13;150
r;268463;160702;74860;13;150
r;1371617;165388;74860;13;150
r;1565385;165944;74860;13;150
r;1624659;191869;74860;13;150
r;1698683;80326;74860;13;150
r;1758017;167509;74860;13;150
r;1797048;159784;74860;13;150
r;1823029;158795;74860;13;150
r;2144826;220021;74860;13;150
r;11551546;326783;74860;13;150
r;11558470;327193;74860;13;150
r;11560954;327326;74860;13;150
r;11561232;326790;74860;13;150
r;11561469;327352;74860;13;150
r;11562364;327398;74860;13;150
r;11566075;327582;74860;13;150
r;11569682;327773;74860;13;150
r;11584474;326782;74860;13;150
r;11586179;328643;74860;13;150
r;11587924;327033;74860;13;150
r;11588564;328256;74860;13;150
r;11592148;326921;74860;13;150
r;61519714;2400181;74860;13;150
r;191974;33882;74860;13;154
r;135065;16964;74860;13;160
r;135073;26193;74860;13;160
r;145791;93467;74860;13;160
r;147116;47869;74860;13;160
r;151880;117400;74860;13;160
r;153373;34315;74860;13;160
r;153787;130196;74860;13;160
r;153855;127428;74860;13;160
r;158753;138670;74860;13;160
r;158868;63449;74860;13;160
r;163392;7036;74860;13;160
r;167680;22879;74860;13;160
r;168107;26507;74860;13;160
r;169185;139386;74860;13;160
r;175141;139448;74860;13;160
r;179530;47278;74860;13;160
r;183862;68342;74860;13;160
r;213963;156869;74860;13;160
r;239693;157229;74860;13;160
r;255022;159472;74860;13;160
r;407430;162686;74860;13;160
r;411519;161689;74860;13;160
r;434320;165596;74860;13;160
r;451810;157756;74860;13;160
r;1677446;165169;74860;13;160
r;1690644;138261;74860;13;160
r;11550863;326740;74860;13;160
r;11552828;326862;74860;13;160
r;11556166;327053;74860;13;160
r;11565065;327219;74860;13;160
r;11573084;327947;74860;13;160
r;11576351;328119;74860;13;160
r;11583777;328180;74860;13;160
r;11585129;327070;74860;13;160
r;13453071;165487;74860;13;160
r;137169;51903;74860;13;170
r;137371;106307;74860;13;170
r;144512;36370;74860;13;170
r;149305;28427;74860;13;170
r;156194;18834;74860;13;170
r;158954;63129;74860;13;170
r;159167;3658;74860;13;170
r;159741;118085;74860;13;170
r;163398;120165;74860;13;170
r;175213;9862;74860;13;170
r;178617;119162;74860;13;170
r;181227;42196;74860;13;170
r;212266;14934;74860;13;170
r;217643;157196;74860;13;170
r;222901;157801;74860;13;170
r;224397;157320;74860;13;170
r;242905;158650;74860;13;170
r;254903;159471;74860;13;170
r;358433;161832;74860;13;170
r;379811;161957;74860;13;170
r;399161;164016;74860;13;170
r;401213;161464;74860;13;170
r;1552078;167550;74860;13;170
r;1589476;216431;74860;13;170
r;1684199;46006;74860;13;170
r;2123835;165074;74860;13;170
r;11552572;326847;74860;13;170
r;11553248;326721;74860;13;170
r;11556590;327079;74860;13;170
r;11561746;327366;74860;13;170
r;11562000;327382;74860;13;170
r;11565047;327534;74860;13;170
r;11572368;327909;74860;13;170
r;11573282;327956;74860;13;170
r;11573618;326738;74860;13;170
r;11580742;328345;74860;13;170
r;11583541;328485;74860;13;170
r;11591143;326797;74860;13;170
r;139033;85880;74860;13;180
r;144491;82772;74860;13;180
r;147293;68245;74860;13;180
r;152665;84221;74860;13;180
r;156322;74892;74860;13;180
r;158078;48623;74860;13;180
r;158250;84676;74860;13;180
r;173916;101601;74860;13;180
r;177222;4451;74860;13;180
r;181128;36861;74860;13;180
r;182012;106663;74860;13;180
r;183470;4914;74860;13;180
r;201725;107671;74860;13;180
r;215980;156984;74860;13;180
r;220054;156808;74860;13;180
r;221164;157399;74860;13;180
r;223898;157184;74860;13;180
r;227411;15161;74860;13;180
r;239803;158105;74860;13;180
r;413246;163779;74860;13;180
r;417945;163979;74860;13;180
r;1726291;214706;74860;13;180
r;2024166;110836;74860;13;180
r;11550117;326701;74860;13;180
r;11551673;326792;74860;13;180
r;11552450;326838;74860;13;180
r;11553808;326916;74860;13;180
r;11558736;327208;74860;13;180
r;11580012;327753;74860;13;180
r;11580594;327463;74860;13;180
r;11590344;328884;74860;13;180
r;2354753;195051;74860;13;181
r;167256;140318;74860;13;186
r;135534;4461;74860;13;190
r;138899;78845;74860;13;190
r;145752;107954;74860;13;190
r;153311;42035;74860;13;190
r;156958;78550;74860;13;190
r;157895;7931;74860;13;190
r;158062;5454;74860;13;190
r;161357;53710;74860;13;190
r;165955;59595;74860;13;190
r;171836;85286;74860;13;190
r;174639;51697;74860;13;190
r;177229;55544;74860;13;190
r;192027;58796;74860;13;190
r;196390;114872;74860;13;190
r;222057;157477;74860;13;190
r;11554315;326947;74860;13;190
r;133760;38531;74860;13;200
r;135559;4594;74860;13;200
r;137360;135425;74860;13;200
r;151873;80122;74860;13;200
r;158896;29926;74860;13;200
r;169165;76873;74860;13;200
r;169911;56652;74860;13;200
r;176228;72599;74860;13;200
r;181556;40479;74860;13;200
r;184360;47617;74860;13;200
r;201728;31568;74860;13;200
r;235885;158845;74860;13;200
r;261809;160341;74860;13;200
r;275189;160830;74860;13;200
r;1568589;163294;74860;13;200
r;1846333;219062;74860;13;200
r;11562540;327407;74860;13;200
r;11568375;327707;74860;13;200
r;11570166;327595;74860;13;200
r;11578361;328227;74860;13;200
r;11591746;327554;74860;13;200
r;128999;30822;74860;13;210
r;136461;17169;74860;13;210
r;159241;43008;74860;13;210
r;161861;2146;74860;13;210
r;174041;87844;74860;13;210
r;178890;59014;74860;13;210
r;192042;30875;74860;13;210
r;224333;158030;74860;13;210
r;11558190;327175;74860;13;210
r;148159;115473;74860;13;220
r;150044;66604;74860;13;220
r;153837;98319;74860;13;220
r;166107;66167;74860;13;220
r;169903;133117;74860;13;220
r;182996;113821;74860;13;220
r;183801;15671;74860;13;220
r;202723;40029;74860;13;220
r;224005;156846;74860;13;220
r;234042;158220;74860;13;220
r;239669;157848;74860;13;220
r;372146;161057;74860;13;220
r;11550499;326723;74860;13;220
r;11556894;327101;74860;13;220
r;11559855;327266;74860;13;220
r;11571189;327855;74860;13;220
r;207489;2234;74860;13;224
r;1589563;124600;74860;13;227
r;137813;9146;74860;13;230
r;145045;39199;74860;13;230
r;167031;105601;74860;13;230
r;180660;113767;74860;13;230
r;268165;160641;74860;13;230
r;271507;161092;74860;13;230
r;275925;161331;74860;13;230
r;365788;85530;74860;13;230
r;1869333;33752;74860;13;230
r;11569475;327770;74860;13;230
r;11571268;326650;74860;13;230
r;11571991;327896;74860;13;230
r;148947;17530;74860;13;233
r;153364;50113;74860;13;240
r;178625;80199;74860;13;240
r;244409;159008;74860;13;240
r;405388;162651;74860;13;240
r;11563322;327452;74860;13;240
r;11576227;328113;74860;13;240
r;135424;128209;74860;13;250
r;182605;19675;74860;13;250
r;187029;118296;74860;13;250
r;261482;159883;74860;13;250
r;267973;158501;74860;13;250
r;268175;158973;74860;13;250
r;1850063;227814;74860;13;250
r;11561194;327339;74860;13;250
r;11563117;327441;74860;13;250
r;11566458;327604;74860;13;250
r;11593630;327914;74860;13;250
r;135571;14665;74860;13;260
r;156949;71524;74860;13;260
r;160062;12141;74860;13;260
r;174424;109640;74860;13;260
r;224452;124836;74860;13;260
r;385286;163087;74860;13;260
r;11577757;328193;74860;13;260
r;143725;26221;74860;13;270
r;163587;63159;74860;13;270
r;166273;7427;74860;13;270
r;228180;157899;74860;13;270
r;11557231;327122;74860;13;270
r;137548;35999;74860;13;280
r;181694;48229;74860;13;280
r;269705;160968;74860;13;280
r;11570718;327837;74860;13;280
r;181872;2442;74860;13;292
r;165939;21219;74860;13;310
r;167003;19947;74860;13;310
r;181681;103112;74860;13;320
r;153770;36729;74860;13;330
r;157672;11598;74860;13;330
r;173920;130164;74860;13;330
r;133871;4653;74860;13;335
r;158289;125708;74860;13;340
r;163182;11380;74860;13;341
r;1886335;200005;74860;13;345
r;169172;98337;74860;13;350
r;134656;80010;74860;13;360
r;244145;157689;74860;13;370
r;11555743;327030;74860;13;370
r;165930;127535;74860;13;420
r;117379;131240;74860;13;430
r;1892921;224422;74860;13;435
r;126620;43253;74860;13;490
r;121251;21149;74860;13;500
r;117699;112905;74860;13;590
r;117372;7943;74860;13;610