
r;2574663;251391;74860;70;34
r;122616875;6681490;74860;70;45
r;98286405;20416;74860;70;55
r;14119622;126680;74860;70;61
r;9162269;259171;74860;70;109
r;11518657;259170;74860;70;109
r;11518681;259172;74860;70;109
r;11518703;258178;74860;70;109
r;11518726;256495;74860;70;109
r;11518750;218825;74860;70;109
r;11518982;258177;74860;70;109