e;74860;'homme';1;28276
e;216145;'marine>216144';1;8;'marine>puissance navale'
e;216146;'marine>35841';1;50;'marine>peinture'
e;216147;'marine>216143';1;86;'marine>navigation sur mer'
e;244621;'être humain>23559';1;52;'être humain>bonté'
e;396248;'individu>69012';1;50;'individu>statistique'
e;396250;'individu>35143';1;50;'individu>biologie'
e;3172733;'corps>28805';1;0;'corps>oenologie'
e;219365;'corps>181802';1;50;'corps>corps de métier'
e;3177898;'corps>87852';1;0;'corps>typographie'
e;219362;'corps>144850';1;50;'corps>armée'
e;219361;'corps>215585';1;22;'corps>partie principale'
e;219364;'corps>23255';1;50;'corps>mathématiques'
e;219360;'corps>112192';1;40;'corps>cadavre'
e;217514;'capitaine>42699';1;6;'capitaine>officier'
e;4521231;'chien>24196';1;0;'chien>sex-appeal'
e;2579453;'chien>99419';1;2;'chien>exécrable'
e;2952624;'chien>13130';1;0;'chien>prostitué'
e;321423;'chien>191257';1;50;'chien>émissolle'
e;321425;'chien>13701';1;50;'chien>technique'
e;321424;'chien>143712';1;50;'chien>marine'
e;216904;'chien>4768';1;6;'chien>tarot'
e;214058;'chien>214057';1;60;'chien>pièce d'arme à feu'
e;231379;'père>95756';1;50;'père>fondateur'
e;11178381;'zèbre>68467';1;0;'zèbre>poisson'
e;233139;'tête>86561';1;16;'tête>crâne'
e;233141;'tête>164496';1;50;'tête>unité de mesure'
e;233142;'tête>13451';1;50;'tête>esprit'
e;233143;'tête>141659';1;50;'tête>vie'
e;233144;'tête>322343';1;50;'tête>partie antérieure'
e;233145;'tête>24682';1;50;'tête>haut'
e;266810;'tête>98040';1;50;'tête>architecture'
e;266811;'tête>113288';1;50;'tête>avant-garde'
e;390923;'tête>391298';1;2;'tête>partie d'un os'
e;396249;'individu>64226';1;50;'individu>administration'
e;220014;'femme>18302';1;4;'femme>adulte'
e;255259;'Washington>136786';1;52;'Washington>ville'
e;255260;'Washington>542';1;50;'Washington>État'
e;330322;'avocat>40056';1;50;'avocat>couleur'
e;157203;'avocat>87286';1;86;'avocat>fruit'
e;233324;'auteur>89147';1;50;'auteur>inventeur'
e;213336;'requin>68467';1;70;'requin>poisson'
e;234035;'être vivant>2442';1;4;'être vivant>vivre'
e;217513;'capitaine>68467';1;50;'capitaine>poisson'
e;217515;'capitaine>39621';1;36;'capitaine>marin'
e;225849;'organisme>86627';1;50;'organisme>organisation'
e;225846;'organisme>332175';1;52;'organisme>ensemble des organes'
e;4309877;'lion>41583';1;0;'lion>ride'
e;5139347;'lion>5139346';1;0;'lion>Lions Clubs'
e;225709;'zèbre>106872';1;50;'zèbre>pitre'
e;218499;'parachutiste>102633';1;6;'parachutiste>soldat'
e;9668260;'paresseux>102206';1;0;'paresseux>médecine'
e;215048;'paresseux>133548';1;58;'paresseux>fainéant'
e;222985;'combattant>68467';1;50;'combattant>poisson'
e;222986;'combattant>140176';1;50;'combattant>oiseau'
e;3209703;'blanc>119998';1;0;'blanc>colorant'
e;3209732;'blanc>140593';1;0;'blanc>vierge'
e;3209958;'blanc>85267';1;0;'blanc>factice'
e;251673;'blanc>226378';1;50;'blanc>correcteur liquide'
e;217385;'blanc>139470';1;50;'blanc>poudre'
e;236528;'blanc>146261';1;10;'blanc>poulet'
e;3209828;'blanc>3674';1;0;'blanc>botanique'
e;251672;'blanc>123616';1;50;'blanc>silence'
e;258697;'blanc>92471';1;4;'blanc>linge'
e;217382;'blanc>116020';1;50;'blanc>innocent'
e;251671;'blanc>87852';1;50;'blanc>typographie'
e;217381;'blanc>3207750';1;50;'blanc>zone à compléter'
e;217384;'blanc>27724';1;8;'blanc>vin blanc'
e;219176;'blanc>116175';1;8;'blanc>oeuf'
e;217380;'blanc>40056';1;170;'blanc>couleur'
e;3308355;'bombe>50333';1;0;'bombe>plongeon'
e;3308358;'bombe>88799';1;0;'bombe>bonbonne'
e;3308359;'bombe>143712';1;0;'bombe>marine'
e;215439;'bombe>215438';1;4;'bombe>casque d'équitation'
e;215441;'bombe>76862';1;70;'bombe>aérosol'
e;246490;'bombe>144647';1;50;'bombe>fête'
e;215446;'bombe>25966';1;50;'bombe>pâtisserie'
e;215440;'bombe>213845>151629';1;58;'bombe>engin explosif>bombe atomique'
e;215447;'bombe>115393';1;4;'bombe>scandale'
e;215442;'bombe>213845';1;58;'bombe>engin explosif'
e;215443;'bombe>213845>71198';1;6;'bombe>engin explosif>projectile'
e;218564;'roi>60';1;50;'roi>bleu'
e;218563;'roi>87729';1;12;'roi>jeu de cartes'
e;218562;'roi>145556';1;84;'roi>jeu d'échecs'
e;225848;'organisme>118203';1;50;'organisme>corps humain'
e;1864984;'crème>97447';1;2;'crème>pommade'
e;1864987;'crème>66643';1;0;'crème>liqueur'
e;228061;'jupe>13701';1;50;'jupe>technique'
e;11125425;'prendre>11125421';1;0;'prendre>se comporter avec'
e;3174630;'prendre>27502';1;0;'prendre>prélever'
e;3174431;'prendre>211869';1;0;'prendre>s'emparer de'
e;3174650;'prendre>47803';1;2;'prendre>subir'
e;3174638;'prendre>239507';1;0;'prendre>prendre en charge'
e;3174433;'prendre>29888';1;0;'prendre>évaluer'
e;3174645;'prendre>29926';1;0;'prendre>acheter'
e;3174382;'prendre>48827';1;0;'prendre>engager'
e;3174386;'prendre>26829';1;0;'prendre>noter'
e;3174387;'prendre>1767434';1;0;'prendre>faire usage de'
e;3174639;'prendre>206424';1;0;'prendre>produire son effet'
e;11125326;'prendre>15016';1;0;'prendre>interpréter'
e;11125330;'prendre>11125327';1;0;'prendre>faire une forte impression'
e;3174428;'prendre>52128';1;0;'prendre>avoir du succès'
e;3174432;'prendre>195857';1;0;'prendre>aller chercher'
e;3174625;'prendre>139729';1;0;'prendre>s'enraciner'
e;3174640;'prendre>56875';1;0;'prendre>tarif'
e;3174651;'prendre>107671';1;0;'prendre>acquérir'
e;3174389;'prendre>112698';1;0;'prendre>choisir'
e;3174635;'prendre>3174634';1;0;'prendre>se munir de'
e;3174637;'prendre>42555';1;0;'prendre>accepter'
e;3174381;'prendre>62859';1;0;'prendre>passer par'
e;3174388;'prendre>119570';1;0;'prendre>absorber'
e;3174390;'prendre>4594';1;0;'prendre>surprendre'
e;3174631;'prendre>48160';1;0;'prendre>durer'
e;260622;'prendre>31533';1;50;'prendre>affecter'
e;260623;'prendre>15966';1;50;'prendre>réagir'
e;260624;'prendre>207935';1;50;'prendre>se rendre maître de'
e;260620;'prendre>110169';1;50;'prendre>durcir'
e;2949547;'prendre>24646';1;2;'prendre>attraper'
e;260619;'prendre>80010';1;54;'prendre>saisir'
e;3334610;'loutre>109638';1;0;'loutre>fourrure'
e;3334609;'loutre>17559';1;0;'loutre>animal'
e;213536;'pape>213534';1;50;'pape>père spirituel'
e;3297636;'abeille>1816';1;0;'abeille>héraldique'
e;3297635;'abeille>114778';1;0;'abeille>symbole'
e;3245297;'pigeon>118439';1;0;'pigeon>ball-trap'
e;215024;'pigeon>140176';1;76;'pigeon>oiseau'
e;393667;'mime>24418';1;50;'mime>comédie'
e;213806;'bitte>31434';1;50;'bitte>bollard'
e;216239;'crème>133516';1;68;'crème>produit laitier'
e;216240;'crème>43125';1;22;'crème>gastronomie'
e;216242;'crème>71297';1;50;'crème>élite'
e;216243;'crème>181278';1;50;'crème>café crème'
e;216244;'crème>40056';1;58;'crème>couleur'
e;216410;'crème>76169';1;68;'crème>cosmétique'
e;213514;'mousse>106797';1;2;'mousse>bière'
e;213516;'mousse>153751';1;52;'mousse>mousse au chocolat'
e;213518;'mousse>3674';1;8;'mousse>botanique'
e;213519;'mousse>26608';1;18;'mousse>savon'
e;213520;'mousse>6118';1;52;'mousse>bouillonnement'
e;247362;'mousse>43125';1;54;'mousse>gastronomie'
e;237441;'être>85728';1;6;'être>exister'
e;237443;'être>37229';1;52;'être>se trouver'
e;213687;'patron>66935';1;50;'patron>carton'
e;213688;'patron>39816';1;14;'patron>modèle'
e;213690;'patron>143462';1;26;'patron>couture'
e;330963;'cordé>3674';1;50;'cordé>botanique'
e;10670841;'Céline>5521653';1;0;'Céline>marque de prêt-à-porter'
e;10670842;'Céline>29592';1;0;'Céline>film'
e;218008;'minet>213452';1;50;'minet>terme d'affection'
e;3314894;'Macbeth>29592';1;0;'Macbeth>film'
e;7710038;'bardot>68467';1;0;'bardot>poisson'
e;249523;'massacre>33698';1;56;'massacre>destruction'
e;249524;'massacre>235597';1;50;'massacre>bois de cerf'
e;249525;'massacre>1816';1;50;'massacre>héraldique'
e;239396;'coureur>117095';1;50;'coureur>zoologie'
e;227760;'taxi>97756';1;50;'taxi>avion'
e;227761;'taxi>209323';1;50;'taxi>transport de troupes'
e;227758;'taxi>95706';1;26;'taxi>automobile'
e;218071;'véreux>218070';1;50;'véreux>plein de vers'
e;218072;'véreux>153818';1;50;'véreux>sans valeur'
e;5553152;'coude>121074';1;0;'coude>biochimie'
e;235629;'cougar>17929';1;50;'cougar>puma'
e;3305629;'blaireau>107477';1;0;'blaireau>nez'
e;213402;'blaireau>92019';1;2;'blaireau>barbier'
e;213400;'blaireau>17559';1;2;'blaireau>animal'
e;213401;'blaireau>143045';1;2;'blaireau>brosse'
e;2946814;'chevalier>55507';1;0;'chevalier>mycologie'
e;2946817;'chevalier>121369';1;0;'chevalier>chevaleresque'
e;217519;'chevalier>140176';1;50;'chevalier>oiseau'
e;2946816;'chevalier>25348';1;0;'chevalier>serviteur'
e;2946818;'chevalier>18716';1;0;'chevalier>Antiquité'
e;318105;'lion>160622';1;50;'lion>signe du zodiaque'
e;247485;'lion>1816';1;50;'lion>héraldique'
e;247483;'lion>116032';1;92;'lion>félin'
e;222009;'abeille>71926';1;122;'abeille>insecte'
e;219713;'draguer>16055';1;8;'draguer>déminer'
e;219715;'draguer>85513';1;16;'draguer>curer'
e;219716;'draguer>145624';1;6;'draguer>pêche'
e;213532;'pape>140176';1;50;'pape>oiseau'
e;1448486;'partager>19675';1;0;'partager>diviser'
e;1448487;'partager>141996';1;2;'partager>répartir'
e;1448492;'partager>1448610';1;0;'partager>donner une partie'
e;1448493;'partager>1448485';1;0;'partager>avoir en commun'
e;1448575;'partager>206183';1;0;'partager>prendre part à'
e;1448613;'partager>118785';1;0;'partager>délimiter'
e;1885376;'serveur>146050';1;0;'serveur>militaire'
e;3230331;'doublure>374521';1;0;'doublure>pâle copie'
e;325102;'ailier>87925';1;50;'ailier>aviation'
e;321519;'coude>120949';1;50;'coude>vêtement'
e;213908;'coude>5290';1;50;'coude>angle'
e;216876;'batteur>116249';1;50;'batteur>base-ball'
e;216874;'batteur>50567';1;50;'batteur>agriculture'
e;216877;'batteur>12594';1;46;'batteur>appareil ménager'
e;1775690;'conjoint>93015';1;0;'conjoint>uni'
e;260829;'primate>6889';1;2;'primate>fruste'
e;3262110;'arbalétrier>68467';1;0;'arbalétrier>poisson'
e;249410;'gourdin>114900';1;52;'gourdin>bâton'
e;1784587;'JFK>315521';1;0;'JFK>Jean-François Kahn'
e;266739;'petit noir>66324';1;64;'petit noir>café'
e;264495;'Flaubert>144938';1;50;'Flaubert>oeuvre'
e;393029;'Beethoven>29592';1;50;'Beethoven>film'
e;3649085;'Lucrèce>118538';1;0;'Lucrèce>prénom'
e;219725;'grenadier>3674';1;54;'grenadier>botanique'
e;219727;'grenadier>68467';1;50;'grenadier>poisson'
e;217888;'marabout>106833';1;50;'marabout>musulman'
e;227845;'asperge>153580';1;4;'asperge>plante potagère'
e;227846;'asperge>16033';1;4;'asperge>cuisine'
e;217983;'ranger>118858';1;68;'ranger>mettre en ordre'
e;217984;'ranger>145342';1;50;'ranger>s'écarter'
e;217985;'ranger>40576';1;50;'ranger>se garer'
e;217986;'ranger>145852';1;50;'ranger>s'assagir'
e;217987;'ranger>75377';1;50;'ranger>chaussure'
e;323332;'ranger>122861';1;54;'ranger>remettre à sa place'
e;1706696;'Fred>118538';1;0;'Fred>prénom'
e;1706697;'Fred>68439';1;0;'Fred>individu'
e;1706698;'Fred>29592';1;0;'Fred>film'
e;1974334;'marabout>94609';1;0;'marabout>textile'
e;217892;'marabout>140176';1;52;'marabout>oiseau'
e;232689;'Lucrèce>3649142';1;50;'Lucrèce>dame romaine'
e;255205;'crooner>58135';1;50;'crooner>chanter'
e;7555528;'papet>177321';1;0;'papet>préparation culinaire'
e;329947;'Phèdre>59020';1;50;'Phèdre>tragédie'
e;329946;'Phèdre>23247';1;50;'Phèdre>Minos'
e;390995;'fondeur>126079';1;50;'fondeur>électronique'
e;436293;'richelieu>25966';1;50;'richelieu>pâtisserie'
e;436294;'richelieu>75377';1;50;'richelieu>chaussure'
e;325670;'Astérix>101711';1;54;'Astérix>bande dessinée'
e;318665;'Charles de Gaulle>11866';1;50;'Charles de Gaulle>porte-avions'
e;1587446;'barde>74659';1;0;'barde>armure'
e;237444;'être>94160';1;50;'être>existence'
e;393502;'frondeur>88890';1;58;'frondeur>séditieux'
e;214938;'noir>20910';1;52;'noir>obscurité'
e;214940;'noir>66324';1;6;'noir>café'
e;251685;'lanceur>115386';1;24;'lanceur>fusée'
e;251686;'lanceur>126293';1;50;'lanceur>promotion'
e;217005;'poids lourd>84632';1;36;'poids lourd>camion'
e;227947;'Darwin>136786';1;50;'Darwin>ville'
e;219012;'serveur>104993';1;38;'serveur>informatique'
e;219013;'serveur>87729';1;2;'serveur>jeu de cartes'
e;1131658;'horizontale>102501';1;0;'horizontale>horizontal'
e;1131659;'horizontale>139243';1;0;'horizontale>ligne'
e;240271;'correspondant>191768';1;50;'correspondant>société savante'
e;3180900;'boutefeu>2339435';1;0;'boutefeu>dispositif d'allumage'
e;5376292;'poilu>661';1;0;'poilu>courageux'
e;5376303;'poilu>5376302';1;0;'poilu>commune de Poil'
e;242716;'Léonidas>34157';1;50;'Léonidas>chocolat'
e;219309;'barde>83824';1;50;'barde>équitation'
e;267290;'Macbeth>74432';1;50;'Macbeth>pièce de théâtre'
e;325768;'Charles de Gaulle>94262';1;50;'Charles de Gaulle>aéroport'
e;323075;'Mer>167583';1;50;'Mer>commune française'
e;217860;'doublure>120949';1;54;'doublure>vêtement'
e;230625;'Céline>118538';1;50;'Céline>prénom'
e;271300;'ramoneur>18285';1;50;'ramoneur>papillon'
e;265009;'Foch>11866';1;50;'Foch>porte-avions'
e;249860;'chartreux>150';1;50;'chartreux>chat'
e;225212;'arbalétrier>139869';1;50;'arbalétrier>charpente'
e;225213;'arbalétrier>140176';1;50;'arbalétrier>oiseau'
e;243613;'première classe>13712';1;50;'première classe>transport'
e;462488;'fraise des bois>87286';1;50;'fraise des bois>fruit'
e;393743;'Clemenceau>11866';1;50;'Clemenceau>porte-avions'
e;265007;'Clémenceau>11866';1;50;'Clémenceau>porte-avions'
e;228853;'Vercors>72733';1;50;'Vercors>massif'
e;214562;'poutine>43125';1;6;'poutine>gastronomie'
e;322895;'Necker>100445';1;50;'Necker>hôpital'
e;222348;'organiste>140176';1;50;'organiste>oiseau'
e;232862;'émissaire>57483';1;50;'émissaire>canalisation'
e;232863;'émissaire>137865';1;50;'émissaire>cours d'eau'
e;315519;'JFK>29592';1;50;'JFK>film'
e;315520;'JFK>94262';1;50;'JFK>aéroport'
e;268501;'cycliste>268500';1;54;'cycliste>personne à vélo'
e;236074;'Diomède>191892';1;50;'Diomède>guerre de Troie'
e;236076;'Diomède>16644';1;50;'Diomède>astronomie'
e;265217;'Richard III>74432';1;50;'Richard III>pièce de théâtre'
e;1700950;'mousse>97739';1;2;'mousse>matériau'
e;223930;'Ferrero>30030';1;52;'Ferrero>entreprise'
e;223931;'Ferrero>223928';1;56;'Ferrero>Ferrero Rocher'
e;239292;'major>126293';1;50;'major>promotion'
e;239293;'major>30030';1;50;'major>entreprise'
e;217890;'marabout>128429';1;50;'marabout>tombeau'
e;217891;'marabout>8803';1;50;'marabout>bouilloire'
e;266841;'Richard II>74432';1;50;'Richard II>pièce de théâtre'
e;242557;'ramoner>85286';1;50;'ramoner>nettoyer'
e;329729;'légionnaire>144812';1;50;'légionnaire>chenille'
e;215046;'mousse>93849';1;50;'mousse>tricot'
e;318507;'Tordesillas>136786';1;50;'Tordesillas>ville'
e;214939;'noir>40056';1;180;'noir>couleur'
e;232737;'adonis>3674';1;50;'adonis>botanique'
e;3246036;'correspondant>107937';1;0;'correspondant>scolarité'
e;219310;'barde>59430';1;50;'barde>lard'
e;240273;'correspondant>12567';1;50;'correspondant>concordant'
e;213633;'secrétaire>140176';1;50;'secrétaire>oiseau'
e;213634;'secrétaire>36899';1;4;'secrétaire>meuble'
e;232738;'adonis>18285';1;50;'adonis>papillon'
e;252179;'secrétaire>126724>61490';1;12;'secrétaire>métier>femme'
e;232739;'adonis>68467';1;50;'adonis>poisson'
e;215657;'soprano>103365>51515';1;50;'soprano>chant>voix'
e;252066;'#245503>61490';8;50;'poils [lieu] jambes>femme'