e;49293;'humain';1;2276
e;90719;'bienfaisant';1;58
e;12894;'faillible';1;50
e;46707;'espèce humaine';1;70
e;38531;'hurler';1;592
e;144846;'tête';1;5464
e;10041122;'hurler>154604';1;0;'hurler>faire du bruit'
e;185903;'démarrer au quart de tour';1;2
e;41891;'tripes';1;124
e;233138;'tête>390963';1;42;'tête>extrémité supérieure du corps'
e;219363;'corps>112609';1;148;'corps>anatomie'
e;74846;'corps';1;4634
e;74860;'homme';1;28276
e;68439;'individu';1;5798
e;13369;'être';1;808
e;61490;'femme';1;29572
e;116477;'personne';1;9844