
r;97833247;143123;61283;3;10
r;96663872;2827;61283;3;15
r;96665709;2448;61283;3;15
r;97324440;76913;61283;3;15
r;97325050;139457;61283;3;15
r;97327252;234132;61283;3;15
r;97992747;595044;61283;3;15
r;98113216;14873;61283;3;15
r;98275418;9190;61283;3;15
r;106749538;5304379;61283;3;15
r;219871179;9932235;61283;3;15
r;288860797;5772;61283;3;15
r;288483410;61353;61283;3;15
r;301722413;153046;61283;3;15
r;96707707;25087;61283;3;16
r;96713071;244073;61283;3;16
r;96926804;157266;61283;3;22
r;97649804;1163040;61283;3;23
r;97445469;595735;61283;3;24
r;287331240;364146;61283;3;25
r;288463441;11250641;61283;3;25
r;288805369;11286039;61283;3;25
r;299915888;11662219;61283;3;25
r;31125260;322704;61283;3;26
r;78348185;3232300;61283;3;26
r;78622575;3245649;61283;3;26
r;88343532;56943;61283;3;26
r;88343533;145681;61283;3;26
r;88343534;2359774;61283;3;26
r;88343540;242604;61283;3;26
r;95677635;2461342;61283;3;26
r;96639071;37905;61283;3;26
r;97136023;137479;61283;3;26
r;97339008;145285;61283;3;26
r;98282562;41851;61283;3;26
r;31125263;232592;61283;3;27
r;31294326;575;61283;3;27
r;88343539;13791;61283;3;27
r;97130506;141883;61283;3;27
r;98955094;4337104;61283;3;27
r;98966332;393310;61283;3;27
r;31125261;271451;61283;3;28
r;31294332;230329;61283;3;28
r;88343535;292111;61283;3;28
r;97340990;8217;61283;3;28
r;98270316;154315;61283;3;28
r;98302772;102269;61283;3;28
r;31125190;80875;61283;3;29
r;31125197;244083;61283;3;29
r;31125279;234136;61283;3;29
r;31294336;232823;61283;3;29
r;31294337;214948;61283;3;29
r;88336165;111325;61283;3;29
r;96679230;50581;61283;3;29
r;31125196;225489;61283;3;30
r;31125200;163027;61283;3;30
r;31125246;332550;61283;3;30
r;31125251;228773;61283;3;30
r;88343538;2362379;61283;3;30
r;88343541;116480;61283;3;30
r;88343543;2472751;61283;3;30
r;97340372;51683;61283;3;30
r;97373110;47459;61283;3;30
r;97760197;117152;61283;3;30
r;31125191;38589;61283;3;31
r;31125193;7003;61283;3;31
r;31125202;144832;61283;3;31
r;31294327;25797;61283;3;31
r;31125187;24786;61283;3;32
r;31125188;94536;61283;3;32
r;31125192;145476;61283;3;32
r;31125194;216942;61283;3;32
r;31125198;204914;61283;3;32
r;31125204;204920;61283;3;32
r;31294328;53450;61283;3;32
r;88343536;25429;61283;3;32
r;88343542;2385299;61283;3;32
r;97434019;1803620;61283;3;32
r;31125185;128482;61283;3;34
r;31125186;45269;61283;3;34
r;31125203;130548;61283;3;34
r;31125280;225208;61283;3;34
r;31294329;213429;61283;3;34
r;31294334;244781;61283;3;34
r;80846417;255460;61283;3;34
r;82905529;3304654;61283;3;34
r;97757841;227591;61283;3;34
r;31125199;161669;61283;3;35
r;31125201;177329;61283;3;35
r;31125250;241367;61283;3;35
r;31125281;219151;61283;3;35
r;88343529;56358;61283;3;35
r;88343544;2483065;61283;3;35
r;97323705;79954;61283;3;35
r;31125245;1652883;61283;3;36
r;31125253;213573;61283;3;36
r;31125262;213758;61283;3;36
r;31294333;233049;61283;3;36
r;31125257;216653;61283;3;37
r;31125247;320827;61283;3;38
r;31125252;216749;61283;3;38
r;31125255;213430;61283;3;38
r;31294324;38234;61283;3;38
r;31294325;38361;61283;3;38
r;31294335;242204;61283;3;38
r;31125205;1922600;61283;3;39
r;31125248;258584;61283;3;39
r;31294331;250999;61283;3;39
r;88343530;91815;61283;3;39
r;88343537;98133;61283;3;39
r;31125249;245482;61283;3;40
r;88698618;3542582;61283;3;40
r;31125258;437812;61283;3;41
r;31125254;213482;61283;3;42
r;31125256;1678560;61283;3;42
r;31125259;231390;61283;3;42
r;31125189;146257;61283;3;43
r;88343531;106323;61283;3;43
r;97738315;4312221;61283;3;43
r;31294330;113645;61283;3;44
r;68743797;2838875;61283;3;47
r;95677636;45722;61283;3;74
r;211840780;7054252;61283;3;75