
r;212809681;61283;7054252;0;1
r;300058099;61283;11662219;0;1
r;32053382;61283;302021;0;2
r;30822117;61283;168282;0;3
r;33885310;61283;2324856;0;3
r;33885315;61283;2324858;0;3
r;33885579;61283;368081;0;3
r;33885590;61283;368094;0;3
r;33885604;61283;368104;0;3
r;33885605;61283;368088;0;3
r;33885612;61283;368111;0;3
r;33885613;61283;368110;0;3
r;33885624;61283;368093;0;3
r;33885628;61283;368085;0;3
r;33885633;61283;368084;0;3
r;33885637;61283;368096;0;3
r;33885640;61283;368103;0;3
r;33885650;61283;368108;0;3
r;33885660;61283;368098;0;3
r;33885663;61283;368089;0;3
r;33885680;61283;368086;0;3
r;33885763;61283;368083;0;3
r;33885770;61283;368107;0;3
r;33885807;61283;368095;0;3
r;33885851;61283;368109;0;3
r;33885901;61283;368105;0;3
r;33885912;61283;368082;0;3
r;33885961;61283;368112;0;3
r;33885972;61283;368100;0;3
r;33886432;61283;368099;0;3
r;33886434;61283;368080;0;3
r;33886466;61283;368091;0;3
r;33886554;61283;368087;0;3
r;33886827;61283;368102;0;3
r;9992593;61283;115865;0;4
r;12878522;61283;322821;0;4
r;12878536;61283;322820;0;4
r;33885553;61283;368106;0;4
r;33885566;61283;368090;0;4
r;33885616;61283;368092;0;4
r;12869993;61283;21742;0;5
r;31557961;61283;368101;0;5
r;48897537;61283;65846;0;5
r;52750801;61283;2365163;0;5
r;103295720;61283;25087;0;5
r;103297310;61283;2448;0;5
r;103297395;61283;2827;0;5
r;103311205;61283;2461342;0;5
r;103311207;61283;45722;0;5
r;31677938;61283;231735;0;6
r;34697569;61283;2348341;0;6
r;34697572;61283;2348383;0;6
r;34697600;61283;2348355;0;6
r;34697605;61283;2348356;0;6
r;34697608;61283;2348391;0;6
r;34697610;61283;2348357;0;6
r;35636542;61283;137681;0;6
r;54274834;61283;2403584;0;6
r;103293210;61283;234132;0;6
r;31631140;61283;224027;0;7
r;31631155;61283;1963201;0;7
r;31631170;61283;1963200;0;7
r;34396637;61283;217650;0;7
r;34396928;61283;215347;0;7
r;34397061;61283;248974;0;7
r;50954419;61283;2363869;0;7
r;95124952;61283;3744053;0;7
r;30919714;61283;175019;0;8
r;34185452;61283;440637;0;8
r;34397339;61283;263994;0;8
r;97761425;61283;227591;0;8
r;98002532;61283;595044;0;8
r;98002878;61283;1803620;0;8
r;31711490;61283;183498;0;9
r;31758852;61283;153047;0;9
r;98004979;61283;79954;0;9
r;30776203;61283;91273;0;10
r;30966921;61283;1917040;0;10
r;31617763;61283;221881;0;10
r;31803914;61283;278323;0;10
r;34045729;61283;437310;0;10
r;34045751;61283;437311;0;10
r;53082345;61283;2540822;0;10
r;98666625;61283;157266;0;10
r;30589849;61283;93846;0;11
r;30966762;61283;177274;0;11
r;34535475;61283;69067;0;11
r;34535476;61283;67446;0;11
r;245393836;61283;3762435;0;11
r;34251768;61283;219664;0;12
r;9903387;61283;138712;0;13
r;31087813;61283;183497;0;13
r;31087839;61283;183499;0;13
r;31733387;61283;257801;0;13
r;96715893;61283;153554;0;13
r;98012400;61283;51683;0;13
r;25028809;61283;253853;0;14
r;30645602;61283;158745;0;14
r;30645717;61283;232183;0;14
r;96715904;61283;330857;0;14
r;30473393;61283;139616;0;15
r;30710101;61283;75271;0;15
r;96715906;61283;156482;0;15
r;97325295;61283;186334;0;15
r;97325296;61283;224410;0;15
r;97325303;61283;234146;0;15
r;97335847;61283;137533;0;15
r;97335848;61283;220961;0;15
r;97335849;61283;216529;0;15
r;295387010;61283;360394;0;15
r;12859451;61283;177275;0;16
r;22569965;61283;204930;0;16
r;22569967;61283;204916;0;16
r;28177815;61283;302836;0;16
r;97325297;61283;141659;0;16
r;97325299;61283;53651;0;16
r;97325305;61283;34954;0;16
r;9910205;61283;204927;0;17
r;27546841;61283;56050;0;17
r;34330669;61283;263993;0;18
r;96715897;61283;1136803;0;18
r;96715891;61283;218388;0;19
r;96715894;61283;378539;0;19
r;96715902;61283;217162;0;19
r;310215744;61283;4938150;0;20
r;311581355;61283;157366;0;20
r;335779628;61283;611223;0;20
r;335797275;61283;599442;0;20
r;341550341;61283;439940;0;20
r;949524;61283;4687;0;21
r;949525;61283;2442;0;21
r;9911458;61283;244073;0;21
r;12352132;61283;33593;0;21
r;28085537;61283;1569828;0;21
r;31126207;61283;228773;0;21
r;31343776;61283;113645;0;21
r;54689422;61283;45566;0;21
r;88370256;61283;2385299;0;21
r;96715896;61283;291052;0;21
r;96715898;61283;571456;0;21
r;97761614;61283;4312221;0;21
r;98553515;61283;137479;0;21
r;219897686;61283;9932235;0;21
r;949528;61283;28371;0;22
r;949529;61283;15570;0;22
r;949530;61283;75263;0;22
r;949531;61283;437;0;22
r;9910207;61283;160122;0;22
r;10527810;61283;112386;0;22
r;12306237;61283;76913;0;22
r;15370362;61283;123418;0;22
r;27093719;61283;1652883;0;22
r;31126196;61283;322704;0;22
r;31126201;61283;1678560;0;22
r;31343773;61283;213429;0;22
r;31343793;61283;232823;0;22
r;88370214;61283;56358;0;22
r;97325302;61283;6456;0;22
r;97325306;61283;230893;0;22
r;25191794;61283;1525814;0;23
r;31126190;61283;234136;0;23
r;31126212;61283;258584;0;23
r;31126214;61283;320827;0;23
r;31343788;61283;244781;0;23
r;31343796;61283;214948;0;23
r;71045487;61283;302927;0;23
r;82954015;61283;3304654;0;23
r;88370253;61283;116480;0;23
r;88370259;61283;2472751;0;23
r;88370263;61283;2483065;0;23
r;96715899;61283;1136712;0;23
r;96715903;61283;223411;0;23
r;97335850;61283;139657;0;23
r;98007159;61283;595735;0;23
r;99020571;61283;4337104;0;23
r;9990912;61283;90637;0;24
r;12306236;61283;4781;0;24
r;14433139;61283;74092;0;24
r;15351294;61283;16746;0;24
r;28540722;61283;138357;0;24
r;30966912;61283;177329;0;24
r;31126277;61283;38589;0;24
r;31126280;61283;145476;0;24
r;31126284;61283;216942;0;24
r;31126290;61283;204914;0;24
r;31126292;61283;161669;0;24
r;31126296;61283;144832;0;24
r;31126299;61283;204920;0;24
r;31126301;61283;1922600;0;24
r;88370234;61283;25429;0;24
r;88757953;61283;3542582;0;24
r;96715892;61283;577677;0;24
r;97325298;61283;53688;0;24
r;98381080;61283;102269;0;24
r;107069312;61283;5304379;0;24
r;275129714;61283;2587823;0;25
r;435513;61283;166088;0;26
r;437366;61283;8595;0;26
r;949523;61283;114839;0;26
r;9654652;61283;191775;0;26
r;12365900;61283;229446;0;26
r;21162217;61283;65532;0;26
r;21162239;61283;145725;0;26
r;21162256;61283;123761;0;26
r;21162260;61283;112605;0;26
r;21162264;61283;87983;0;26
r;21162273;61283;68470;0;26
r;21162279;61283;45699;0;26
r;21162285;61283;48075;0;26
r;21162290;61283;127813;0;26
r;31343779;61283;250999;0;26
r;31343782;61283;230329;0;26
r;54689426;61283;29991;0;26
r;68993183;61283;2838875;0;26
r;85923806;61283;38715;0;26
r;88370225;61283;145681;0;26
r;949526;61283;99693;0;27
r;10599244;61283;80875;0;27
r;10599784;61283;222839;0;27
r;12343158;61283;11448;0;27
r;14191716;61283;221243;0;27
r;21162214;61283;91815;0;27
r;21162218;61283;32906;0;27
r;21162220;61283;136261;0;27
r;21162240;61283;50581;0;27
r;21162245;61283;75465;0;27
r;21162258;61283;139457;0;27
r;21162262;61283;71128;0;27
r;21162284;61283;82986;0;27
r;21162289;61283;41198;0;27
r;31126210;61283;245482;0;27
r;54689431;61283;84564;0;27
r;91533102;61283;13758;0;27
r;98012384;61283;8217;0;27
r;98383625;61283;1163040;0;27
r;949527;61283;117152;0;28
r;2137224;61283;216749;0;28
r;10601037;61283;231390;0;28
r;12182547;61283;232592;0;28
r;21162221;61283;62524;0;28
r;21162244;61283;28590;0;28
r;21162248;61283;130178;0;28
r;21162254;61283;47459;0;28
r;21162263;61283;11094;0;28
r;21162266;61283;109457;0;28
r;21162278;61283;15303;0;28
r;21162281;61283;51664;0;28
r;24528248;61283;1371375;0;28
r;54689417;61283;17550;0;28
r;79470553;61283;3245649;0;28
r;80846968;61283;255460;0;28
r;86256739;61283;19041;0;28
r;88370243;61283;13791;0;28
r;96715900;61283;271719;0;28
r;97325301;61283;70283;0;28
r;155348313;61283;6826501;0;28
r;10527808;61283;40635;0;29
r;14453277;61283;411938;0;29
r;15704187;61283;152552;0;29
r;21162224;61283;54037;0;29
r;21162232;61283;131135;0;29
r;21162241;61283;53713;0;29
r;21162255;61283;130747;0;29
r;21162257;61283;78746;0;29
r;21162277;61283;92142;0;29
r;21162282;61283;77008;0;29
r;62479612;61283;152155;0;29
r;78349093;61283;3232300;0;29
r;88370221;61283;106323;0;29
r;88370228;61283;2359774;0;29
r;88370231;61283;292111;0;29
r;88370237;61283;98133;0;29
r;97325300;61283;140490;0;29
r;949532;61283;25658;0;30
r;1327611;61283;41417;0;30
r;1327612;61283;98988;0;30
r;9907253;61283;130548;0;30
r;9910208;61283;163027;0;30
r;12306238;61283;45269;0;30
r;12306239;61283;7003;0;30
r;15360663;61283;70527;0;30
r;21162212;61283;143394;0;30
r;21162229;61283;17761;0;30
r;21162230;61283;35676;0;30
r;21162234;61283;110719;0;30
r;21162246;61283;16086;0;30
r;21162251;61283;146696;0;30
r;21162253;61283;7494;0;30
r;21162261;61283;10810;0;30
r;21162270;61283;76784;0;30
r;21162271;61283;12855;0;30
r;31083372;61283;1920730;0;30
r;31126287;61283;225489;0;30
r;31343768;61283;575;0;30
r;34281541;61283;111325;0;30
r;54689435;61283;41894;0;30
r;21162222;61283;14873;0;31
r;21162267;61283;65059;0;31
r;21984444;61283;217163;0;31
r;83648000;61283;44342;0;31
r;88370240;61283;2362379;0;31
r;10608352;61283;123693;0;32
r;10608412;61283;219151;0;32
r;21162216;61283;63079;0;32
r;21162243;61283;71238;0;32
r;21162249;61283;7252;0;32
r;21162283;61283;78582;0;32
r;21162287;61283;109612;0;32
r;21162288;61283;144005;0;32
r;23409536;61283;1380412;0;32
r;9623662;61283;122738;0;34
r;9640794;61283;135190;0;34
r;12342770;61283;3038;0;34
r;21162211;61283;104131;0;34
r;21162215;61283;56943;0;34
r;21162219;61283;27271;0;34
r;21162225;61283;25600;0;34
r;21162227;61283;49543;0;34
r;21162228;61283;116130;0;34
r;21162235;61283;143246;0;34
r;21162250;61283;111068;0;34
r;21162268;61283;129468;0;34
r;31343791;61283;242204;0;34
r;34655677;61283;19636;0;34
r;9643366;61283;189981;0;35
r;15370425;61283;113902;0;35
r;100199157;61283;5115;0;35
r;21162213;61283;36204;0;35
r;21162231;61283;107712;0;35
r;21162236;61283;108700;0;35
r;21162237;61283;144104;0;35
r;21162242;61283;129157;0;35
r;21162247;61283;125308;0;35
r;21162252;61283;29500;0;35
r;21162265;61283;106904;0;35
r;21162272;61283;145195;0;35
r;21162275;61283;77801;0;35
r;21162276;61283;26304;0;35
r;21162280;61283;52508;0;35
r;21162286;61283;48352;0;35
r;31069766;61283;1920538;0;35
r;31189094;61283;20621;0;35
r;31277809;61283;91657;0;35
r;83648416;61283;185223;0;35
r;96715901;61283;437433;0;35
r;2024553;61283;241367;0;36
r;100199155;61283;60056;0;36
r;9623663;61283;114637;0;37
r;9910209;61283;158444;0;37
r;14172889;61283;368097;0;37
r;88370250;61283;242604;0;37
r;14169832;61283;204912;0;39
r;100199158;61283;141687;0;39
r;100199159;61283;140377;0;39
r;1327610;61283;43125;0;40
r;9911497;61283;244083;0;40
r;15446627;61283;3674;0;40
r;21162223;61283;85296;0;40
r;30573447;61283;136559;0;40
r;20898242;61283;437930;0;41
r;21162269;61283;76545;0;41
r;1533992;61283;213482;0;42
r;1535777;61283;213573;0;42
r;1538798;61283;213758;0;42
r;21162233;61283;73445;0;42
r;21162274;61283;34296;0;42
r;31126194;61283;271451;0;42
r;96715895;61283;378540;0;42
r;21162226;61283;117405;0;43
r;21162238;61283;103914;0;43
r;96451912;61283;3183461;0;44
r;15307273;61283;214275;0;45
r;31328253;61283;143757;0;45
r;91498616;61283;233048;0;45
r;14142810;61283;204928;0;47
r;1841637;61283;216653;0;48
r;1533098;61283;213430;0;51
r;10601594;61283;156823;0;51
r;10881219;61283;264910;0;51
r;11471361;61283;238180;0;51
r;11477468;61283;23241;0;51
r;12469833;61283;122581;0;51
r;14048409;61283;290011;0;51
r;91699379;61283;131654;0;51
r;91699380;61283;233047;0;51
r;13389654;61283;393311;0;52
r;15681471;61283;437812;0;52
r;148179;61283;73508;0;53
r;437363;61283;146257;0;53
r;10910283;61283;251791;0;53
r;12469847;61283;332550;0;53
r;14068020;61283;332559;0;53
r;107243;61283;65012;0;54
r;125156;61283;33914;0;54
r;364170;61283;15196;0;54
r;84521;61283;141883;0;55
r;101731;61283;140188;0;55
r;10908678;61283;242522;0;55
r;13389070;61283;393310;0;55
r;14049064;61283;217036;0;55
r;15370320;61283;16033;0;55
r;91506302;61283;11692;0;55
r;10910284;61283;251790;0;56
r;14046172;61283;217035;0;56
r;15665809;61283;154315;0;56
r;652238;61283;79444;0;57
r;2180875;61283;47964;0;57
r;383586;61283;51528;0;58
r;12778776;61283;257797;0;58
r;96117;61283;35798;0;59
r;107242;61283;13260;0;59
r;169718;61283;38234;0;59
r;10906834;61283;24786;0;59
r;13048273;61283;265463;0;59
r;82409;61283;87987;0;60
r;82776;61283;62278;0;60
r;387446;61283;38361;0;60
r;396662;61283;42645;0;60
r;1570477;61283;34157;0;60
r;12136813;61283;167803;0;61
r;11472421;61283;18283;0;62
r;360920;61283;143123;0;63
r;12351561;61283;152965;0;67
r;66460;61283;74736;0;69
r;385307;61283;34069;0;70
r;8791116;61283;25797;0;71
r;381140;61283;94536;0;85
r;1699459;61283;225208;0;85
r;364147;61283;9190;0;88
r;99985;61283;152157;0;90
r;11994742;61283;153046;0;91
r;396661;61283;41851;0;93
r;104270;61283;130164;0;110
r;69871;61283;25337;0;129
r;66457;61283;20965;0;161
r;361963;61283;53450;0;180
r;84867;61283;106702;0;200
r;82408;61283;32071;0;250
r;360919;61283;1447;0;319
r;84865;61283;119014;0;489
r;96115;61283;37905;0;543
r;66461;61283;145285;0;690
r;66458;61283;127629;0;740
r;66463;61283;128482;0;791
r;23925694;61283;239128;0;1000000