
r;24969984;440636;61283;75;26
r;24971776;130831;61283;75;26
r;76680070;71135;61283;75;26
r;24971654;216180;61283;75;28
r;24971758;219393;61283;75;29
r;24971760;247590;61283;75;29
r;24971771;156678;61283;75;29
r;24971684;165157;61283;75;30
r;24971710;152814;61283;75;31
r;24971961;34157;61283;75;35
r;62362447;136055;61283;75;35
r;24971754;241932;61283;75;40
r;76567430;61283;61283;75;43
r;24971925;12388;61283;75;45
r;24969949;94756;61283;75;48
r;24971774;77284;61283;75;57
r;24969800;161947;61283;75;59
r;24969948;70793;61283;75;59
r;24970939;156524;61283;75;59
r;24969930;34296;61283;75;80
r;24969928;145043;61283;75;88
r;24969927;57980;61283;75;93
r;24969925;141687;61283;75;99
r;24969926;140377;61283;75;109