e;61283;'pain';1;3274
e;219190;'oeuf>88491>34030';1;30;'oeuf>reproduction>fécondation'
e;219191;'oeuf>88491>4342056';1;36;'oeuf>reproduction>animal ovipare'
e;219192;'oeuf>88491>37194';1;30;'oeuf>reproduction>poule'
e;215814;'bleu>215808';1;16;'bleu>nouvelle recrue'
e;2952972;'bleu>28682';1;0;'bleu>télégramme'
e;2952974;'bleu>133354';1;0;'bleu>ivre'
e;2952975;'bleu>180300';1;0;'bleu>histoire militaire'
e;2952985;'bleu>45854';1;0;'bleu>surpris'
e;2952986;'bleu>101083';1;0;'bleu>policier'
e;215810;'bleu>140100';1;12;'bleu>viande'
e;215811;'bleu>80266';1;104;'bleu>ecchymose'
e;215812;'bleu>120949';1;16;'bleu>vêtement'
e;215809;'bleu>40056';1;90;'bleu>couleur'
e;215854;'son>33800';1;50;'son>sciure'
e;215852;'son>143989';1;22;'son>timbre'
e;215851;'son>43106';1;140;'son>bruit'
e;10622136;'restaurant>74736';1;0;'restaurant>repas'
e;234258;'chapon>121725';1;50;'chapon>sarment'
e;234259;'chapon>69990';1;50;'chapon>rascasse'
e;234256;'chapon>117146';1;26;'chapon>coq'
e;214947;'pétrin>37163';1;50;'pétrin>embarras'
e;223222;'savon>124091';1;14;'savon>réprimande'
e;223221;'savon>11358';1;34;'savon>substance'
e;4311151;'canapé>1346';1;0;'canapé>décoration'
e;216955;'canapé>40184';1;26;'canapé>siège'
e;9779286;'baguette>146050';1;0;'baguette>militaire'
e;3290470;'baguette>105884';1;0;'baguette>arme à feu'
e;3290469;'baguette>3290468';1;0;'baguette>organe de machine'
e;9779303;'baguette>136758';1;0;'baguette>chef d'orchestre'
e;227592;'soupe>74736';1;50;'soupe>repas'
e;243950;'soupe>14800';1;50;'soupe>mélange'
e;239430;'soupe>154716';1;50;'soupe>mauvaise qualité'
e;227593;'soupe>3699';1;50;'soupe>neige'
e;4342065;'oeuf>109103';1;0;'oeuf>vésicule'
e;3169842;'oeuf>70846';1;0;'oeuf>commencement'
e;3169844;'oeuf>107179';1;0;'oeuf>ski'
e;4342055;'oeuf>88491';1;0;'oeuf>reproduction'
e;231388;'restaurant>124461';1;4;'restaurant>restaurer'
e;219193;'oeuf>69414';1;50;'oeuf>télécabine'
e;219194;'oeuf>142000';1;14;'oeuf>forme'
e;213427;'croissant>141367';1;2;'croissant>lune'
e;213426;'croissant>213423';1;52;'croissant>forme géométrique'
e;213428;'croissant>2954';1;50;'croissant>grandissant'
e;227897;'fondue>43125';1;6;'fondue>gastronomie'
e;227895;'fondue>34496';1;54;'fondue>fondu'
e;234133;'tranche>106784';1;50;'tranche>subdivision'
e;234134;'tranche>63985';1;50;'tranche>bord'
e;1136713;'sandwich>72946';1;0;'sandwich>matériau composite'
e;2675292;'liche>2360102';1;0;'liche>ardoiserie'
e;265565;'liche>68467';1;50;'liche>poisson'
e;265564;'liche>216436';1;52;'liche>créature fantastique'
e;5304286;'four>435427';1;0;'four>Fours'
e;5304386;'four>5304385';1;0;'four>vente de drogue'
e;228769;'four>127487';1;2;'four>échec'
e;5304387;'four>5304384';1;0;'four>lieu chaud'
e;242206;'boulanger>215292';1;50;'boulanger>faire du pain'
e;10913819;'boulanger>68439';1;0;'boulanger>individu'
e;225210;'miette>39409';1;50;'miette>peu'
e;225209;'miette>65364';1;50;'miette>morceau'
e;244623;'chaland>107150';1;50;'chaland>bateau'
e;244624;'chaland>20082';1;50;'chaland>client'
e;7746267;'boule>142000';1;0;'boule>forme'
e;5129041;'boule>152268';1;0;'boule>jeu de hasard'
e;5129020;'boule>56636';1;0;'boule>postérieur'
e;5129023;'boule>17601';1;0;'boule>bouillotte'
e;5128933;'boule>43354';1;0;'boule>carrières'
e;216750;'boule>216745';1;50;'boule>jeu de casino'
e;5128957;'boule>15704';1;0;'boule>testicule'
e;5129019;'boule>7430';1;0;'boule>sein'
e;5129021;'boule>98040';1;0;'boule>architecture'
e;216751;'boule>144846';1;50;'boule>tête'
e;5133897;'boule>115134';1;0;'boule>émotionnel'
e;216748;'boule>43953';1;4;'boule>grosseur'
e;5128932;'boule>151495';1;2;'boule>boule de pétanque'
e;216746;'boule>237';1;36;'boule>objet'
e;213759;'baguette>152508';1;30;'baguette>baguette magique'
e;213760;'baguette>131886';1;12;'baguette>encadrement'
e;213761;'baguette>114900';1;2;'baguette>bâton'
e;229272;'baguette>1451';1;28;'baguette>couvert'
e;229273;'baguette>90703';1;12;'baguette>tambour'
e;1866155;'durcir>1866152';1;0;'durcir>rendre dur'
e;1866157;'durcir>1797646';1;0;'durcir>prendre en masse'
e;1866158;'durcir>3491';1;0;'durcir>attitude'
e;213478;'flûte>152866';1;28;'flûte>instrument à vent'
e;213479;'flûte>144497';1;36;'flûte>verre'
e;213480;'flûte>102006';1;24;'flûte>zut'
e;213481;'flûte>30171';1;50;'flûte>navire'
e;213574;'ficelle>8595';1;48;'ficelle>corde'
e;213575;'ficelle>34400';1;6;'ficelle>astuce'
e;247072;'tartine>43207';1;50;'tartine>développement'
e;4337105;'Wasa>30171';1;0;'Wasa>navire'
e;218980;'sole>50567';1;50;'sole>agriculture'
e;261483;'sole>224300';1;50;'sole>anatomie animale'
e;218981;'sole>111740';1;50;'sole>menuiserie'
e;218979;'sole>68467';1;12;'sole>poisson'
e;232822;'natte>98040';1;50;'natte>architecture'
e;232824;'natte>52255';1;50;'natte>arbre'
e;232820;'natte>63936';1;50;'natte>tissu'
e;232821;'natte>2448';1;4;'natte>tresse'
e;228310;'toast>47918';1;10;'toast>boire'
e;320828;'bâtard>60093';1;50;'bâtard>insatisfaisant'
e;320830;'bâtard>251763';1;50;'bâtard>personne méprisable'
e;320826;'bâtard>17559';1;50;'bâtard>animal'
e;320829;'bâtard>41722';1;8;'bâtard>enfant naturel'
e;320831;'bâtard>37370';1;50;'bâtard>dague'
e;2725035;'miel>127270';1;0;'miel>merde'
e;244983;'miel>40056';1;50;'miel>couleur'
e;2725034;'miel>11525';1;0;'miel>agrément'
e;216652;'croûte>125591';1;50;'croûte>croûte terrestre'
e;216654;'croûte>129859';1;50;'croûte>sédiment'
e;216655;'croûte>141687';1;50;'croûte>fromage'
e;216656;'croûte>25966';1;60;'croûte>pâtisserie'
e;216657;'croûte>102206';1;52;'croûte>médecine'
e;216658;'croûte>167803';1;50;'croûte>pain quotidien'
e;216659;'croûte>35841';1;50;'croûte>peinture'
e;219147;'empereur>39531';1;24;'empereur>souverain'
e;219148;'empereur>68467';1;52;'empereur>poisson'
e;219149;'empereur>140176';1;50;'empereur>oiseau'
e;219150;'empereur>18285';1;50;'empereur>papillon'
e;258583;'faluche>139654';1;16;'faluche>coiffe'
e;241368;'mie>44438';1;4;'mie>amie'
e;241369;'mie>27672';1;50;'mie>pas'
e;2838876;'levage>9172';1;0;'levage>viticulture'
e;2838877;'levage>26608';1;0;'levage>savon'
e;2838878;'levage>139869';1;0;'levage>charpente'
e;2838874;'levage>51683';1;0;'levage>lever'
e;332551;'banette>105426';1;50;'banette>couchette'
e;332552;'banette>43733';1;50;'banette>corbeille'
e;228774;'four>382343>102524';1;50;'four>système de chauffage>incinérateur'
e;228772;'four>382343>55133';1;50;'four>système de chauffage>industriel'
e;228771;'four>382343>34994';1;14;'four>système de chauffage>poterie'
e;228770;'four>382343>16033';1;38;'four>système de chauffage>cuisine'
e;1678561;'fougasse>213727';1;0;'fougasse>mine explosive'
e;1678562;'fougasse>91516';1;0;'fougasse>incartade'
e;320389;'petite commission>130808';1;50;'petite commission>course'
e;320386;'petite commission>83358';1;50;'petite commission>pipi'
e;320388;'petite commission>51253';1;50;'petite commission>message'
e;320390;'petite commission>120511';1;50;'petite commission>assemblée'
e;437811;'roti>19636';1;50;'roti>rôti'
e;4328849;'geindre>122483';1;2;'geindre>se plaindre'
e;1652882;'longuet>84432';1;2;'longuet>long'
e;248870;'sésame>145941';1;50;'sésame>plante'
e;248872;'sésame>52660';1;52;'sésame>clé'
e;233203;'oeil>16033>18777';1;50;'oeil>cuisine>bulle'
e;3304653;'fleurage>251995';1;0;'fleurage>décoration florale'
e;266046;'pogne>108045';1;50;'pogne>poing'
e;266047;'pogne>81934';1;50;'pogne>main'
e;234137;'tranche>65364>140100';1;50;'tranche>morceau>viande'
e;213431;'miche>126687';1;50;'miche>fesse'
e;394464;'saucer>113967';1;50;'saucer>pleuvoir'
e;231389;'restaurant>77864';1;128;'restaurant>établissement'
e;3542583;'rassissement>64437';1;0;'rassissement>boucherie'
e;3232301;'chaland>34235';1;0;'chaland>galant'
e;244771;'lever>244768';1;2;'lever>placer plus haut'
e;244772;'lever>244770';1;50;'lever>mouvoir de bas en haut'
e;244773;'lever>43485';1;2;'lever>dresser'
e;244774;'lever>3486';1;56;'lever>retirer'
e;244775;'lever>18049';1;50;'lever>faire cesser'
e;244776;'lever>8972';1;50;'lever>impôt'
e;244777;'lever>119554';1;50;'lever>enrôler'
e;244778;'lever>140429';1;50;'lever>chasse'
e;244779;'lever>3674';1;50;'lever>botanique'
e;244780;'lever>104795';1;50;'lever>réveiller'
e;232593;'hostie>86010';1;50;'hostie>holocauste'
e;245481;'bis>50889';1;50;'bis>gris'
e;245483;'bis>7049';1;54;'bis>répétition'
e;245484;'bis>2997';1;50;'bis>secondaire'
e;1874433;'entamé>146525';1;0;'entamé>entaillé'
e;1874434;'entamé>266163';1;0;'entamé>débuté'
e;1874435;'entamé>49666';1;0;'entamé>altéré'
e;1874436;'entamé>43635';1;0;'entamé>entamer'