
r;1793534;61283;33593;666;1
r;1800884;61283;3038;666;1
r;1800885;61283;9190;666;1
r;1800886;61283;228308;666;1
r;1805123;61283;106702;666;1
r;1832938;61283;142722;666;1
r;1832939;61283;32071;666;1
r;1832940;61283;128482;666;1
r;1832941;61283;20965;666;1
r;1832942;61283;37905;666;1
r;1903469;61283;114637;666;1
r;2014208;61283;152157;666;1
r;1662790;61283;25337;666;2
r;1662791;61283;92142;666;2
r;1662792;61283;41851;666;2
r;1662794;61283;15196;666;2
r;1762215;61283;119014;666;2
r;1662793;61283;145285;666;3
r;1793535;61283;127629;666;7