e;61283;'pain';1;3274
e;102961;'sentir bon';1;96
e;243453;'faire grossir';1;18
e;219584;'être tartiné';1;50
e;130440;'rassir';1;50
e;110169;'durcir';1;122
e;68245;'ramollir';1;98
e;46367;'griller';1;280