
r;15816238;61283;226396;17;-19
r;104910735;61283;596544;17;3
r;104911177;61283;1874375;17;3
r;97867966;61283;597949;17;4
r;97868024;61283;599810;17;4
r;104910124;61283;225703;17;4
r;97868810;61283;146596;17;5
r;348408679;61283;225881;17;5
r;97410397;61283;156975;17;6
r;97410308;61283;684403;17;11
r;98388039;61283;2585756;17;13
r;104909608;61283;43534;17;19
r;288391313;61283;77029;17;20
r;104909632;61283;1641212;17;21
r;14804379;61283;237917;17;22
r;33141798;61283;39474;17;22
r;33827546;61283;1970576;17;22
r;14804822;61283;214920;17;23
r;61448093;61283;2531900;17;23
r;96715925;61283;224168;17;23
r;14800279;61283;49309;17;24
r;14804658;61283;89392;17;24
r;54730410;61283;436890;17;24
r;96715920;61283;47964;17;24
r;104908763;61283;1792017;17;24
r;104908783;61283;1792016;17;24
r;348332835;61283;1342544;17;25
r;25813440;61283;154906;17;26
r;256055673;61283;3223295;17;26
r;2919243;61283;113963;17;27
r;26361841;61283;1648606;17;27
r;14803459;61283;210127;17;28
r;96715926;61283;35812;17;30
r;339595158;61283;82147;17;30
r;2749598;61283;82844;17;34
r;14803224;61283;165584;17;35
r;91723578;61283;3692690;17;35
r;14803238;61283;225695;17;38
r;100199156;61283;41139;17;39
r;100199175;61283;77659;17;40
r;14800990;61283;269454;17;46
r;12987086;61283;245366;17;51
r;12987095;61283;53651;17;51
r;13009555;61283;152977;17;51
r;13009556;61283;226196;17;51
r;217003922;61283;47377;17;51
r;12394779;61283;26607;17;52
r;147651;61283;119625;17;54
r;96715908;61283;28105;17;56
r;373836;61283;19150;17;59
r;31818924;61283;45179;17;59
r;146684;61283;153719;17;60
r;147652;61283;72731;17;60
r;373839;61283;53495;17;60
r;12987088;61283;23178;17;61
r;12987089;61283;55222;17;61
r;12987090;61283;104146;17;61
r;12987091;61283;231366;17;61
r;12987093;61283;15436;17;61
r;13008203;61283;2201;17;61
r;13008204;61283;18236;17;61
r;13009557;61283;217380;17;61
r;12987092;61283;237790;17;62
r;12987097;61283;145464;17;62
r;210379331;61283;2085751;17;63
r;12987087;61283;30900;17;64
r;12987084;61283;239680;17;71
r;12987085;61283;214939;17;71
r;12987098;61283;106625;17;71
r;12987099;61283;132917;17;71
r;147653;61283;63619;17;80
r;373837;61283;125085;17;80
r;376767;61283;42645;17;80
r;1782545;61283;141899;17;80
r;12987094;61283;52508;17;81
r;12987096;61283;65767;17;82
r;146686;61283;144229;17;90
r;1782546;61283;229916;17;90
r;373834;61283;16044;17;102
r;146682;61283;15196;17;132
r;146683;61283;64238;17;132