
r;15049574;61283;328707;26;30
r;15049899;61283;166336;26;30
r;15050576;61283;328868;26;30
r;15050754;61283;8066;26;30
r;15051624;61283;213315;26;30
r;15052925;61283;326740;26;30
r;15052953;61283;329041;26;30
r;15053581;61283;328242;26;30
r;15054338;61283;328408;26;30
r;15054411;61283;328326;26;30
r;15054628;61283;328294;26;30
r;15054661;61283;328044;26;30
r;15054702;61283;317035;26;30
r;15055213;61283;327159;26;30
r;15055258;61283;327361;26;30
r;15055298;61283;328016;26;30
r;15055550;61283;327955;26;30
r;15055586;61283;327929;26;30
r;15055765;61283;327382;26;30
r;15055808;61283;327847;26;30
r;15056797;61283;327466;26;30
r;15057027;61283;327122;26;30
r;15057534;61283;327166;26;30
r;15058117;61283;326928;26;30
r;15058121;61283;326927;26;30
r;15058126;61283;326613;26;30
r;15058567;61283;326711;26;30
r;15058805;61283;326618;26;30
r;15059402;61283;260049;26;30
r;15059415;61283;257674;26;30
r;15059428;61283;257675;26;30
r;15059441;61283;260059;26;30
r;15059454;61283;152199;26;30
r;15059467;61283;260048;26;30
r;15059855;61283;163658;26;30
r;15060638;61283;68687;26;30
r;15061269;61283;162329;26;30
r;15061753;61283;167143;26;30
r;15063129;61283;29926;26;30
r;15064394;61283;213856;26;30
r;15065852;61283;226992;26;30
r;15066671;61283;164336;26;30
r;15067328;61283;54438;26;30
r;15067562;61283;163582;26;30
r;15067890;61283;119858;26;30
r;15068194;61283;162278;26;30
r;15068498;61283;162442;26;30
r;15068634;61283;56105;26;30
r;15068905;61283;161099;26;30
r;15069640;61283;161583;26;30
r;15069796;61283;161016;26;30
r;15070056;61283;159061;26;30
r;15070535;61283;157424;26;30
r;15070915;61283;158730;26;30
r;15070964;61283;156825;26;30
r;15071459;61283;157418;26;30
r;15071542;61283;96775;26;30
r;15071799;61283;127428;26;30
r;15072191;61283;156677;26;30
r;15072515;61283;97885;26;30
r;15072581;61283;131654;26;30
r;15072735;61283;3038;26;30
r;15073888;61283;145285;26;30
r;15074266;61283;21367;26;30
r;31878371;61283;37836;26;30
r;72540775;61283;224422;26;30
r;97739744;61283;73827;26;30
r;233209124;61283;6681658;26;30
r;278315055;61283;219088;26;30
r;278791088;61283;327373;26;30
r;289099077;61283;11295522;26;30
r;29343665;61283;97571;26;31
r;33827091;61283;392003;26;31
r;59038396;61283;1747273;26;31
r;15075050;61283;130164;26;32
r;356198695;61283;134489;26;35
r;31770897;61283;128828;26;40
r;15067253;61283;32322;26;45
r;258691537;61283;127348;26;50
r;1809686;61283;191711;26;52
r;289454911;61283;46367;26;56
r;1622943;61283;219584;26;59
r;1622945;61283;5115;26;60
r;258691549;61283;267491;26;65