e;61283;'pain';1;3274
e;64239;'panier';1;494
e;6887722;'=hospital=';1;0
e;2559573;'hospital';1;0
e;16110;'bouche';1;4190
e;146274;'marché';1;1062
e;162775;'superette';1;110
e;227153;'Carrefour';1;90
e;155300;'boulangerie pâtisserie';1;54
e;54126;'grande surface';1;132
e;157161;'pizzéria';1;68
e;101938;'estomac';1;806
e;226027;'marché>135190';1;28;'marché>lieu'
e;120546;'épicerie';1;340
e;109692;'hosto';1;50
e;214276;'cuisine>96851';1;310;'cuisine>pièce'
e;63570;'pizzeria';1;128
e;155166;'boulangerie traditionnelle';1;50
e;46141;'congélateur';1;710
e;90847;'snack';1;214
e;43733;'corbeille';1;162
e;63718;'huis';1;64
e;97875;'huche à pain';1;56
e;221019;'bouche>112609';1;158;'bouche>anatomie'
e;80499;'huche';1;56
e;216042;'table>36899';1;186;'table>meuble'
e;166353;'dépôt de pain';1;54
e;1447;'sandwich';1;974
e;97173;'magasin';1;3037
e;100445;'hôpital';1;3638
e;45179;'maison';1;12096
e;156563;'machine à pain';1;72
e;62735;'assiette';1;1606
e;24860;'panière';1;78
e;107233;'supermarché';1;916
e;33217;'cantine';1;1478
e;9190;'four';1;1728
e;89591;'table';1;3554
e;79954;'restaurant';1;4968
e;16033;'cuisine';1;10668
e;119014;'boulangerie';1;1310
e;247132;'produit de grande consommation';1;54
e;120576;'mozzarella';1;72
e;221738;'blé de Pologne';1;50
e;441;'kebab';1;84
e;6562633;'confiture>114637';1;0;'confiture>aliment'
e;219621;'beurre>133516';1;230;'beurre>produit laitier'
e;70793;'confiture';1;910
e;140377;'beurre';1;2048
e;248871;'sésame>14469';1;50;'sésame>graine'
e;38361;'miette';1;210
e;13260;'sel';1;1410
e;41851;'croûte';1;188
e;37905;'mie';1;266
e;115865;'trou';1;1704
e;244982;'miel>11358';1;62;'miel>substance'
e;136055;'miel';1;922
e;5934365;'Céréales';1;0
e;12388;'tarama';1;62
e;68786;'moisi';1;88
e;161947;'Nutella';1;178
e;156524;'nutella';1;176
e;130831;'camembert';1;370
e;128690;'rye';1;50
e;18283;'céréale';1;594
e;226266;'kébab';1;22
e;98133;'brie';1;158
e;32071;'blé';1;1216
e;7123609;'=cereals=';1;0
e;62278;'céréales';1;212
e;127629;'farine';1;1474
e;7030807;'=rye=';1;0
e;33914;'seigle';1;88