
r;11721770;61283;328986;30;34
r;11722762;61283;327458;30;34
r;11340167;61283;165211;30;38
r;11330462;61283;222484;30;39
r;2270614;61283;1447;30;51
r;233965;61283;128828;30;53
r;233966;61283;114937;30;57
r;372533;61283;119014;30;58
r;233964;61283;130164;30;60
r;1691496;61283;97885;30;60
r;1691497;61283;131654;30;61