
r;118320;3038;61283;5;-50
r;72880823;129374;61283;5;-50
r;1575088;213758;61283;5;27
r;12182548;232592;61283;5;27
r;12182549;213430;61283;5;27
r;85610231;38715;61283;5;27
r;97859685;6456;61283;5;27
r;1722310;152965;61283;5;30
r;10711764;74092;61283;5;30
r;735907;45269;61283;5;31
r;309219427;157366;61283;5;33
r;309233668;439940;61283;5;33
r;309366511;599442;61283;5;33
r;309390739;611223;61283;5;33
r;309541012;4938150;61283;5;33
r;1724056;33593;61283;5;34
r;705644;76913;61283;5;35
r;219871178;9932235;61283;5;35
r;13473681;221243;61283;5;37
r;54669587;76784;61283;5;51
r;53687085;45699;61283;5;52
r;54689416;116130;61283;5;52
r;54689418;17550;61283;5;52
r;54689419;20965;61283;5;52
r;54689420;99693;61283;5;52
r;54689424;45566;61283;5;52
r;54689425;4687;61283;5;52
r;54689427;29991;61283;5;52
r;54689429;25658;61283;5;52
r;54689434;144104;61283;5;52
r;54689436;41894;61283;5;52
r;54689438;17761;61283;5;52
r;9005422;229446;61283;5;53
r;54660345;141883;61283;5;54
r;158628;11448;61283;5;55
r;54681687;84564;61283;5;58
r;61540486;152155;61283;5;58
r;54643384;146257;61283;5;60
r;653833;128482;61283;5;75
r;560663;41417;61283;5;78
r;673074;7003;61283;5;78
r;573339;4781;61283;5;83
r;1728115;114637;61283;5;85