
r;85398576;139331;28223;5;-30
r;310104933;139331;591902;5;20
r;213814871;139331;6766872;5;25
r;310011287;139331;600088;5;25
r;310011706;139331;600080;5;25
r;310175212;139331;455504;5;25
r;98035775;139331;218000;5;26
r;98036193;139331;219327;5;26
r;98461258;139331;595071;5;26
r;1982408;139331;217242;5;27
r;85398575;139331;3738;5;29
r;98453567;139331;157677;5;31
r;68543191;139331;148956;5;32
r;12324019;139331;123340;5;35
r;462474;139331;107150;5;51
r;54601389;139331;131869;5;51
r;54601391;139331;2075;5;52
r;54601396;139331;1451;5;52
r;54601401;139331;146162;5;53
r;54601390;139331;78841;5;54
r;54601394;139331;2901;5;55
r;54601398;139331;64998;5;55
r;102889;139331;39692;5;56
r;462473;139331;61407;5;56
r;54601392;139331;116543;5;56
r;54601400;139331;43868;5;57
r;54601388;139331;80897;5;59
r;54601393;139331;17968;5;59
r;102883;139331;45931;5;60
r;54601399;139331;29566;5;60
r;102887;139331;133542;5;62
r;53736566;139331;143800;5;67
r;53739723;139331;127569;5;67
r;53741035;139331;139292;5;67
r;53742768;139331;88265;5;67
r;53729741;139331;42078;5;68
r;53731303;139331;119686;5;68
r;102885;139331;143981;5;70
r;554940;139331;142736;5;76
r;554941;139331;139743;5;78
r;12326032;139331;80220;5;84
r;12205044;139331;17186;5;85