e;139331;'voile';1;1478
e;222883;'aile>117095>71926';1;42;'aile>zoologie>insecte'
e;154607;'antennes';1;122
e;10962813;'corps segmenté';1;0
e;10962826;'pièces buccales externes';1;0
e;10962816;'paire d'antennes';1;0
e;79691;'laize';1;50
e;115735;'chute';1;892
e;181004;'bande de ris';1;50
e;139467;'cale';1;144
e;6910;'coque';1;498
e;213441;'coque>107150';1;10;'coque>bateau'
e;91356;'pont';1;764
e;218888;'pont>30171';1;14;'pont>navire'
e;48860;'poupe';1;154
e;52141;'proue';1;224
e;106562;'thorax';1;272
e;32903;'têtière';1;52
e;74846;'corps';1;4634
e;70231;'oeillet';1;112
e;219860;'couture>82827';1;26;'couture>coudre'
e;43853;'aile';1;2042
e;390927;'tête>112609';1;60;'tête>anatomie'
e;143150;'latte';1;100
e;218670;'antenne>117095';1;16;'antenne>zoologie'
e;171802;'illet';1;52
e;8990;'patte';1;1760
e;64313;'abdomen';1;450
e;151867;'pattes';1;1102
e;83944;'nerf';1;812
e;225934;'oeil>330323';1;108;'oeil>organe de la vue'
e;326147;'système nerveux en position ventrale';1;52
e;16747;'adn';1;158
e;28107;'guindant';1;50
e;219363;'corps>112609';1;148;'corps>anatomie'
e;38296;'bordure';1;202
e;143462;'couture';1;1152
e;77424;'oeil';1;2984
e;103311;'système nerveux';1;246
e;77008;'yeux';1;4020
e;139779;'ADN';1;664
e;148105;'ailes';1;1230
e;63936;'tissu';1;1870
e;144846;'tête';1;5464
e;114327;'acide désoxyribonucléique';1;136
e;157238;'frégate>119825>136307';1;56;'frégate>navire de guerre>moderne'
e;117515;'paquebot';1;678
e;94233;'tanker';1;88
e;11866;'porte-avions';1;182
e;16386;'monospace';1;72
e;236897;'Chance Vought F4U Corsair';1;16
e;231445;'petite voiture';1;114
e;248045;'voiture à essence';1;6
e;13884166;'Bismarck>13884165';1;0;'Bismarck>cuirassé allemand'
e;121760;'optimiste';1;106
e;62077;'supertanker';1;56
e;219101;'frégate lance-missile';1;20
e;127726;'zodiac';1;62
e;230356;'2CV';1;2
e;66098;'trirème';1;50
e;214874;'voilier>68467';1;50;'voilier>poisson'
e;218385;'coche>107150';1;50;'coche>bateau'
e;13030;'thonier';1;94
e;160347;'goëlette';1;50
e;179481;'burqa';1;22
e;123745;'véhicule';1;2068
e;116645;'pro';1;72
e;12595;'sinagot';1;52
e;149814;'prao';1;50
e;161165;'burka';1;60
e;108002;'mariée';1;230
e;156330;'musulmane';1;78
e;214102;'nef>30171';1;12;'nef>navire'
e;253508;'barque>127671';1;52;'barque>embarcation'
e;455504;'bateau>171870';1;50;'bateau>Nom:'
e;298003;'non pontée';777;50
e;25346;'goélette';1;150
e;189893;'anémélectroreculpédalicoupeventombrosoparacloucycle';1;50
e;253509;'barque>127671>38245';1;50;'barque>embarcation>voilier'
e;47162;'pinasse';1;50
e;101699;'morutier';1;56
e;105326;'catamaran';1;304
e;241958;'navire marchand';1;50
e;120157;'règne animal';1;78
e;127671;'embarcation';1;310
e;84319;'frégate';1;372
e;52045;'trière';1;58
e;19228;'optimist';1;58
e;168665;'sinago';1;50
e;212816;'HMS Victory';666;50
e;133563;'barque';1;670
e;98125;'trimaran';1;188
e;1745425;'dragon>143712';1;0;'dragon>marine'
e;142558;'dragon';1;290
e;36886;'faune';1;384
e;161444;'bateau de plaisance';1;62
e;251252;'frégate de 18';1;50
e;169875;'vaisseau de ligne';1;50
e;26477;'mariage';1;2750
e;120623;'jonque';1;50
e;65524;'bâtiment';1;1140
e;115846;'cotre';1;82
e;105106;'galéasse';1;50
e;233884;'Belem';1;24
e;30810;'yacht';1;128
e;187835;'navire à voile';1;22
e;148238;'galéace';1;50
e;105032;'chebek';1;56
e;174903;'chabec';1;50
e;142944;'chébec';1;50
e;11946;'chebec';1;50
e;94212;'brigantine';1;64
e;35349;'dimétrodon';1;50
e;5164695;'Dimétrodon';1;0
e;3449064;'Dimetrodon';777;0
e;30162;'jeux Paralympiques';1;52
e;182874;'Jeux paralympiques';1;52
e;325048;'jeux paralympiques';1;52
e;14437;'felouque';1;80
e;155663;'goelette';1;50
e;22546;'radeau';1;120
e;160847;'bateau de guerre';1;50
e;120949;'vêtement';1;3226
e;15288;'bâtiment de guerre';1;66
e;246935;'goélette>30171';1;50;'goélette>navire'
e;4006889;'felouka';1;0
e;31919;'ketch';1;68
e;284759;'Notodontidae';777;50
e;9743773;'=raft=';1;0
e;143800;'palais';1;492
e;157677;'bateau>146885';1;58;'bateau>Nom:Mas+SG'
e;150382;'sampang';1;50
e;214225;'bâtiment>30171';1;24;'bâtiment>navire'
e;153067;'frégate>119825';1;82;'frégate>navire de guerre'
e;119825;'navire de guerre';1;118
e;143712;'marine';1;1228
e;142700;'mat';1;314
e;143981;'rideau';1;510
e;219326;'bateau>127671';1;302;'bateau>embarcation'
e;61452;'caravelle';1;84
e;92091;'mât';1;474
e;108215;'planche à voile';1;72
e;81367;'nef';1;376
e;157237;'frégate>119825>57904';1;14;'frégate>navire de guerre>ancien'
e;178997;'cague';1;50
e;1416;'trois-mâts';1;118
e;38245;'voilier';1;1460
e;214872;'voilier>107150';1;100;'voilier>bateau'
e;121216;'sampan';1;50
e;262514;'navire de guerre>156325';1;50;'navire de guerre>marine à voile'
e;107150;'bateau';1;5570
e;161446;'bateau à voiles';1;70
e;9743697;'=sailboat=';1;0
e;152266;'bateau à voile';1;134
e;30171;'navire';1;2149