
r;276793323;222883;139331;10;2
r;276791371;10962813;139331;10;3
r;9994699;70231;139331;10;4
r;9994707;143462;139331;10;4
r;9994697;38296;139331;10;4
r;9994705;115735;139331;10;4
r;9994695;32903;139331;10;4
r;9994703;143150;139331;10;4
r;9994711;219860;139331;10;4
r;9994693;28107;139331;10;4
r;9994701;79691;139331;10;4
r;9994709;181004;139331;10;4
r;276735636;10962816;139331;10;4
r;276727977;10962826;139331;10;5
r;276733167;154607;139331;10;5
r;116625792;326147;139331;10;6
r;116626510;139779;139331;10;6
r;116627161;77008;139331;10;6
r;116627582;390927;139331;10;6
r;116628025;225934;139331;10;6
r;9994712;63936;139331;10;7
r;115347008;218670;139331;10;7
r;115348164;8990;139331;10;7
r;115348294;77424;139331;10;7
r;115413532;103311;139331;10;7
r;115413994;83944;139331;10;7
r;115414398;219363;139331;10;7
r;115414745;74846;139331;10;7
r;115415599;151867;139331;10;7
r;115415973;64313;139331;10;7
r;115416425;43853;139331;10;7
r;116607027;144846;139331;10;7
r;276794537;148105;139331;10;24
r;276730588;106562;139331;10;25
r;80647948;218888;139331;10;26
r;10652871;171802;139331;10;27
r;80648437;139467;139331;10;27
r;80647705;52141;139331;10;28
r;80648312;6910;139331;10;28
r;116626400;16747;139331;10;28
r;80648191;213441;139331;10;29
r;80648069;91356;139331;10;30
r;330138266;12791689;139331;10;30
r;115415268;114327;139331;10;31
r;80647826;48860;139331;10;34