
r;15117912;139331;44600;27;-29
r;15129876;139331;270221;27;-28
r;15132946;139331;242066;27;-28
r;29122371;139331;248545;27;-28
r;15133732;139331;251386;27;-27
r;18116926;139331;254637;27;-24
r;15223046;139331;146805;27;-22
r;18196047;139331;270278;27;-22
r;15225329;139331;84319;27;-21
r;28456508;139331;141364;27;-21
r;30863295;139331;226793;27;-6
r;30866320;139331;1701784;27;-6
r;30866571;139331;213454;27;-6
r;30868040;139331;228848;27;-6
r;30869341;139331;241209;27;-6
r;31616859;139331;226381;27;-5
r;55095912;139331;2599292;27;-5
r;55095933;139331;156275;27;-5
r;75998146;139331;143413;27;-5
r;31319423;139331;170113;27;-4
r;31319426;139331;90097;27;-4
r;31319429;139331;45953;27;-4
r;31319432;139331;128752;27;-4
r;31319433;139331;31481;27;-4
r;31319434;139331;111350;27;-4
r;31319435;139331;187789;27;-4
r;31319436;139331;102362;27;-4
r;31319437;139331;61421;27;-4
r;31319438;139331;129413;27;-4
r;31319439;139331;156764;27;-4
r;31319440;139331;84412;27;-4
r;31319441;139331;27994;27;-4
r;31319442;139331;33784;27;-4
r;31319443;139331;187790;27;-4
r;31319444;139331;53673;27;-4
r;31319445;139331;79691;27;-4
r;31319446;139331;7467;27;-4
r;31319447;139331;270235;27;-4
r;31319450;139331;105650;27;-4
r;31319451;139331;1663122;27;-4
r;31322073;139331;214873;27;-4
r;31322075;139331;213393;27;-4
r;31322076;139331;250163;27;-4
r;31322078;139331;262514;27;-4
r;31322079;139331;369750;27;-4
r;31322080;139331;1157841;27;-4
r;31322081;139331;1157842;27;-4
r;31322082;139331;95857;27;-4
r;31322083;139331;314172;27;-4
r;31322084;139331;214220;27;-4
r;31322085;139331;314173;27;-4
r;31322086;139331;217312;27;-4
r;31322087;139331;91417;27;-4
r;31322088;139331;1157843;27;-4
r;31322089;139331;1157844;27;-4
r;31322090;139331;73739;27;-4
r;31322091;139331;118993;27;-4
r;31322092;139331;356516;27;-4
r;31322093;139331;369940;27;-4
r;31322094;139331;123961;27;-4
r;31322095;139331;94212;27;-4
r;31322096;139331;92374;27;-4
r;31322097;139331;392256;27;-4
r;31322099;139331;264415;27;-4
r;31322100;139331;320847;27;-4
r;31322103;139331;223192;27;-4
r;93032474;139331;143981;27;-4
r;285619444;139331;178997;27;-4
r;31362704;139331;146051;27;-3
r;31362707;139331;142381;27;-3
r;31362710;139331;96219;27;-3
r;31362713;139331;139467;27;-3
r;31362716;139331;30584;27;-3
r;31362719;139331;20479;27;-3
r;31362721;139331;81819;27;-3
r;31362724;139331;6910;27;-3
r;31362727;139331;105426;27;-3
r;31362730;139331;57287;27;-3
r;31362733;139331;6487;27;-3
r;31362736;139331;11343;27;-3
r;31362739;139331;33812;27;-3
r;31362742;139331;91356;27;-3
r;31362745;139331;48860;27;-3
r;31362748;139331;52141;27;-3
r;31362751;139331;35671;27;-3
r;31362754;139331;140148;27;-3
r;31362757;139331;143079;27;-3
r;34175739;139331;568143;27;-3
r;34340721;139331;255211;27;-3
r;63922725;139331;2487039;27;-3
r;63922815;139331;2448848;27;-3
r;82350630;139331;150872;27;-3
r;82350631;139331;41019;27;-3
r;82350634;139331;179481;27;-3
r;82350636;139331;2373094;27;-3
r;82350639;139331;2421595;27;-3
r;82350642;139331;39003;27;-3
r;82350645;139331;12970;27;-3
r;82350648;139331;78398;27;-3
r;82350651;139331;141942;27;-3
r;82350654;139331;119686;27;-3
r;82350655;139331;46795;27;-3
r;82350658;139331;179493;27;-3
r;82350661;139331;179133;27;-3
r;82350664;139331;5830;27;-3
r;82350667;139331;2434517;27;-3
r;82350669;139331;2555640;27;-3
r;82350672;139331;74466;27;-3
r;82350675;139331;2901;27;-3
r;82350676;139331;225705;27;-3
r;82350679;139331;28640;27;-3
r;82350682;139331;2378392;27;-3
r;82350685;139331;150826;27;-3
r;82350688;139331;13616;27;-3
r;82350691;139331;48361;27;-3
r;82350694;139331;2411072;27;-3
r;82350697;139331;290613;27;-3
r;85324330;139331;28697;27;-3
r;85324333;139331;39565;27;-3
r;86276676;139331;3225315;27;-3
r;86276679;139331;269600;27;-3
r;32031493;139331;299869;27;-2
r;33918570;139331;387435;27;-2
r;33918572;139331;387432;27;-2
r;33918574;139331;387439;27;-2
r;33918576;139331;387418;27;-2
r;33918578;139331;387437;27;-2
r;33918580;139331;387427;27;-2
r;33918582;139331;387434;27;-2
r;33918584;139331;387423;27;-2
r;33918586;139331;387440;27;-2
r;33918588;139331;387419;27;-2
r;33918590;139331;387428;27;-2
r;33918592;139331;387420;27;-2
r;33918594;139331;387436;27;-2
r;33918596;139331;387426;27;-2
r;33918598;139331;387429;27;-2
r;33918600;139331;387421;27;-2
r;33918602;139331;387422;27;-2
r;33918604;139331;387438;27;-2
r;33918606;139331;387424;27;-2
r;33918608;139331;387417;27;-2
r;33918610;139331;387433;27;-2
r;98700735;139331;161165;27;-2
r;98851705;139331;3911755;27;-2
r;99020562;139331;2464375;27;-2
r;99020564;139331;2550549;27;-2
r;117446426;139331;306376;27;-2
r;122807482;139331;6693793;27;-2
r;217391991;139331;174838;27;-2
r;264200940;139331;10556355;27;-2
r;31433205;139331;151987;27;-1
r;31433206;139331;153134;27;-1
r;31433207;139331;154139;27;-1
r;31433208;139331;123340;27;-1
r;31433209;139331;175836;27;-1
r;31433210;139331;82383;27;-1
r;31433211;139331;387430;27;-1
r;31433212;139331;387431;27;-1
r;31433213;139331;107745;27;-1
r;31433214;139331;164321;27;-1
r;31433215;139331;1566519;27;-1
r;31433216;139331;1852658;27;-1
r;31433217;139331;1852657;27;-1
r;31433218;139331;1848325;27;-1
r;31433219;139331;1848324;27;-1
r;31433220;139331;1848323;27;-1
r;31433221;139331;253635;27;-1
r;31433222;139331;161650;27;-1
r;31433223;139331;1694122;27;-1
r;31433224;139331;174366;27;-1
r;31433225;139331;724345;27;-1
r;31433226;139331;187615;27;-1
r;31433227;139331;1926029;27;-1
r;34277866;139331;239874;27;-1
r;49808574;139331;2357127;27;-1
r;61638591;139331;2461743;27;-1
r;115771339;139331;5898315;27;-1
r;115771062;139331;290964;27;-1
r;118965655;139331;5992890;27;-1
r;126485804;139331;153440;27;-1
r;220653975;139331;7490511;27;-1
r;280121877;139331;2407950;27;-1
r;302991082;139331;6358550;27;-1
r;302991093;139331;6350190;27;-1
r;302991084;139331;6324882;27;-1
r;327524508;139331;12732341;27;-1
r;327524720;139331;12732283;27;-1