
r;275392297;139331;10314012;17;10
r;113441306;139331;53683;17;18
r;14800382;139331;41485;17;22
r;283282481;139331;157609;17;26
r;14803514;139331;70304;17;30
r;115494128;139331;122864;17;30
r;115487385;139331;99220;17;35
r;115490113;139331;1384;17;35
r;115582858;139331;330215;17;39
r;361562;139331;15196;17;51
r;364392;139331;55342;17;51
r;361561;139331;144718;17;52
r;205620;139331;41224;17;54
r;205621;139331;31158;17;55
r;361563;139331;95404;17;57
r;241600;139331;143256;17;70
r;196944;139331;32251;17;90