
r;6761969;25012;139331;777;1
r;10680724;7282;139331;777;1
r;10713154;147416;139331;777;1
r;13438517;174903;139331;777;1
r;13477533;175090;139331;777;1
r;10730819;149098;139331;777;2
r;13438467;11946;139331;777;2
r;13440560;19878;139331;777;2
r;4982211;85024;139331;777;5
r;3238699;17968;139331;777;7
r;3302387;137784;139331;777;9
r;3342724;78751;139331;777;9
r;3582274;119467;139331;777;9
r;4046985;144936;139331;777;9
r;5761050;12878;139331;777;9
r;7879110;93100;139331;777;9
r;8299475;213100;139331;777;9
r;3265179;38784;139331;777;10
r;3273254;53673;139331;777;10
r;3275457;139243;139331;777;10
r;3275458;141921;139331;777;10
r;3280279;115735;139331;777;10
r;3304241;35565;139331;777;10
r;3342834;83924;139331;777;10
r;3342924;272195;139331;777;10
r;3352116;159193;139331;777;10
r;3352117;172959;139331;777;10
r;3353451;15384;139331;777;10
r;3413497;21463;139331;777;10
r;3463109;272715;139331;777;10
r;3466723;145953;139331;777;10
r;3474875;90864;139331;777;10
r;3504727;17916;139331;777;10
r;3505002;52098;139331;777;10
r;3507702;63267;139331;777;10
r;3526238;33976;139331;777;10
r;3540958;273124;139331;777;10
r;3540988;155708;139331;777;10
r;3564314;13712;139331;777;10
r;3564315;152338;139331;777;10
r;3574223;63192;139331;777;10
r;3620286;273555;139331;777;10
r;3658355;172761;139331;777;10
r;3676713;230004;139331;777;10
r;3714496;26477;139331;777;10
r;3714500;154966;139331;777;10
r;3734426;47162;139331;777;10
r;3734427;168645;139331;777;10
r;3857476;38296;139331;777;10
r;3857478;172996;139331;777;10
r;3865766;230727;139331;777;10
r;3875110;154117;139331;777;10
r;3875111;274971;139331;777;10
r;3929565;141936;139331;777;10
r;3933763;275370;139331;777;10
r;3933823;91502;139331;777;10
r;3939756;101941;139331;777;10
r;3939776;275401;139331;777;10
r;3943523;109915;139331;777;10
r;3943531;231155;139331;777;10
r;3952128;122694;139331;777;10
r;3964144;137338;139331;777;10
r;3996286;275867;139331;777;10
r;3996290;275868;139331;777;10
r;3996294;275869;139331;777;10
r;3999850;275922;139331;777;10
r;3999862;275923;139331;777;10
r;3999869;275924;139331;777;10
r;4016017;239874;139331;777;10
r;4046988;137773;139331;777;10
r;4074705;36911;139331;777;10
r;4074706;176;139331;777;10
r;4272971;7467;139331;777;10
r;4415383;179493;139331;777;10
r;4455423;185232;139331;777;10
r;4455426;279843;139331;777;10
r;4468272;99367;139331;777;10
r;4493495;280134;139331;777;10
r;4521653;67013;139331;777;10
r;4539393;141942;139331;777;10
r;4668782;168553;139331;777;10
r;4668784;104640;139331;777;10
r;4719314;258425;139331;777;10
r;4719316;163823;139331;777;10
r;4787510;120957;139331;777;10
r;4822363;39889;139331;777;10
r;4844756;67768;139331;777;10
r;4904433;98762;139331;777;10
r;4981389;61407;139331;777;10
r;4981391;284011;139331;777;10
r;4997244;30754;139331;777;10
r;5003995;140056;139331;777;10
r;5012590;153248;139331;777;10
r;5021555;216382;139331;777;10
r;5026664;284344;139331;777;10
r;5026665;284345;139331;777;10
r;5153853;52488;139331;777;10
r;5158960;52746;139331;777;10
r;5175216;53574;139331;777;10
r;5190143;104130;139331;777;10
r;5198783;106208;139331;777;10
r;5198784;285511;139331;777;10
r;5235058;26855;139331;777;10
r;5243612;47013;139331;777;10
r;5350375;183409;139331;777;10
r;5350376;138622;139331;777;10
r;5596875;98823;139331;777;10
r;5596876;287039;139331;777;10
r;5761047;176313;139331;777;10
r;5761048;287511;139331;777;10
r;5761049;287512;139331;777;10
r;6041278;288397;139331;777;10
r;6095736;156325;139331;777;10
r;6147080;29759;139331;777;10
r;6181524;28107;139331;777;10
r;6191270;127405;139331;777;10
r;6191271;12999;139331;777;10
r;6228668;108215;139331;777;10
r;6228673;230095;139331;777;10
r;6243004;289727;139331;777;10
r;6243007;159848;139331;777;10
r;6248675;74047;139331;777;10
r;6284065;179488;139331;777;10
r;6284066;76065;139331;777;10
r;6292555;111350;139331;777;10
r;6332243;178981;139331;777;10
r;6364984;42118;139331;777;10
r;6365183;234317;139331;777;10
r;6376347;123961;139331;777;10
r;6376348;290964;139331;777;10
r;6381720;222816;139331;777;10
r;6386077;168688;139331;777;10
r;6386078;110852;139331;777;10
r;6391024;120046;139331;777;10
r;6400430;153590;139331;777;10
r;6405848;167593;139331;777;10
r;6439256;31481;139331;777;10
r;6440770;124220;139331;777;10
r;6449473;291715;139331;777;10
r;6449474;93954;139331;777;10
r;6464844;33784;139331;777;10
r;6465026;161608;139331;777;10
r;6534491;187790;139331;777;10
r;6558281;63418;139331;777;10
r;6558730;124405;139331;777;10
r;6596819;28229;139331;777;10
r;6646272;142944;139331;777;10
r;6646273;105032;139331;777;10
r;6648287;12119;139331;777;10
r;6648288;138932;139331;777;10
r;6679415;15311;139331;777;10
r;6679416;18149;139331;777;10
r;6736902;22551;139331;777;10
r;6783407;27365;139331;777;10
r;6818748;31168;139331;777;10
r;6844627;33760;139331;777;10
r;6943190;44500;139331;777;10
r;6953937;47650;139331;777;10
r;6990450;55140;139331;777;10
r;7020414;58261;139331;777;10
r;7021731;58377;139331;777;10
r;7050080;61421;139331;777;10
r;7050081;105650;139331;777;10
r;7050082;297763;139331;777;10
r;7052197;61706;139331;777;10
r;7091621;65962;139331;777;10
r;7105741;67631;139331;777;10
r;7105742;298307;139331;777;10
r;7139287;70645;139331;777;10
r;7210655;78908;139331;777;10
r;7226799;81084;139331;777;10
r;7226800;299446;139331;777;10
r;7272218;299869;139331;777;10
r;7272219;148530;139331;777;10
r;7272220;85834;139331;777;10
r;7288829;2898;139331;777;10
r;7288830;88087;139331;777;10
r;7323928;92074;139331;777;10
r;7391920;99729;139331;777;10
r;7512267;151379;139331;777;10
r;7606396;155208;139331;777;10
r;7626467;155942;139331;777;10
r;7688074;129257;139331;777;10
r;7718654;304066;139331;777;10
r;7718655;131869;139331;777;10
r;7761460;135630;139331;777;10
r;7806000;140607;139331;777;10
r;7834277;143158;139331;777;10
r;7835531;148163;139331;777;10
r;7840444;150455;139331;777;10
r;7851467;160064;139331;777;10
r;7871437;168552;139331;777;10
r;7878732;168561;139331;777;10
r;7878892;168584;139331;777;10
r;7879055;168625;139331;777;10
r;7879111;54763;139331;777;10
r;7879112;169655;139331;777;10
r;7879512;169707;139331;777;10
r;7879532;168691;139331;777;10
r;7897401;168585;139331;777;10
r;7898096;168665;139331;777;10
r;7898097;12595;139331;777;10
r;7898158;168677;139331;777;10
r;7899642;173321;139331;777;10
r;7905292;173322;139331;777;10
r;7917963;172960;139331;777;10
r;7942055;179827;139331;777;10
r;7973938;190470;139331;777;10
r;7973939;272018;139331;777;10
r;8018560;169774;139331;777;10
r;8136411;187789;139331;777;10
r;8250814;253635;139331;777;10
r;8327200;216381;139331;777;10
r;8328100;89703;139331;777;10
r;8328101;210485;139331;777;10
r;8337103;203031;139331;777;10
r;8339475;217312;139331;777;10
r;8354960;219208;139331;777;10
r;8355573;227315;139331;777;10
r;8355574;310411;139331;777;10
r;8399403;234901;139331;777;10
r;8437016;226478;139331;777;10
r;8439496;252236;139331;777;10
r;8449796;239414;139331;777;10
r;8823868;314165;139331;777;10
r;8823918;314173;139331;777;10
r;8827673;314609;139331;777;10
r;308802076;2140224;139331;777;10
r;308802077;9071799;139331;777;10
r;14188997;41788;139331;777;10
r;14188998;396577;139331;777;10
r;16188802;396988;139331;777;10
r;17147536;567783;139331;777;10
r;17147535;377096;139331;777;10
r;17118068;567593;139331;777;10
r;17118070;371436;139331;777;10
r;17289858;401286;139331;777;10
r;17317491;404185;139331;777;10
r;17366445;132689;139331;777;10
r;17366450;407850;139331;777;10
r;17368615;407807;139331;777;10
r;17401996;410631;139331;777;10
r;17449334;413909;139331;777;10
r;17461914;415095;139331;777;10
r;17507547;419404;139331;777;10
r;17529936;421084;139331;777;10
r;17834698;418707;139331;777;10
r;17912299;151607;139331;777;10
r;18084851;33605;139331;777;10
r;18084852;47004;139331;777;10
r;18240543;87714;139331;777;10
r;18240545;83528;139331;777;10
r;18566887;22184;139331;777;10
r;18739703;162405;139331;777;10
r;19115322;91633;139331;777;10
r;19156287;111619;139331;777;10
r;19287987;403198;139331;777;10
r;19351517;87488;139331;777;10
r;19509117;169742;139331;777;10
r;20519487;587759;139331;777;10
r;20873088;266459;139331;777;10
r;20976752;51126;139331;777;10
r;22957370;6845;139331;777;10
r;23359014;242492;139331;777;10
r;23402300;34430;139331;777;10
r;24297453;180247;139331;777;10
r;25059534;104279;139331;777;10
r;25169541;154607;139331;777;10
r;25774699;267868;139331;777;10
r;27468473;260076;139331;777;10
r;28018570;371379;139331;777;10
r;28241755;63169;139331;777;10
r;28241757;184792;139331;777;10
r;28612691;298833;139331;777;10
r;28755774;369863;139331;777;10
r;28955729;1761326;139331;777;10
r;28998472;1655155;139331;777;10
r;30054853;1840932;139331;777;10
r;30252710;1013136;139331;777;10
r;30486799;181194;139331;777;10
r;31163242;1925635;139331;777;10
r;32104121;19472;139331;777;10
r;34299108;2339431;139331;777;10
r;34774102;48140;139331;777;10
r;34774103;139539;139331;777;10
r;53023620;2386569;139331;777;10
r;53167303;2393352;139331;777;10
r;55234880;2455641;139331;777;10
r;55461529;2603988;139331;777;10
r;55461530;2603989;139331;777;10
r;55461531;35498;139331;777;10
r;55461532;2603990;139331;777;10
r;55461533;2450421;139331;777;10
r;55614123;2457396;139331;777;10
r;55614124;41812;139331;777;10
r;55705707;2462433;139331;777;10
r;55913817;2473268;139331;777;10
r;61773013;2486661;139331;777;10
r;62505953;2496898;139331;777;10
r;69412315;2513141;139331;777;10
r;71804498;2928580;139331;777;10
r;72704194;2950301;139331;777;10
r;73122353;2954989;139331;777;10
r;76236696;211163;139331;777;10
r;76298987;225084;139331;777;10
r;76298988;311366;139331;777;10
r;77622609;3224606;139331;777;10
r;77646214;2463741;139331;777;10
r;77654037;6456;139331;777;10
r;77654038;593300;139331;777;10
r;77654039;278215;139331;777;10
r;77654040;278216;139331;777;10
r;77654041;102879;139331;777;10
r;77910102;1853349;139331;777;10
r;77913622;281061;139331;777;10
r;81901672;3293551;139331;777;10
r;82017523;166769;139331;777;10
r;82024255;7567;139331;777;10
r;82030389;179032;139331;777;10
r;82049431;254152;139331;777;10
r;82049432;3296023;139331;777;10
r;82821489;188327;139331;777;10
r;82821490;1192721;139331;777;10
r;83446668;48539;139331;777;10
r;83446669;54574;139331;777;10
r;83754374;3323282;139331;777;10
r;84308159;168569;139331;777;10
r;84308161;2563429;139331;777;10
r;85151871;77765;139331;777;10
r;108207175;5506853;139331;777;10
r;87982942;3443303;139331;777;10
r;93225854;343354;139331;777;10
r;93261681;94853;139331;777;10
r;93261682;3179565;139331;777;10
r;96413888;320036;139331;777;10
r;98471438;397742;139331;777;10
r;98486135;1694123;139331;777;10
r;98558130;309768;139331;777;10
r;98790972;4330976;139331;777;10
r;101918190;4874839;139331;777;10
r;101918192;4874840;139331;777;10
r;101918194;4874841;139331;777;10
r;101918196;4874842;139331;777;10
r;101918198;4874843;139331;777;10
r;104972991;52116;139331;777;10
r;104972989;5046278;139331;777;10
r;104848358;579701;139331;777;10
r;106912192;278570;139331;777;10
r;109408379;5526376;139331;777;10
r;109562996;5535753;139331;777;10
r;109578569;5536164;139331;777;10
r;109633184;5537653;139331;777;10
r;109671941;141786;139331;777;10
r;109672100;220761;139331;777;10
r;109672166;5539083;139331;777;10
r;109672167;5539084;139331;777;10
r;109672168;5539085;139331;777;10
r;109672169;5539086;139331;777;10
r;109672170;5539087;139331;777;10
r;109672386;5539094;139331;777;10
r;109673848;27874;139331;777;10
r;109673849;5539362;139331;777;10
r;109676094;224228;139331;777;10
r;109676095;35657;139331;777;10
r;109676627;5539864;139331;777;10
r;109676704;46046;139331;777;10
r;109677155;152968;139331;777;10
r;109677250;77735;139331;777;10
r;109677393;5539873;139331;777;10
r;109677781;5539886;139331;777;10
r;109677800;5536224;139331;777;10
r;109678047;5539892;139331;777;10
r;109678112;5539893;139331;777;10
r;109678237;5539896;139331;777;10
r;109678520;135205;139331;777;10
r;109678685;227196;139331;777;10
r;109681032;141045;139331;777;10
r;109683775;414508;139331;777;10
r;109683776;5540446;139331;777;10
r;109683777;75942;139331;777;10
r;109683820;31170;139331;777;10
r;109684622;5540464;139331;777;10
r;109684735;2547010;139331;777;10
r;109684809;73152;139331;777;10
r;109684942;419292;139331;777;10
r;109865631;5557789;139331;777;10
r;109867343;49161;139331;777;10
r;109870782;5557908;139331;777;10
r;109871225;214783;139331;777;10
r;109871280;5557922;139331;777;10
r;109873718;425574;139331;777;10
r;110030406;5564485;139331;777;10
r;110229495;5534862;139331;777;10
r;110229496;58361;139331;777;10
r;110406581;5598720;139331;777;10
r;110907696;121218;139331;777;10
r;113323973;85100;139331;777;10
r;113828439;5835945;139331;777;10
r;114357194;5874102;139331;777;10
r;114666282;5894102;139331;777;10
r;114666471;28888;139331;777;10
r;114923468;5898523;139331;777;10
r;114928533;5898603;139331;777;10
r;114928534;424767;139331;777;10
r;114928536;5898604;139331;777;10
r;114935140;5898739;139331;777;10
r;114947526;2511933;139331;777;10
r;114973504;5899774;139331;777;10
r;114973505;5899775;139331;777;10
r;114973506;5899776;139331;777;10
r;114974069;5899786;139331;777;10
r;114975794;5899818;139331;777;10
r;114982820;5899965;139331;777;10
r;114991407;5900250;139331;777;10
r;114991606;5900261;139331;777;10
r;114995956;5900398;139331;777;10
r;115007972;5900823;139331;777;10
r;115008974;5900851;139331;777;10
r;115018471;5901075;139331;777;10
r;115020212;5901137;139331;777;10
r;115021874;5901207;139331;777;10
r;115021875;5901208;139331;777;10
r;115022164;5901215;139331;777;10
r;115022188;5901216;139331;777;10
r;115023053;5901244;139331;777;10
r;115023130;5901246;139331;777;10
r;115023131;17298;139331;777;10
r;115023132;5901247;139331;777;10
r;115028536;5901401;139331;777;10
r;116035489;5942971;139331;777;10
r;115084086;420747;139331;777;10
r;115180084;5907645;139331;777;10
r;115215008;5908257;139331;777;10
r;115215009;5908258;139331;777;10
r;115533858;5918989;139331;777;10
r;115555105;5919597;139331;777;10
r;115620418;4336;139331;777;10
r;115623570;56924;139331;777;10
r;115634654;5921845;139331;777;10
r;115634655;5921846;139331;777;10
r;115636138;5921884;139331;777;10
r;115650739;5922457;139331;777;10
r;115650740;5922458;139331;777;10
r;115964181;84347;139331;777;10
r;115973692;1722;139331;777;10
r;115973694;5940713;139331;777;10
r;115973696;5940715;139331;777;10
r;115973698;5940716;139331;777;10
r;115982492;143537;139331;777;10
r;115983374;96947;139331;777;10
r;115986042;5941171;139331;777;10
r;115986081;5941173;139331;777;10
r;115986117;5941175;139331;777;10
r;115986118;5941176;139331;777;10
r;115986119;5941177;139331;777;10
r;115986748;5941185;139331;777;10
r;115986791;5941187;139331;777;10
r;115986827;5941189;139331;777;10
r;115986886;5941194;139331;777;10
r;115986945;5941198;139331;777;10
r;115986986;5941199;139331;777;10
r;115986987;5941200;139331;777;10
r;115987168;5941209;139331;777;10
r;115987209;5941212;139331;777;10
r;115987210;5941213;139331;777;10
r;115988840;5941275;139331;777;10
r;115996100;5534759;139331;777;10
r;115996101;5941502;139331;777;10
r;115996318;5941511;139331;777;10
r;115996319;5941512;139331;777;10
r;115996359;5941513;139331;777;10
r;115996360;5941515;139331;777;10
r;115996410;5941516;139331;777;10
r;115996411;5941517;139331;777;10
r;115996467;5941520;139331;777;10
r;115996468;5941521;139331;777;10
r;115996506;5941522;139331;777;10
r;115996507;5941524;139331;777;10
r;115996545;5941526;139331;777;10
r;115996546;5941527;139331;777;10
r;115996629;5941528;139331;777;10
r;115996630;5941530;139331;777;10
r;115996738;5941535;139331;777;10
r;115996739;5941536;139331;777;10
r;115996927;5941542;139331;777;10
r;115996928;5941546;139331;777;10
r;115998524;5941603;139331;777;10
r;115998836;114835;139331;777;10
r;115998838;302359;139331;777;10
r;115999780;5941642;139331;777;10
r;116008676;5941974;139331;777;10
r;116011051;5942069;139331;777;10
r;116012094;5942102;139331;777;10
r;116012330;5942112;139331;777;10
r;116013215;5942140;139331;777;10
r;116014603;5942191;139331;777;10
r;116015469;5942221;139331;777;10
r;116020114;5942384;139331;777;10
r;116025371;5942563;139331;777;10
r;116029596;5942758;139331;777;10
r;116035317;133798;139331;777;10
r;116035319;5942963;139331;777;10
r;116036168;152692;139331;777;10
r;116039139;5943072;139331;777;10
r;116041839;5943191;139331;777;10
r;116044838;5943289;139331;777;10
r;116044903;5943294;139331;777;10
r;116048932;5943421;139331;777;10
r;116053116;5943525;139331;777;10
r;116053409;272730;139331;777;10
r;116053410;5943536;139331;777;10
r;116054589;5943561;139331;777;10
r;116070611;5943575;139331;777;10
r;116070707;5943580;139331;777;10
r;116071421;5943602;139331;777;10
r;116072196;5943623;139331;777;10
r;116072731;5943645;139331;777;10
r;116156880;5945756;139331;777;10
r;117204219;5985959;139331;777;10
r;117302162;5988802;139331;777;10
r;117816980;5994227;139331;777;10
r;117816981;5994228;139331;777;10
r;118137352;6002939;139331;777;10
r;118179190;6003662;139331;777;10
r;118845527;6064911;139331;777;10
r;118848767;6064962;139331;777;10
r;118848768;88024;139331;777;10
r;118859057;6065251;139331;777;10
r;119010579;6069502;139331;777;10
r;119014879;6069580;139331;777;10
r;119033522;6070009;139331;777;10
r;119047576;6070172;139331;777;10
r;119047577;6070173;139331;777;10
r;122089719;1830821;139331;777;10
r;122089720;6595013;139331;777;10
r;122162536;281497;139331;777;10
r;122162538;252915;139331;777;10
r;122647894;264161;139331;777;10
r;122660446;6686113;139331;777;10
r;122660447;267324;139331;777;10
r;122798364;268769;139331;777;10
r;220588629;9950835;139331;777;10
r;220588628;9950834;139331;777;10
r;219961193;9938305;139331;777;10
r;190254074;275860;139331;777;10
r;190852187;8879704;139331;777;10
r;209762081;9211147;139331;777;10
r;209788974;9212612;139331;777;10
r;214122575;401949;139331;777;10
r;214326578;3244792;139331;777;10
r;214326579;5905923;139331;777;10
r;216907906;9644811;139331;777;10
r;217354505;84586;139331;777;10
r;220848722;9959309;139331;777;10
r;222304553;9993129;139331;777;10
r;222304554;9958322;139331;777;10
r;222440472;2415514;139331;777;10
r;231658898;10069350;139331;777;10
r;231751246;5534855;139331;777;10
r;231751247;312170;139331;777;10
r;231751248;433241;139331;777;10
r;231751249;411264;139331;777;10
r;231771534;2952654;139331;777;10
r;233132005;10094278;139331;777;10
r;233515264;10097839;139331;777;10
r;233577985;174987;139331;777;10
r;234133790;10107322;139331;777;10
r;234717057;10129881;139331;777;10
r;234717058;10129882;139331;777;10
r;235488216;10138290;139331;777;10
r;236253213;10145535;139331;777;10
r;238567203;10178031;139331;777;10
r;239179651;10180022;139331;777;10
r;240916809;30472;139331;777;10
r;240916810;66372;139331;777;10
r;240916811;56362;139331;777;10
r;240916812;136284;139331;777;10
r;240916813;191712;139331;777;10
r;240916814;9634975;139331;777;10
r;240916815;146823;139331;777;10
r;241116082;64659;139331;777;10
r;241116636;10186467;139331;777;10
r;255054053;10384978;139331;777;10
r;243726398;9944050;139331;777;10
r;243726399;5984508;139331;777;10
r;243726400;9943995;139331;777;10
r;243726401;10197304;139331;777;10
r;243761567;10197384;139331;777;10
r;243761568;10197385;139331;777;10
r;276860247;26516;139331;777;10
r;254931000;10384478;139331;777;10
r;256126009;124372;139331;777;10
r;276893967;10968722;139331;777;10
r;256067604;2534686;139331;777;10
r;275788985;10753856;139331;777;10
r;254931124;9938299;139331;777;10
r;249793431;15734;139331;777;10
r;251605974;10324571;139331;777;10
r;275859183;10955176;139331;777;10
r;252796106;10328534;139331;777;10
r;252891878;10334703;139331;777;10
r;252983140;10335731;139331;777;10
r;253007729;10336027;139331;777;10
r;254158464;10327158;139331;777;10
r;254351422;2433159;139331;777;10
r;256044693;10433110;139331;777;10
r;256044694;10433111;139331;777;10
r;256044695;10433112;139331;777;10
r;256044696;10433113;139331;777;10
r;256044697;10433114;139331;777;10
r;262534415;273388;139331;777;10
r;262534416;273389;139331;777;10
r;262534417;10526140;139331;777;10
r;263059529;10555719;139331;777;10
r;263466475;10578840;139331;777;10
r;263467226;10578857;139331;777;10
r;263917535;2578877;139331;777;10
r;264262703;10597633;139331;777;10
r;264307894;48744;139331;777;10
r;264395751;10601676;139331;777;10
r;266400217;10617803;139331;777;10
r;267263052;5984109;139331;777;10
r;267263053;640812;139331;777;10
r;268368317;10730558;139331;777;10
r;268422512;95219;139331;777;10
r;268685096;10741811;139331;777;10
r;268860073;10746009;139331;777;10
r;269977231;10791872;139331;777;10
r;270099850;10777111;139331;777;10
r;270287268;2528184;139331;777;10
r;270287270;10824885;139331;777;10
r;270287273;10825010;139331;777;10
r;270408362;10830178;139331;777;10
r;270408384;32207;139331;777;10
r;271354649;10842301;139331;777;10
r;271839441;10849893;139331;777;10
r;272254438;10369358;139331;777;10
r;272485077;10867794;139331;777;10
r;273265792;10898736;139331;777;10
r;273729653;87987;139331;777;10
r;273729654;173170;139331;777;10
r;273729998;10597151;139331;777;10
r;273730783;15399;139331;777;10
r;273730784;10906507;139331;777;10
r;274494851;10554352;139331;777;10
r;274518622;10916995;139331;777;10
r;274521202;10917035;139331;777;10
r;274521553;10917043;139331;777;10
r;274523952;10917081;139331;777;10
r;274523997;10917082;139331;777;10
r;274652953;10920762;139331;777;10
r;274652955;1316;139331;777;10
r;274823201;10929618;139331;777;10
r;275239036;2534809;139331;777;10
r;275239037;10936255;139331;777;10
r;277239922;2519596;139331;777;10
r;277542152;10989484;139331;777;10
r;277542355;10989488;139331;777;10
r;277542357;10989489;139331;777;10
r;277542359;31488;139331;777;10
r;277543493;10989509;139331;777;10
r;277544918;10989522;139331;777;10
r;277544920;10989523;139331;777;10
r;277544922;10989524;139331;777;10
r;277544924;10989525;139331;777;10
r;277545151;10989526;139331;777;10
r;277549013;2401026;139331;777;10
r;277701751;10992038;139331;777;10
r;277701752;10992039;139331;777;10
r;277701753;10992040;139331;777;10
r;278377791;11004739;139331;777;10
r;279509928;11029070;139331;777;10
r;279509960;11029071;139331;777;10
r;279510024;11029072;139331;777;10
r;280817331;11076624;139331;777;10
r;280891799;11077646;139331;777;10
r;280891800;11077647;139331;777;10
r;280891801;11077648;139331;777;10
r;281773094;11104840;139331;777;10
r;281830551;11105595;139331;777;10
r;281974906;11107549;139331;777;10
r;281999878;11107831;139331;777;10
r;281999879;11107832;139331;777;10
r;281999880;11107833;139331;777;10
r;282006983;11107937;139331;777;10
r;282013158;11108005;139331;777;10
r;282179860;11117794;139331;777;10
r;282745081;11130089;139331;777;10
r;282749060;11130152;139331;777;10
r;282749062;11130153;139331;777;10
r;282749150;11130154;139331;777;10
r;282749152;11130155;139331;777;10
r;282749240;11130156;139331;777;10
r;282749242;11130157;139331;777;10
r;282826323;11131487;139331;777;10
r;283186456;11137947;139331;777;10
r;285044614;11160182;139331;777;10
r;285164347;11160477;139331;777;10
r;285164348;11160475;139331;777;10
r;285164349;11160462;139331;777;10
r;285164350;11160478;139331;777;10
r;285232812;11160535;139331;777;10
r;285692080;11161736;139331;777;10
r;285856825;11172932;139331;777;10
r;288393675;11253434;139331;777;10
r;291275785;5943456;139331;777;10
r;291407461;11361518;139331;777;10
r;291407462;11361519;139331;777;10
r;291749273;119096;139331;777;10
r;291980203;120443;139331;777;10
r;291980204;85991;139331;777;10
r;292087226;5905594;139331;777;10
r;292251493;89301;139331;777;10
r;292359730;210907;139331;777;10
r;292359731;137501;139331;777;10
r;292359810;11146949;139331;777;10
r;292386050;11388300;139331;777;10
r;292535858;75317;139331;777;10
r;292699632;111062;139331;777;10
r;292705720;11394486;139331;777;10
r;292705721;11394487;139331;777;10
r;292731278;11394721;139331;777;10
r;292799336;9986360;139331;777;10
r;292923572;67578;139331;777;10
r;293015107;121771;139331;777;10
r;293015869;97910;139331;777;10
r;293396083;11409311;139331;777;10
r;293506454;5519383;139331;777;10
r;293602241;5561451;139331;777;10
r;293605373;11413228;139331;777;10
r;295203316;5898660;139331;777;10
r;295206569;5899450;139331;777;10
r;295207943;11494194;139331;777;10
r;295207944;11494195;139331;777;10
r;295213597;5904702;139331;777;10
r;295325397;5899673;139331;777;10
r;295357644;9668401;139331;777;10
r;295546851;5785697;139331;777;10
r;295548225;10778421;139331;777;10
r;295570844;11503356;139331;777;10
r;295743711;5943082;139331;777;10
r;295743712;5943084;139331;777;10
r;295746207;274899;139331;777;10
r;296417785;11543800;139331;777;10
r;296417886;11543802;139331;777;10
r;296417914;11543803;139331;777;10
r;296417960;11543805;139331;777;10
r;296417977;5902114;139331;777;10
r;296417989;10830186;139331;777;10
r;296418047;11543806;139331;777;10
r;296418080;11543808;139331;777;10
r;296418081;11543809;139331;777;10
r;296418246;5900649;139331;777;10
r;296418291;11543814;139331;777;10
r;296418368;257700;139331;777;10
r;296418369;11543815;139331;777;10
r;296418456;11543816;139331;777;10
r;296418522;11543817;139331;777;10
r;296418609;5941576;139331;777;10
r;296418662;5941487;139331;777;10
r;296418677;5941492;139331;777;10
r;296418678;5941494;139331;777;10
r;296418694;11543818;139331;777;10
r;296418695;11543819;139331;777;10
r;296418846;5941500;139331;777;10
r;296418847;5941501;139331;777;10
r;296418880;11543820;139331;777;10
r;296418972;5943044;139331;777;10
r;296418995;5899883;139331;777;10
r;296419003;11543821;139331;777;10
r;296419127;11543822;139331;777;10
r;296419158;11543823;139331;777;10
r;296419284;11543824;139331;777;10
r;296419395;5942213;139331;777;10
r;296419403;11543826;139331;777;10
r;296419464;142045;139331;777;10
r;296419472;5538536;139331;777;10
r;296419488;11543827;139331;777;10
r;296419643;11543828;139331;777;10
r;296419644;11543829;139331;777;10
r;296419735;11543830;139331;777;10
r;296419803;11543831;139331;777;10
r;296419831;305322;139331;777;10
r;296419917;11543832;139331;777;10
r;296419918;11543833;139331;777;10
r;296420015;11543834;139331;777;10
r;296420039;10830181;139331;777;10
r;296420043;360007;139331;777;10
r;296420115;49065;139331;777;10
r;296420121;11543836;139331;777;10
r;296420200;398097;139331;777;10
r;296420359;11543839;139331;777;10
r;296420492;11543840;139331;777;10
r;296420493;11543841;139331;777;10
r;296420585;11543842;139331;777;10
r;296420605;5540456;139331;777;10
r;296420607;11543843;139331;777;10
r;296420677;141001;139331;777;10
r;296420698;5562952;139331;777;10
r;296420711;5627887;139331;777;10
r;296420798;5540471;139331;777;10
r;296420804;10830183;139331;777;10
r;296420808;129285;139331;777;10
r;296420821;5943043;139331;777;10
r;296421207;5942960;139331;777;10
r;296421229;5538709;139331;777;10
r;296421230;11543845;139331;777;10
r;296421404;418337;139331;777;10
r;296421449;5900944;139331;777;10
r;296421468;118456;139331;777;10
r;296421484;5942267;139331;777;10
r;296421506;5880048;139331;777;10
r;296421637;8568287;139331;777;10
r;296421638;11543847;139331;777;10
r;296421703;11543848;139331;777;10
r;296421784;5898957;139331;777;10
r;296421853;11543849;139331;777;10
r;296421875;4811;139331;777;10
r;296421944;11543850;139331;777;10
r;296421964;10830182;139331;777;10
r;296422006;11543852;139331;777;10
r;296422100;11543853;139331;777;10
r;296422182;11543854;139331;777;10
r;296422386;11543855;139331;777;10
r;296422387;11543856;139331;777;10
r;296422449;11543857;139331;777;10
r;296422628;399681;139331;777;10
r;296422633;1922316;139331;777;10
r;296422640;299568;139331;777;10
r;296422646;62192;139331;777;10
r;296422647;44690;139331;777;10
r;296422654;73249;139331;777;10
r;296422657;2927359;139331;777;10
r;296422658;1922424;139331;777;10
r;296422664;290085;139331;777;10
r;296422665;175124;139331;777;10
r;296422666;48947;139331;777;10
r;296422667;918;139331;777;10
r;296422677;133829;139331;777;10
r;296422682;248546;139331;777;10
r;296422683;311104;139331;777;10
r;296422711;147473;139331;777;10
r;296422712;28435;139331;777;10
r;296422713;11543858;139331;777;10
r;296422750;26363;139331;777;10
r;296422755;120558;139331;777;10
r;296422760;5217;139331;777;10
r;296422775;110309;139331;777;10
r;296422778;125217;139331;777;10
r;296422779;303449;139331;777;10
r;296422784;2010897;139331;777;10
r;296422804;69030;139331;777;10
r;296422887;308265;139331;777;10
r;296470822;198990;139331;777;10
r;297119815;33926;139331;777;10
r;297119816;36333;139331;777;10
r;297242050;147138;139331;777;10
r;297242051;140039;139331;777;10
r;297298271;95277;139331;777;10
r;297428952;11574504;139331;777;10
r;297428954;11574505;139331;777;10
r;297831607;11585859;139331;777;10
r;297831608;11591002;139331;777;10
r;300279951;11697423;139331;777;10
r;300279952;11697424;139331;777;10
r;301783897;214970;139331;777;10
r;301783898;8961916;139331;777;10
r;301783899;8959203;139331;777;10
r;301783900;8959204;139331;777;10
r;302288247;138821;139331;777;10
r;302350472;11776416;139331;777;10
r;303830822;2492636;139331;777;10
r;304725611;11812357;139331;777;10
r;304742853;5558673;139331;777;10
r;305035814;56476;139331;777;10
r;305035815;10936744;139331;777;10
r;305035816;10936746;139331;777;10
r;305263092;11161194;139331;777;10
r;305640524;11828194;139331;777;10
r;305640525;11828195;139331;777;10
r;305651687;5943027;139331;777;10
r;305659339;5940474;139331;777;10
r;305975221;11833360;139331;777;10
r;306203217;6017400;139331;777;10
r;308013785;146238;139331;777;10
r;308063249;163442;139331;777;10
r;308063261;438315;139331;777;10
r;308063262;233925;139331;777;10
r;308822628;5990876;139331;777;10
r;308120687;43398;139331;777;10
r;308639723;278284;139331;777;10
r;311068014;20238;139331;777;10
r;312861358;12005373;139331;777;10
r;312872708;12005590;139331;777;10
r;312928019;12006529;139331;777;10
r;312928118;286572;139331;777;10
r;312928119;60639;139331;777;10
r;312940217;11360326;139331;777;10
r;313419021;12033500;139331;777;10
r;314538684;1730974;139331;777;10
r;316315181;6064901;139331;777;10
r;316350727;4317421;139331;777;10
r;316350728;4317422;139331;777;10
r;316350729;2933302;139331;777;10
r;318215374;12261789;139331;777;10
r;318336296;2548721;139331;777;10
r;318935068;12278369;139331;777;10
r;318935164;5899893;139331;777;10
r;318954442;12278683;139331;777;10
r;319035066;12283179;139331;777;10
r;319035067;2928746;139331;777;10
r;319035068;2485621;139331;777;10
r;319035069;12283180;139331;777;10
r;319035070;420346;139331;777;10
r;319035071;12283181;139331;777;10
r;319035072;11453722;139331;777;10
r;319536281;12302087;139331;777;10
r;319836319;5900381;139331;777;10
r;319836330;12313508;139331;777;10
r;322179296;29935;139331;777;10
r;323118940;12618038;139331;777;10
r;325334021;10605117;139331;777;10
r;325366231;280158;139331;777;10
r;325366232;280159;139331;777;10
r;325366233;280160;139331;777;10
r;325366823;5940525;139331;777;10
r;325366824;106204;139331;777;10
r;325367208;3446338;139331;777;10
r;325368161;111010;139331;777;10
r;325368244;303166;139331;777;10
r;325368317;1922284;139331;777;10
r;325368383;1922286;139331;777;10
r;325897861;36556;139331;777;10
r;326019365;10316352;139331;777;10
r;326585406;12721902;139331;777;10
r;327535870;277014;139331;777;10
r;327536372;60331;139331;777;10
r;327536373;169822;139331;777;10
r;327536374;168653;139331;777;10
r;327536375;169823;139331;777;10
r;327536376;12765479;139331;777;10
r;327536631;98166;139331;777;10
r;327690573;271568;139331;777;10
r;327724347;45224;139331;777;10
r;329181207;138467;139331;777;10
r;330779808;12888856;139331;777;10
r;331433434;309656;139331;777;10
r;331433744;154465;139331;777;10
r;331563116;3340701;139331;777;10
r;331912601;12961399;139331;777;10
r;331912603;12961400;139331;777;10
r;332084795;12977200;139331;777;10
r;333964283;12991686;139331;777;10
r;334017431;5898566;139331;777;10
r;335057926;13093976;139331;777;10
r;335217938;168624;139331;777;10
r;335217940;115115;139331;777;10
r;335219240;13103258;139331;777;10
r;335219241;13103259;139331;777;10
r;335219242;13103260;139331;777;10
r;337608062;13270005;139331;777;10
r;337962870;5904446;139331;777;10
r;338334777;418777;139331;777;10
r;338768781;13338054;139331;777;10
r;338768782;13338055;139331;777;10
r;340168245;13405945;139331;777;10
r;340168246;13405946;139331;777;10
r;341237305;13447173;139331;777;10
r;342468087;13519462;139331;777;10
r;342468935;5942212;139331;777;10
r;342469020;124608;139331;777;10
r;342948545;2341471;139331;777;10
r;342992614;13537711;139331;777;10
r;343068127;34129;139331;777;10
r;343068128;6324517;139331;777;10
r;343452479;10525064;139331;777;10
r;344246095;5921575;139331;777;10
r;344246096;13590685;139331;777;10
r;345359987;13627429;139331;777;10
r;346946366;43445;139331;777;10
r;346954349;2423596;139331;777;10
r;347970466;13709480;139331;777;10
r;348283919;10787664;139331;777;10
r;348937612;234101;139331;777;10
r;349107481;133465;139331;777;10
r;350325175;12302227;139331;777;10
r;350327667;13865442;139331;777;10
r;352959168;14002467;139331;777;10
r;353517164;14012861;139331;777;10
r;354210255;366423;139331;777;10
r;354231974;17734;139331;777;10
r;354231975;10105721;139331;777;10
r;354914954;14047023;139331;777;10
r;354990074;10519259;139331;777;10
r;355100979;567245;139331;777;10
r;355100980;14048499;139331;777;10
r;356664517;14096718;139331;777;10
r;357232815;12785309;139331;777;10
r;357783806;14124506;139331;777;10
r;357830830;409888;139331;777;10
r;358459905;14136093;139331;777;10
r;358701520;2693578;139331;777;10
r;358701544;10052302;139331;777;10
r;358701599;1922285;139331;777;10
r;358701629;82372;139331;777;10
r;358734743;11776234;139331;777;10
r;358929317;14146306;139331;777;10
r;359280380;14155954;139331;777;10
r;359365723;14156272;139331;777;10
r;359365724;14156273;139331;777;10
r;359365725;11973323;139331;777;10
r;359365839;14156275;139331;777;10
r;359365840;14156276;139331;777;10
r;359365841;14156277;139331;777;10
r;359365842;14156278;139331;777;10
r;359766486;261;139331;777;10
r;359766561;2927414;139331;777;10
r;359766620;38311;139331;777;10
r;359766621;296151;139331;777;10
r;359766622;150296;139331;777;10
r;359796253;137202;139331;777;10
r;359833912;14163424;139331;777;10
r;359905710;14165175;139331;777;10
r;360028118;14167514;139331;777;10
r;360028120;14167515;139331;777;10
r;360398740;137075;139331;777;10
r;360568369;416844;139331;777;10
r;360971005;11967;139331;777;10
r;360971052;14221648;139331;777;10