
r;285040820;139331;106180;35;10
r;285040821;139331;100835;35;11
r;283372972;139331;251232;35;15
r;283372974;139331;122299;35;15
r;283372973;139331;73890;35;16
r;283131357;139331;44775;35;25
r;283131358;139331;63281;35;25
r;283131359;139331;130427;35;25
r;283131403;139331;3674;35;25
r;283131404;139331;117095;35;25
r;8531525;139331;228972;35;29
r;29119177;139331;112609;35;34
r;283131356;139331;76561;35;35
r;29119174;139331;8839;35;39
r;29119175;139331;61407;35;45
r;29119176;139331;103047;35;47
r;252905;139331;113183;35;53
r;237306;139331;133542;35;54
r;231099;139331;106833;35;60
r;237599;139331;120949;35;60
r;283132327;139331;170112;35;60
r;241063;139331;107150;35;65
r;283131608;139331;92378;35;75
r;231396;139331;140902;35;80
r;228570;139331;63936;35;106
r;228571;139331;142736;35;110
r;227504;139331;143981;35;170
r;34508665;139331;54059;35;285