e;139331;'voile';1;1478
e;143256;'léger';1;920
e;31158;'opaque';1;98
e;15196;'blanc';1;4304
e;144718;'fin';1;1720
e;1384;'vivant';1;644
e;157609;'hissée';1;50
e;55342;'épais';1;278
e;330215;'bilatéralement symétrique';1;22
e;122864;'mort';1;6404
e;32251;'blanche';1;1016
e;70304;'gonflé';1;128
e;95404;'solide';1;796
e;41485;'impénétrable';1;102
e;53683;'arachnéen';1;52
e;41224;'transparent';1;398
e;10314012;'=heterotroph=';1;0
e;99220;'hétérotrophe';1;62