
r;1566589;38245;139331;666;1
r;1655276;14437;139331;666;1
r;1675599;135630;139331;666;1
r;1675631;94212;139331;666;1
r;1678662;90864;139331;666;1
r;1682519;142736;139331;666;1
r;1768925;105326;139331;666;1
r;1783532;142700;139331;666;1
r;1783546;229953;139331;666;1
r;1790021;30754;139331;666;1
r;1987740;82176;139331;666;1
r;2187709;30171;139331;666;1
r;3220283;19228;139331;666;1
r;10675825;160347;139331;666;1
r;13435158;161165;139331;666;1
r;1524522;31481;139331;666;2
r;1673514;55315;139331;666;2
r;1787278;230095;139331;666;2
r;1787726;97170;139331;666;2
r;1825570;92091;139331;666;2
r;1839219;124220;139331;666;2
r;3220263;179481;139331;666;2
r;3220310;52098;139331;666;2
r;4017139;25346;139331;666;2
r;1791577;110852;139331;666;3
r;3220191;77949;139331;666;3