
r;1532485;213393;139331;0;-30
r;8799693;15971;139331;0;0
r;10675756;160347;139331;0;1
r;82202410;141272;139331;0;1
r;122711817;6427927;139331;0;1
r;122755308;6422322;139331;0;1
r;280121880;2407950;139331;0;1
r;301411063;6336593;139331;0;1
r;298889767;6295764;139331;0;1
r;299064236;6298629;139331;0;1
r;299562245;6307510;139331;0;1
r;301744320;6351685;139331;0;1
r;301813217;6357172;139331;0;1
r;302204518;6366515;139331;0;1
r;302410596;6367219;139331;0;1
r;304481981;6387436;139331;0;1
r;305135382;6399839;139331;0;1
r;305144280;6400503;139331;0;1
r;305210259;6401749;139331;0;1
r;318711289;12267775;139331;0;1
r;340941451;6293869;139331;0;1
r;349118748;6296895;139331;0;1
r;349221324;6415051;139331;0;1
r;115771064;290964;139331;0;2
r;31362709;142381;139331;0;3
r;31362712;96219;139331;0;3
r;31362718;30584;139331;0;3
r;31362723;81819;139331;0;3
r;31362729;105426;139331;0;3
r;31362732;57287;139331;0;3
r;31362735;6487;139331;0;3
r;31362738;11343;139331;0;3
r;31362741;33812;139331;0;3
r;31362756;140148;139331;0;3
r;31362759;143079;139331;0;3
r;82350633;41019;139331;0;3
r;86276678;3225315;139331;0;3
r;115778230;117095;139331;0;3
r;122741297;6424127;139331;0;3
r;9993110;189893;139331;0;4
r;9991005;52045;139331;0;4
r;9985259;1416;139331;0;4
r;10010180;161444;139331;0;4
r;10015073;212816;139331;0;4
r;10049879;251252;139331;0;4
r;29164478;1775920;139331;0;4
r;31319425;170113;139331;0;4
r;31319449;270235;139331;0;4
r;31322102;320847;139331;0;4
r;82350660;179493;139331;0;4
r;86276681;269600;139331;0;4
r;285619446;178997;139331;0;4
r;342541023;13519460;139331;0;4
r;31319428;90097;139331;0;5
r;31362706;146051;139331;0;5
r;31362753;35671;139331;0;5
r;55095914;2599292;139331;0;5
r;55095935;156275;139331;0;5
r;75998148;143413;139331;0;5
r;115779946;52499;139331;0;5
r;117822724;83740;139331;0;5
r;117822725;5992431;139331;0;5
r;277928512;10989488;139331;0;5
r;305471279;6410289;139331;0;5
r;305681233;6416392;139331;0;5
r;8869993;124740;139331;0;6
r;31319431;45953;139331;0;6
r;113278150;5810010;139331;0;6
r;264452032;10595109;139331;0;6
r;301733706;6350190;139331;0;6
r;302034123;6358550;139331;0;6
r;302212850;11774087;139331;0;6
r;53331836;2402130;139331;0;8
r;55916244;2473430;139331;0;8
r;115087211;5903527;139331;0;8
r;115097124;5900111;139331;0;8
r;115097161;5900108;139331;0;8
r;115098675;5899774;139331;0;8
r;115099276;5899647;139331;0;8
r;227644190;10018853;139331;0;8
r;263703016;10578949;139331;0;8
r;263705776;10577974;139331;0;8
r;30036373;1839441;139331;0;9
r;114024182;5835616;139331;0;9
r;114757829;5884606;139331;0;9
r;115093295;5901370;139331;0;9
r;115096180;5900380;139331;0;9
r;115104919;5898315;139331;0;9
r;15454402;73685;139331;0;10
r;15456863;151709;139331;0;10
r;15456865;139879;139331;0;10
r;16260332;298831;139331;0;10
r;30045022;1840111;139331;0;10
r;53016273;2386118;139331;0;10
r;114748799;5894211;139331;0;10
r;115846151;5919597;139331;0;10
r;116310961;5943038;139331;0;10
r;116317406;5941258;139331;0;10
r;116317995;5941098;139331;0;10
r;122796242;6693794;139331;0;10
r;285039170;253508;139331;0;10
r;295308490;11494194;139331;0;10
r;300183687;6324882;139331;0;10
r;330763163;12882149;139331;0;10
r;52236355;2378552;139331;0;11
r;116316105;5941603;139331;0;11
r;329842963;12882150;139331;0;11
r;329842979;12882148;139331;0;11
r;329843000;12882147;139331;0;11
r;329843024;12882151;139331;0;11
r;329844522;12882181;139331;0;11
r;329845338;12882215;139331;0;11
r;329845378;12882027;139331;0;11
r;54668380;2428205;139331;0;12
r;55126085;2436012;139331;0;12
r;312935479;12006516;139331;0;12
r;117446428;306376;139331;0;13
r;55770329;2465940;139331;0;14
r;109830154;5553216;139331;0;14
r;117866403;5992890;139331;0;14
r;122796230;6693793;139331;0;14
r;15431353;102206;139331;0;15
r;15445088;3674;139331;0;15
r;31319453;1663122;139331;0;15
r;97131867;139403;139331;0;15
r;97322516;114464;139331;0;15
r;97356180;48539;139331;0;15
r;97364846;89633;139331;0;15
r;98276898;88538;139331;0;15
r;255398175;10384478;139331;0;15
r;308642971;11957439;139331;0;15
r;97338835;86502;139331;0;16
r;97446088;596081;139331;0;16
r;97658537;439919;139331;0;16
r;126485806;153440;139331;0;16
r;11021351;101699;139331;0;17
r;11024465;47162;139331;0;17
r;11026152;253509;139331;0;17
r;82350638;2373094;139331;0;18
r;82350641;2421595;139331;0;18
r;121847189;6538926;139331;0;18
r;121864300;6537397;139331;0;18
r;121864328;6537395;139331;0;18
r;263167872;10556355;139331;0;18
r;121859779;6537791;139331;0;19
r;121864314;6537396;139331;0;19
r;121848602;6538803;139331;0;20
r;274966344;10928910;139331;0;20
r;310011286;600088;139331;0;20
r;310011705;600080;139331;0;20
r;310104932;591902;139331;0;20
r;310175211;455504;139331;0;20
r;776113;136191;139331;0;21
r;919006;92471;139331;0;21
r;12205043;17186;139331;0;21
r;29311487;26477;139331;0;21
r;59510870;146162;139331;0;21
r;61638593;2461743;139331;0;21
r;81936860;218888;139331;0;21
r;96662399;197052;139331;0;21
r;96926404;157618;139331;0;21
r;97658521;157617;139331;0;21
r;98711884;241958;139331;0;21
r;278471034;2401026;139331;0;21
r;1012935;81613;139331;0;22
r;1020569;78841;139331;0;22
r;1030303;2837;139331;0;22
r;11003924;169875;139331;0;22
r;30968781;55507;139331;0;22
r;109035260;5521167;139331;0;22
r;846387;127671;139331;0;23
r;991262;63307;139331;0;23
r;1051185;140902;139331;0;23
r;15385341;49318;139331;0;23
r;31121139;46517;139331;0;23
r;31362715;139467;139331;0;23
r;31362744;91356;139331;0;23
r;31403404;60361;139331;0;23
r;31488700;155699;139331;0;23
r;63922728;2487039;139331;0;23
r;63922819;2448848;139331;0;23
r;82350644;39003;139331;0;23
r;82350647;12970;139331;0;23
r;82350657;46795;139331;0;23
r;82350663;179133;139331;0;23
r;82350666;5830;139331;0;23
r;82350671;2555640;139331;0;23
r;82350674;74466;139331;0;23
r;82350681;28640;139331;0;23
r;82350684;2378392;139331;0;23
r;82350690;13616;139331;0;23
r;82350693;48361;139331;0;23
r;82350696;2411072;139331;0;23
r;82352951;1376;139331;0;23
r;98711887;98125;139331;0;23
r;98711888;168665;139331;0;23
r;1006890;80703;139331;0;24
r;9632556;31481;139331;0;24
r;12312307;142736;139331;0;24
r;15296558;143462;139331;0;24
r;15302532;73890;139331;0;24
r;15341254;242066;139331;0;24
r;30932198;92378;139331;0;24
r;59253856;131869;139331;0;24
r;82350653;141942;139331;0;24
r;97447912;595071;139331;0;24
r;98711890;1745425;139331;0;24
r;277363559;10986292;139331;0;24
r;274827922;146105;139331;0;25
r;283259603;11146928;139331;0;25
r;295204517;5899130;139331;0;25
r;345574473;11136615;139331;0;25
r;345574480;174987;139331;0;25
r;352716536;253008;139331;0;25
r;361119696;14226921;139331;0;25
r;1042772;13610;139331;0;26
r;1690752;224586;139331;0;26
r;1762798;228848;139331;0;26
r;1768914;229313;139331;0;26
r;1975761;219271;139331;0;26
r;18116928;254637;139331;0;26
r;21120775;144222;139331;0;26
r;21997845;1157841;139331;0;26
r;21997853;91417;139331;0;26
r;21997855;1157843;139331;0;26
r;21997857;1157844;139331;0;26
r;21997859;356516;139331;0;26
r;30931554;92080;139331;0;26
r;31321133;60951;139331;0;26
r;34690832;171802;139331;0;26
r;59234999;116543;139331;0;26
r;84996265;1732788;139331;0;26
r;87486837;22467;139331;0;26
r;277546570;10989517;139331;0;26
r;277550718;10989669;139331;0;26
r;277555329;10989513;139331;0;26
r;280026453;11056332;139331;0;26
r;283918831;65524;139331;0;26
r;352716711;179488;139331;0;26
r;352716717;76065;139331;0;26
r;495623;64163;139331;0;27
r;792979;22120;139331;0;27
r;795609;142471;139331;0;27
r;1013646;28208;139331;0;27
r;9358920;27053;139331;0;27
r;9983705;143712;139331;0;27
r;11778387;325048;139331;0;27
r;21997847;1157842;139331;0;27
r;31173755;1926029;139331;0;27
r;31362750;52141;139331;0;27
r;54809757;43868;139331;0;27
r;98384701;98762;139331;0;27
r;98711889;121216;139331;0;27
r;98713282;150382;139331;0;27
r;327320367;12732279;139331;0;27
r;327320802;12730760;139331;0;27
r;776798;133563;139331;0;28
r;791364;61244;139331;0;28
r;795464;2827;139331;0;28
r;879534;29566;139331;0;28
r;1020574;150872;139331;0;28
r;1021282;111702;139331;0;28
r;1040229;7332;139331;0;28
r;1586447;217242;139331;0;28
r;1688293;188193;139331;0;28
r;1843693;105106;139331;0;28
r;3154068;123947;139331;0;28
r;3183149;270233;139331;0;28
r;9632575;123961;139331;0;28
r;12342586;45931;139331;0;28
r;13432606;148238;139331;0;28
r;14423809;107745;139331;0;28
r;14442432;431055;139331;0;28
r;15419628;112609;139331;0;28
r;15939010;439952;139331;0;28
r;21156120;94609;139331;0;28
r;21997861;369940;139331;0;28
r;31193007;148068;139331;0;28
r;31362747;48860;139331;0;28
r;53729740;42078;139331;0;28
r;59253855;2075;139331;0;28
r;59511981;1451;139331;0;28
r;81936981;213441;139331;0;28
r;98711885;31919;139331;0;28
r;98973025;142558;139331;0;28
r;1020193;63185;139331;0;29
r;3124028;252263;139331;0;29
r;3124230;212410;139331;0;29
r;9632561;102362;139331;0;29
r;9632573;33784;139331;0;29
r;9632583;187789;139331;0;29
r;10046649;262514;139331;0;29
r;11778425;182874;139331;0;29
r;11778463;30162;139331;0;29
r;12274479;61407;139331;0;29
r;18194833;270278;139331;0;29
r;50196310;2362906;139331;0;29
r;54833318;64998;139331;0;29
r;59515620;80897;139331;0;29
r;59523331;17968;139331;0;29
r;82818552;3303740;139331;0;29
r;97324182;142302;139331;0;29
r;106097027;35349;139331;0;29
r;106645395;5164695;139331;0;29
r;106836457;3449064;139331;0;29
r;296428580;11543858;139331;0;29
r;789031;141851;139331;0;30
r;856244;92665;139331;0;30
r;918996;88265;139331;0;30
r;926615;39692;139331;0;30
r;960935;8839;139331;0;30
r;1033203;8131;139331;0;30
r;1587172;217315;139331;0;30
r;1973100;241209;139331;0;30
r;2172030;247817;139331;0;30
r;9980299;81367;139331;0;30
r;10046628;119825;139331;0;30
r;11038078;160847;139331;0;30
r;12072884;331222;139331;0;30
r;12300932;139743;139331;0;30
r;13465555;105650;139331;0;30
r;15744293;15288;139331;0;30
r;25853698;1637826;139331;0;30
r;30963197;8485;139331;0;30
r;31321493;9894;139331;0;30
r;31362726;6910;139331;0;30
r;53741034;139292;139331;0;30
r;61046935;297763;139331;0;30
r;82350687;150826;139331;0;30
r;85324335;39565;139331;0;30
r;98472482;156330;139331;0;30
r;98711886;120623;139331;0;30
r;98844949;3911755;139331;0;30
r;310432003;456516;139331;0;30
r;640005;2662;139331;0;31
r;1532596;213396;139331;0;31
r;9059570;320821;139331;0;31
r;9632577;53673;139331;0;31
r;15453404;146367;139331;0;31
r;21128566;152534;139331;0;31
r;78339909;3232195;139331;0;31
r;82350678;225705;139331;0;31
r;98396016;218000;139331;0;31
r;98964728;2550549;139331;0;31
r;220114156;7648505;139331;0;31
r;236653910;10145535;139331;0;31
r;1532221;213373;139331;0;32
r;1533139;213432;139331;0;32
r;1618359;175115;139331;0;32
r;1926968;218001;139331;0;32
r;9361945;87633;139331;0;32
r;9632565;129413;139331;0;32
r;15457022;84319;139331;0;32
r;21997843;369750;139331;0;32
r;21997863;92374;139331;0;32
r;53739722;127569;139331;0;32
r;98112295;40067;139331;0;32
r;212302597;6766872;139331;0;32
r;82350699;290613;139331;0;33
r;282610398;11128001;139331;0;33
r;327320359;12732341;139331;0;33
r;935127;31721;139331;0;34
r;1532532;213394;139331;0;34
r;1684360;213454;139331;0;34
r;9632559;111350;139331;0;34
r;9632581;7467;139331;0;34
r;21108938;25484;139331;0;34
r;21116581;51528;139331;0;34
r;21143415;144086;139331;0;34
r;21160642;45179;139331;0;34
r;77013716;3183887;139331;0;34
r;93788250;145500;139331;0;34
r;327021806;12732283;139331;0;34
r;866998;70599;139331;0;35
r;1532478;213392;139331;0;35
r;1617756;128658;139331;0;35
r;2295998;146097;139331;0;35
r;2418247;250163;139331;0;35
r;2420385;246935;139331;0;35
r;3183153;270221;139331;0;35
r;9632558;118993;139331;0;35
r;9632563;61421;139331;0;35
r;11652034;44600;139331;0;35
r;14113709;314506;139331;0;35
r;21997849;95857;139331;0;35
r;28030949;1701784;139331;0;35
r;82332721;2434517;139331;0;35
r;88955818;2839;139331;0;35
r;180058376;6360131;139331;0;35
r;214287127;7053708;139331;0;35
r;360971617;14216074;139331;0;35
r;9632570;84412;139331;0;36
r;71566115;175117;139331;0;36
r;82350635;179481;139331;0;36
r;96605636;157677;139331;0;36
r;98694116;161165;139331;0;36
r;126194430;7786740;139331;0;36
r;283372587;86950;139331;0;36
r;1699228;115846;139331;0;38
r;9359105;45;139331;0;38
r;53035608;2387345;139331;0;38
r;61066422;2123288;139331;0;38
r;85324332;28697;139331;0;38
r;218632838;9798691;139331;0;38
r;442997;27994;139331;0;39
r;640007;69381;139331;0;39
r;1034363;137959;139331;0;39
r;8554125;156342;139331;0;39
r;9632567;156764;139331;0;39
r;61005874;2526982;139331;0;39
r;1909849;238130;139331;0;40
r;9632585;187790;139331;0;40
r;13459099;910;139331;0;40
r;29633255;1815454;139331;0;41
r;108810578;5519238;139331;0;41
r;919480;2901;139331;0;43
r;919581;148956;139331;0;43
r;1585038;54059;139331;0;43
r;9632579;79691;139331;0;43
r;61048053;158646;139331;0;43
r;95740577;2464375;139331;0;43
r;1555224;214873;139331;0;45
r;2180274;120728;139331;0;45
r;2516942;251386;139331;0;45
r;88952108;89754;139331;0;45
r;345990665;13639013;139331;0;45
r;49414199;2357127;139331;0;47
r;140324364;214225;139331;0;47
r;1552316;157237;139331;0;48
r;183652508;8786062;139331;0;50
r;217702995;9726969;139331;0;50
r;217706449;9726968;139331;0;50
r;218631872;9798690;139331;0;50
r;348895844;6358183;139331;0;50
r;1831465;157625;139331;0;51
r;2057158;214102;139331;0;51
r;2261352;133559;139331;0;51
r;2395073;80220;139331;0;51
r;2418807;257287;139331;0;51
r;2419767;254443;139331;0;51
r;2470929;257293;139331;0;51
r;2578121;174838;139331;0;51
r;2578584;168518;139331;0;51
r;9017085;218355;139331;0;51
r;11285563;248545;139331;0;51
r;12015133;329528;139331;0;51
r;13951379;269997;139331;0;51
r;15088489;82646;139331;0;51
r;15765454;124221;139331;0;51
r;15808448;438790;139331;0;51
r;85013347;26332;139331;0;51
r;301136215;246971;139331;0;51
r;219407;85748;139331;0;52
r;356767;63936;139331;0;52
r;411911;33171;139331;0;52
r;10709545;60588;139331;0;52
r;11242956;56865;139331;0;52
r;17695688;573061;139331;0;52
r;22244166;266459;139331;0;52
r;29869162;1848326;139331;0;52
r;154209408;7648497;139331;0;52
r;81928;113743;139331;0;53
r;1659030;14437;139331;0;53
r;1973720;219326;139331;0;53
r;2255967;77949;139331;0;53
r;2451723;224718;139331;0;53
r;29848815;1852658;139331;0;53
r;83449041;3314148;139331;0;53
r;95761755;4006889;139331;0;53
r;383282;154698;139331;0;54
r;2043913;20479;139331;0;54
r;2434142;251553;139331;0;54
r;2454288;83222;139331;0;54
r;31191387;421268;139331;0;54
r;1717964;89753;139331;0;55
r;1850481;232486;139331;0;55
r;2300967;130544;139331;0;55
r;15939007;439956;139331;0;55
r;25224062;1566519;139331;0;55
r;27948008;1694122;139331;0;55
r;28463906;1732716;139331;0;55
r;52467760;2518429;139331;0;55
r;52470404;2512783;139331;0;55
r;75027643;3086945;139331;0;55
r;106498073;5251110;139331;0;55
r;211866405;8854315;139331;0;55
r;1532432;143800;139331;0;56
r;2211384;473;139331;0;56
r;2212646;175093;139331;0;56
r;2408906;169809;139331;0;56
r;9357653;77671;139331;0;56
r;17201321;568143;139331;0;56
r;28876999;1754876;139331;0;56
r;29869164;1848325;139331;0;56
r;412629;9664;139331;0;57
r;1815443;24846;139331;0;57
r;1832106;19228;139331;0;57
r;9679148;175836;139331;0;57
r;17695644;573066;139331;0;57
r;20670952;958597;139331;0;57
r;28463886;1732715;139331;0;57
r;29209513;1778241;139331;0;57
r;80010044;3268249;139331;0;57
r;154257096;7304692;139331;0;57
r;387394;39621;139331;0;58
r;2222506;107093;139331;0;58
r;10526707;119686;139331;0;58
r;10577562;120949;139331;0;58
r;106498077;5251109;139331;0;58
r;1673;78218;139331;0;59
r;96785;17320;139331;0;59
r;427624;140395;139331;0;59
r;1727830;226262;139331;0;59
r;11242826;233947;139331;0;59
r;13626621;151710;139331;0;59
r;17123415;567593;139331;0;59
r;18923377;627073;139331;0;59
r;19552711;724345;139331;0;59
r;27900771;1688961;139331;0;59
r;29916246;1832250;139331;0;59
r;274028;158925;139331;0;60
r;363456;86007;139331;0;60
r;384349;126067;139331;0;60
r;1530572;62108;139331;0;60
r;1699028;6745;139331;0;60
r;1815453;168592;139331;0;60
r;1815582;219406;139331;0;60
r;1986097;223481;139331;0;60
r;2076953;3738;139331;0;60
r;2198412;222725;139331;0;60
r;2260841;168591;139331;0;60
r;27281212;1655829;139331;0;60
r;29869168;1848324;139331;0;60
r;98856614;4330976;139331;0;60
r;128674;153067;139331;0;61
r;22324833;261644;139331;0;61
r;83451934;2366563;139331;0;61
r;95857528;168639;139331;0;61
r;99304322;438310;139331;0;62
r;1850830;233884;139331;0;63
r;1966326;151987;139331;0;63
r;2029072;105326;139331;0;63
r;82350650;78398;139331;0;63
r;29903717;1841518;139331;0;64
r;75027658;3086946;139331;0;65
r;352061471;13984366;139331;0;65
r;1854921;223192;139331;0;68
r;3171064;61452;139331;0;68
r;29869172;1848323;139331;0;68
r;1546194;25346;139331;0;69
r;30431207;1885611;139331;0;69
r;62511;146805;139331;0;70
r;193615;133542;139331;0;70
r;364721;2170;139331;0;70
r;1604653;216143;139331;0;70
r;1669983;286;139331;0;70
r;1815597;219327;139331;0;70
r;1884028;235479;139331;0;70
r;2409757;253634;139331;0;70
r;2576107;175138;139331;0;70
r;28437157;141364;139331;0;70
r;29848819;1852657;139331;0;70
r;85004819;219119;139331;0;70
r;330327538;6396018;139331;0;70
r;9338275;239871;139331;0;71
r;82136010;3295731;139331;0;71
r;107204623;5346974;139331;0;71
r;220098665;9743773;139331;0;71
r;194338;142700;139331;0;73
r;978880;22546;139331;0;74
r;1684463;128752;139331;0;74
r;1467174;17635;139331;0;75
r;2315268;30810;139331;0;75
r;1738674;226793;139331;0;78
r;1815468;73558;139331;0;78
r;1372100;45886;139331;0;80
r;1525871;11946;139331;0;80
r;13438460;142944;139331;0;80
r;13438474;105032;139331;0;80
r;13438488;174903;139331;0;80
r;872887;82383;139331;0;81
r;11699583;254352;139331;0;81
r;94154296;16985;139331;0;82
r;3139812;155663;139331;0;83
r;129094;99740;139331;0;90
r;361008;100835;139331;0;90
r;188787;30171;139331;0;94
r;180144408;281577;139331;0;100
r;330322279;6420783;139331;0;100
r;12551662;387426;139331;0;101
r;12551674;387423;139331;0;101
r;12577136;381033;139331;0;101
r;12662412;360102;139331;0;101
r;12724742;344933;139331;0;101
r;12746464;339733;139331;0;101
r;287642608;252114;139331;0;101
r;12551630;387435;139331;0;102
r;12551646;387431;139331;0;102
r;12551656;387428;139331;0;102
r;12551686;387420;139331;0;102
r;12564942;384148;139331;0;102
r;12735492;342346;139331;0;102
r;12546960;388737;139331;0;103
r;12551634;387434;139331;0;103
r;12551690;387419;139331;0;103
r;12551694;387418;139331;0;103
r;12578174;380797;139331;0;103
r;12551658;387427;139331;0;104
r;13164949;392256;139331;0;104
r;1987747;82176;139331;0;105
r;12637534;366176;139331;0;105
r;180063710;1852223;139331;0;105
r;216214934;1828257;139331;0;105
r;11854650;175100;139331;0;106
r;12378955;332465;139331;0;106
r;12544542;389356;139331;0;106
r;12551614;387439;139331;0;106
r;12551618;387438;139331;0;106
r;12551638;387433;139331;0;106
r;12551648;387430;139331;0;106
r;12551678;387422;139331;0;106
r;12551698;387417;139331;0;106
r;12565754;383942;139331;0;106
r;12644626;364427;139331;0;106
r;12744114;340284;139331;0;106
r;219045387;7490511;139331;0;106
r;11856752;154344;139331;0;107
r;12551610;387440;139331;0;107
r;12551626;387436;139331;0;107
r;12551670;387424;139331;0;107
r;12551682;387421;139331;0;107
r;12551652;387429;139331;0;109
r;12677900;356309;139331;0;109
r;1699240;108557;139331;0;110
r;11862237;109833;139331;0;110
r;12551622;387437;139331;0;110
r;12551642;387432;139331;0;110
r;12644570;364436;139331;0;110
r;29235686;1779642;139331;0;118
r;1814839;125561;139331;0;120
r;154211399;7459353;139331;0;122
r;180045788;6366886;139331;0;130
r;78460991;148135;139331;0;135
r;180051722;6364801;139331;0;135
r;413561;3461;139331;0;140
r;12551666;387425;139331;0;140
r;1860796;73739;139331;0;142
r;9381337;21944;139331;0;143
r;9385285;33183;139331;0;143
r;9393287;55427;139331;0;143
r;9396892;65618;139331;0;143
r;2286668;143981;139331;0;144
r;9399444;72896;139331;0;144
r;9400977;77288;139331;0;144
r;9412428;108215;139331;0;144
r;475811;170112;139331;0;145
r;1532446;161650;139331;0;145
r;1612921;151588;139331;0;145
r;3067382;167538;139331;0;145
r;9423288;136934;139331;0;145
r;9430735;153134;139331;0;145
r;9433475;156325;139331;0;145
r;9437084;161651;139331;0;145
r;9437158;161801;139331;0;145
r;9437159;161802;139331;0;145
r;9438474;163772;139331;0;145
r;9438947;164321;139331;0;145
r;9445556;174366;139331;0;146
r;9445720;175151;139331;0;146
r;9446738;179062;139331;0;146
r;9447031;179827;139331;0;146
r;9449936;181768;139331;0;146
r;9451164;182409;139331;0;146
r;9458561;186384;139331;0;146
r;9458739;186451;139331;0;146
r;1546149;214220;139331;0;147
r;1613441;219120;139331;0;147
r;1753772;226381;139331;0;147
r;9460986;187615;139331;0;147
r;9475267;196729;139331;0;147
r;9478239;198484;139331;0;147
r;9482417;200740;139331;0;147
r;9495528;208406;139331;0;147
r;9504894;217312;139331;0;147
r;9512715;230095;139331;0;147
r;9515164;233243;139331;0;147
r;9519492;239874;139331;0;147
r;9531511;255211;139331;0;147
r;9533902;256793;139331;0;147
r;9544433;264415;139331;0;147
r;9573870;290925;139331;0;147
r;9578413;295633;139331;0;147
r;9581432;298804;139331;0;147
r;9582540;299869;139331;0;147
r;9599924;314152;139331;0;148
r;9599942;314172;139331;0;148
r;2158945;234898;139331;0;150
r;2423668;222795;139331;0;150
r;180141198;6306380;139331;0;152
r;1706813;154139;139331;0;155
r;9437836;162791;139331;0;155
r;172813352;1830102;139331;0;155
r;180119415;6807917;139331;0;155
r;180120215;6821738;139331;0;155
r;668707;167818;139331;0;160
r;1851193;168680;139331;0;160
r;413682;92091;139331;0;163
r;9431532;154137;139331;0;163
r;9431534;154138;139331;0;163
r;1769597;229312;139331;0;165
r;9529360;253635;139331;0;167
r;1815369;94212;139331;0;168
r;9599944;314173;139331;0;179
r;271272;123340;139331;0;184
r;1611118;187835;139331;0;187
r;1555272;214872;139331;0;238
r;11614003;161446;139331;0;258
r;70473;107150;139331;0;274
r;260407710;9743697;139331;0;285
r;405494;152266;139331;0;288
r;171993;28223;139331;0;310
r;180146565;27681;139331;0;320
r;269567258;6807933;139331;0;321
r;180141966;205424;139331;0;325
r;96132;38245;139331;0;558