e;13369;'être';1;808
e;27111;'faire pipi';1;230
e;11181;'violer';1;202
e;78768;'chasser';1;936
e;2234;'copuler';1;176
e;130164;'manger';1;9680
e;43601;'se reproduire';1;478
e;2442;'vivre';1;2214
e;140318;'parler';1;3808
e;124600;'mourir';1;1776
e;43253;'dormir';1;6062
e;327200;'::>13:13369>29:2442';8;50;'vivre [sujet] être'
e;32550;'respirer';1;1118
e;41668;'entrapercevoir';1;52
e;54848;'léguer';1;118
e;107768;'cicatriser';1;92
e;138261;'bâiller';1;70
e;141484;'entr'apercevoir';1;50
e;109883;'arracher';1;290
e;13847;'faire semblant';1;230
e;207988;'se tordre de douleur';1;84
e;127535;'engendrer';1;112
e;233198;'boire>86872';1;50;'boire>se désaltérer'
e;258025;'montrer son cul';1;12
e;124836;'croquer';1;420
e;33882;'se nourrir';1;374
e;10270;'hiberner';1;70
e;224422;'manger>113902>119570';1;196;'manger>alimentation>absorber'
e;6681658;'manger>113902';1;14;'manger>alimentation'
e;47918;'boire';1;4354
e;251694;'mourir>126720';1;160;'mourir>cesser de vivre'
e;259820;'vivre>160251';1;50;'vivre>être en vie'