
r;8263720;13369;27111;24;-9
r;1718011;13369;11181;24;0
r;1716354;13369;78768;24;3
r;1717738;13369;2234;24;10
r;2613234;13369;130164;24;30
r;2645399;13369;43601;24;30
r;2662773;13369;2442;24;30
r;2679999;13369;140318;24;30
r;2697371;13369;124600;24;30
r;2848572;13369;43253;24;30
r;14821442;13369;327200;24;30
r;14836965;13369;32550;24;30
r;96747221;13369;41668;24;30
r;96747222;13369;54848;24;30
r;96747223;13369;107768;24;30
r;96747224;13369;138261;24;30
r;96747225;13369;141484;24;30
r;96747232;13369;109883;24;30
r;96747233;13369;13847;24;30
r;96747234;13369;207988;24;30
r;96747235;13369;127535;24;30
r;96749630;13369;233198;24;30
r;96749634;13369;258025;24;30
r;96749636;13369;124836;24;30
r;96749637;13369;33882;24;30
r;96751953;13369;10270;24;30
r;96751955;13369;224422;24;30
r;234465223;13369;6681658;24;30
r;98684637;13369;47918;24;31
r;2810274;13369;251694;24;54
r;2927988;13369;259820;24;57