e;13369;'être';1;808
e;64885;'qqn';1;50
e;1797469;'qqun';1;0
e;137506;'quelqu'un';1;4288
e;38772;'étrangler';1;150
e;7943;'tuer';1;3914
e;85163;'lyncher';1;60
e;65529;'hiérarchiser';1;54
e;4147;'vouloir';1;576