e;13369;'être';1;808
e;325131;'organisme parasite';1;50
e;265078;'animal parasite';1;50
e;261138;'horloge circadienne';1;16
e;35789;'parasite';1;752
e;16747;'adn';1;158
e;144791;'duvet';1;416
e;118879;'parasitose';1;140
e;105041;'narine';1;542
e;139779;'ADN';1;664
e;114327;'acide désoxyribonucléique';1;136
e;264894;'acaryote';1;2
e;164756;'parasite intestinal';1;52
e;316353;'ver rond';1;52
e;6482;'bactérie';1;660
e;48497;'Némathelminthes';1;50
e;54613;'chromosome';1;384
e;58277;'bacille';1;132
e;142844;'Nématodes';1;50
e;225770;'organe>112609';1;74;'organe>anatomie'
e;262114;'parasitofaune';1;2
e;18160;'némathelminthe';1;66
e;75665;'nématodes';1;56
e;86706;'nématode';1;118
e;132863;'épibionte';1;62
e;145399;'némathelminthes';1;52
e;251441;'caractère dominant';1;4
e;265651;'vers ronds';1;50
e;146632;'forêt';1;4274
e;20713;'planète';1;2700
e;12831;'montagne';1;3852
e;9664;'océan';1;3122
e;142563;'monde';1;1002
e;77306;'ciel';1;2584
e;141387;'espace';1;2568
e;139892;'Terre';1;1182
e;45179;'maison';1;12106
e;25705;'terre';1;4056
e;61944;'univers';1;1832
e;50356;'partout';1;404