
r;410844;13369;145680;10;-50
r;4984654;13369;26477;10;5
r;96742661;13369;245218;10;10
r;96742662;13369;266398;10;10
r;96742663;13369;267630;10;10
r;96742664;13369;267632;10;10
r;96760033;13369;143045;10;21
r;2858784;13369;36886;10;35
r;2858872;13369;120157;10;40
r;262003;13369;140866;10;54
r;232116;13369;38078;10;55
r;262001;13369;20713;10;58
r;262002;13369;25705;10;58
r;250897;13369;61944;10;60
r;262000;13369;40355;10;60