
r;241227;17559;13369;10;-120
r;202301;10756;13369;10;-60
r;432287;74860;13369;10;-60
r;8526692;122828;13369;10;-14
r;8558062;138522;13369;10;-10
r;8868268;80029;13369;10;-6
r;8554063;14807;13369;10;-5
r;8800817;187507;13369;10;-5
r;14053654;380159;13369;10;-5
r;8904706;131492;13369;10;-3
r;1774965;20271;13369;10;-2
r;3105223;221984;13369;10;-1
r;8866384;189260;13369;10;-1
r;2150862;233136;13369;10;0
r;8800374;13907;13369;10;0
r;1713311;83764;13369;10;1
r;1779643;221985;13369;10;2
r;1817702;221986;13369;10;2
r;2136849;221983;13369;10;2
r;2145936;233134;13369;10;3
r;1802731;221988;13369;10;4
r;9987903;21405;13369;10;4
r;9987899;74558;13369;10;4
r;9987905;26363;13369;10;4
r;8562059;142226;13369;10;5
r;8841159;188989;13369;10;6
r;10132912;77008;13369;10;8
r;10165095;225934;13369;10;9
r;10223904;77424;13369;10;10
r;10232926;16110;13369;10;10
r;10238914;81934;13369;10;10
r;10246167;142086;13369;10;10
r;10265862;34898;13369;10;11
r;10345061;233138;13369;10;14
r;10372520;107477;13369;10;14
r;10460082;219363;13369;10;15
r;10480776;221019;13369;10;16
r;10355608;145953;13369;10;17
r;10516551;240720;13369;10;17
r;11044237;228289;13369;10;17
r;23535605;90273;13369;10;26
r;104578495;44160;13369;10;26
r;98112687;52746;13369;10;26
r;11042500;95422;13369;10;27
r;97416083;121687;13369;10;27
r;97416084;56280;13369;10;27
r;97414980;213435;13369;10;28
r;97415404;262114;13369;10;28
r;97416081;63936;13369;10;28
r;97416082;50869;13369;10;28
r;10331624;140715;13369;10;29
r;97416080;1636805;13369;10;30
r;97416085;109785;13369;10;30
r;330155805;12791689;13369;10;30
r;9987901;116980;13369;10;31
r;10388131;139779;13369;10;31
r;10659337;16747;13369;10;31
r;15822410;114327;13369;10;31
r;16436017;187622;13369;10;31
r;97416086;19356;13369;10;31
r;23535607;315903;13369;10;34
r;212106579;94431;13369;10;35
r;196039375;6798394;13369;10;37
r;97415407;41005;13369;10;39
r;8548413;13946;13369;10;40
r;97415406;103057;13369;10;53
r;2454724;144846;13369;10;54
r;212564208;464752;13369;10;57
r;30557555;243585;13369;10;58
r;202191;96211;13369;10;59
r;272513;130812;13369;10;60
r;47895790;3320;13369;10;60
r;4145466;74846;13369;10;83
r;412802;87292;13369;10;93
r;228656412;7082023;13369;10;140
r;11520146;174214;13369;10;143
r;97415405;163834;13369;10;144
r;154149892;6863585;13369;10;147
r;148272001;6825857;13369;10;216
r;97414979;215534;13369;10;219